--2020-07-28 14:13:24--  https://10.1.0.1/random
Connecting to 10.1.0.1:443... connected.
WARNING: cannot verify 10.1.0.1's certificate, issued by ‘/C=BE/ST=LLN/O=Internet Widgits Pty Ltd’:
  Self-signed certificate encountered.
    WARNING: certificate common name ‘’ doesn't match requested host name ‘10.1.0.1’.
HTTP request sent, awaiting response... 200 OK
Length: 20480000 (20M) [application/octet-stream]
Saving to: ‘random.1’

     0K .......... .......... .......... .......... ..........  0%  247K 81s
    50K .......... .......... .......... .......... ..........  0% 1.07M 49s
   100K .......... .......... .......... .......... ..........  0%  506K 46s
   150K .......... .......... .......... .......... ..........  1%  448K 45s
   200K .......... .......... .......... .......... ..........  1%  341K 48s
   250K .......... .......... .......... .......... ..........  1%  332K 50s
   300K .......... .......... .......... .......... ..........  1%  205K 56s
   350K .......... .......... .......... .......... ..........  2%  150K 65s
   400K .......... .......... .......... .......... ..........  2%  113K 77s
   450K .......... .......... .......... .......... ..........  2% 92.8K 90s
   500K .......... .......... .......... .......... ..........  2% 44.1K 2m2s
   550K .......... .......... .......... .......... ..........  3%  113K 2m6s
   600K .......... .......... .......... .......... ..........  3%  102K 2m10s
   650K .......... .......... .......... .......... ..........  3%  104K 2m14s
   700K .......... .......... .......... .......... ..........  3% 92.6K 2m19s
   750K .......... .......... .......... .......... ..........  4% 78.4K 2m25s
   800K .......... .......... .......... .......... ..........  4%  101K 2m27s
   850K .......... .......... .......... .......... ..........  4% 92.8K 2m30s
   900K .......... .......... .......... .......... ..........  4%  128K 2m30s
   950K .......... .......... .......... .......... ..........  5%  176K 2m27s
  1000K .......... .......... .......... .......... ..........  5%  145K 2m26s
  1050K .......... .......... .......... .......... ..........  5%  127K 2m26s
  1100K .......... .......... .......... .......... ..........  5%  132K 2m25s
  1150K .......... .......... .......... .......... ..........  6%  203K 2m23s
  1200K .......... .......... .......... .......... ..........  6%  145K 2m22s
  1250K .......... .......... .......... .......... ..........  6%  131K 2m21s
  1300K .......... .......... .......... .......... ..........  6% 85.0K 2m24s
  1350K .......... .......... .......... .......... ..........  7%  113K 2m24s
  1400K .......... .......... .......... .......... ..........  7%  145K 2m23s
  1450K .......... .......... .......... .......... ..........  7%  169K 2m22s
  1500K .......... .......... .......... .......... ..........  7%  113K 2m22s
  1550K .......... .......... .......... .......... ..........  8%  170K 2m21s
  1600K .......... .......... .......... .......... ..........  8%  144K 2m20s
  1650K .......... .......... .......... .......... ..........  8%  145K 2m19s
  1700K .......... .......... .......... .......... ..........  8%  170K 2m18s
  1750K .......... .......... .......... .......... ..........  9%  203K 2m16s
  1800K .......... .......... .......... .......... ..........  9%  128K 2m16s
  1850K .......... .......... .......... .......... ..........  9%  252K 2m14s
  1900K .......... .......... .......... .......... ..........  9%  146K 2m13s
  1950K .......... .......... .......... .......... .......... 10% 84.9K 2m15s
  2000K .......... .......... .......... .......... .......... 10%  128K 2m15s
  2050K .......... .......... .......... .......... .......... 10%  113K 2m15s
  2100K .......... .......... .......... .......... .......... 10%  113K 2m15s
  2150K .......... .......... .......... .......... .......... 11%  146K 2m14s
  2200K .......... .......... .......... .......... .......... 11%  168K 2m13s
  2250K .......... .......... .......... .......... .......... 11%  168K 2m12s
  2300K .......... .......... .......... .......... .......... 11%  170K 2m11s
  2350K .......... .......... .......... .......... .......... 12%  169K 2m11s
  2400K .......... .......... .......... .......... .......... 12%  203K 2m9s
  2450K .......... .......... .......... .......... .......... 12%  169K 2m8s
  2500K .......... .......... .......... .......... .......... 12%  127K 2m8s
  2550K .......... .......... .......... .......... .......... 13% 84.8K 2m9s
  2600K .......... .......... .......... .......... .......... 13%  128K 2m9s
  2650K .......... .......... .......... .......... .......... 13%  212K 2m8s
  2700K .......... .......... .......... .......... .......... 13%  147K 2m7s
  2750K .......... .......... .......... .......... .......... 14%  146K 2m7s
  2800K .......... .......... .......... .......... .......... 14%  145K 2m6s
  2850K .......... .......... .......... .......... .......... 14%  102K 2m7s
  2900K .......... .......... .......... .......... .......... 14%  128K 2m6s
  2950K .......... .......... .......... .......... .......... 15%  176K 2m6s
  3000K .......... .......... .......... .......... .......... 15%  110K 2m6s
  3050K .......... .......... .......... .......... .......... 15%  146K 2m5s
  3100K .......... .......... .......... .......... .......... 15%  146K 2m5s
  3150K .......... .......... .......... .......... .......... 16% 84.8K 2m5s
  3200K .......... .......... .......... .......... .......... 16% 72.9K 2m7s
  3250K .......... .......... .......... .......... .......... 16% 73.7K 2m8s
  3300K .......... .......... .......... .......... .......... 16%  162K 2m7s
  3350K .......... .......... .......... .......... .......... 17%  204K 2m6s
  3400K .......... .......... .......... .......... .......... 17%  146K 2m5s
  3450K .......... .......... .......... .......... .......... 17%  127K 2m5s
  3500K .......... .......... .......... .......... .......... 17%  127K 2m5s
  3550K .......... .......... .......... .......... .......... 18% 85.1K 2m5s
  3600K .......... .......... .......... .......... .......... 18% 42.2K 2m9s
  3650K .......... .......... .......... .......... .......... 18%  147K 2m8s
  3700K .......... .......... .......... .......... .......... 18%  113K 2m8s
  3750K .......... .......... .......... .......... .......... 19%  104K 2m8s
  3800K .......... .......... .......... .......... .......... 19%  128K 2m7s
  3850K .......... .......... .......... .......... .......... 19%  141K 2m7s
  3900K .......... .......... .......... .......... .......... 19%  113K 2m7s
  3950K .......... .......... .......... .......... .......... 20%  127K 2m6s
  4000K .......... .......... .......... .......... .......... 20%  102K 2m6s
  4050K .......... .......... .......... .......... .......... 20%  116K 2m6s
  4100K .......... .......... .......... .......... .......... 20%  125K 2m6s
  4150K .......... .......... .......... .......... .......... 21%  176K 2m5s
  4200K .......... .......... .......... .......... .......... 21% 78.4K 2m5s
  4250K .......... .......... .......... .......... .......... 21% 60.6K 2m6s
  4300K .......... .......... .......... .......... .......... 21%  146K 2m6s
  4350K .......... .......... .......... .......... .......... 22%  113K 2m6s
  4400K .......... .......... .......... .......... .......... 22% 92.6K 2m6s
  4450K .......... .......... .......... .......... .......... 22%  131K 2m5s
  4500K .......... .......... .......... .......... .......... 22%  162K 2m4s
  4550K .......... .......... .......... .......... .......... 23%  170K 2m4s
  4600K .......... .......... .......... .......... .......... 23%  113K 2m3s
  4650K .......... .......... .......... .......... .......... 23%  127K 2m3s
  4700K .......... .......... .......... .......... .......... 23%  146K 2m2s
  4750K .......... .......... .......... .......... .......... 24%  169K 2m2s
  4800K .......... .......... .......... .......... .......... 24%  128K 2m1s
  4850K .......... .......... .......... .......... .......... 24%  169K 2m0s
  4900K .......... .......... .......... .......... .......... 24% 92.5K 2m0s
  4950K .......... .......... .......... .......... .......... 25%  128K 2m0s
  5000K .......... .......... .......... .......... .......... 25%  169K 1m59s
  5050K .......... .......... .......... .......... .......... 25%  253K 1m58s
  5100K .......... .......... .......... .......... .......... 25%  253K 1m57s
  5150K .......... .......... .......... .......... .......... 26%  169K 1m57s
  5200K .......... .......... .......... .......... .......... 26%  113K 1m56s
  5250K .......... .......... .......... .......... .......... 26%  170K 1m56s
  5300K .......... .......... .......... .......... .......... 26%  213K 1m55s
  5350K .......... .......... .......... .......... .......... 27%  204K 1m54s
  5400K .......... .......... .......... .......... .......... 27%  113K 1m54s
  5450K .......... .......... .......... .......... .......... 27%  102K 1m54s
  5500K .......... .......... .......... .......... .......... 27% 73.3K 1m54s
  5550K .......... .......... .......... .......... .......... 28%  145K 1m54s
  5600K .......... .......... .......... .......... .......... 28% 72.8K 1m54s
  5650K .......... .......... .......... .......... .......... 28%  145K 1m53s
  5700K .......... .......... .......... .......... .......... 28%  169K 1m53s
  5750K .......... .......... .......... .......... .......... 29%  170K 1m52s
  5800K .......... .......... .......... .......... .......... 29%  170K 1m51s
  5850K .......... .......... .......... .......... .......... 29%  102K 1m51s
  5900K .......... .......... .......... .......... .......... 29%  116K 1m51s
  5950K .......... .......... .......... .......... .......... 30%  124K 1m51s
  6000K .......... .......... .......... .......... .......... 30%  113K 1m50s
  6050K .......... .......... .......... .......... .......... 30% 72.8K 1m51s
  6100K .......... .......... .......... .......... .......... 30%  128K 1m50s
  6150K .......... .......... .......... .......... .......... 31%  149K 1m50s
  6200K .......... .......... .......... .......... .......... 31%  204K 1m49s
  6250K .......... .......... .......... .......... .......... 31%  253K 1m48s
  6300K .......... .......... .......... .......... .......... 31%  204K 1m47s
  6350K .......... .......... .......... .......... .......... 32%  127K 1m47s
  6400K .......... .......... .......... .......... .......... 32%  145K 1m47s
  6450K .......... .......... .......... .......... .......... 32% 73.3K 1m47s
  6500K .......... .......... .......... .......... .......... 32%  177K 1m46s
  6550K .......... .......... .......... .......... .......... 33%  142K 1m46s
  6600K .......... .......... .......... .......... .......... 33%  129K 1m45s
  6650K .......... .......... .......... .......... .......... 33%  180K 1m45s
  6700K .......... .......... .......... .......... .......... 33%  161K 1m44s
  6750K .......... .......... .......... .......... .......... 34%  178K 1m43s
  6800K .......... .......... .......... .......... .......... 34%  114K 1m43s
  6850K .......... .......... .......... .......... .......... 34%  127K 1m43s
  6900K .......... .......... .......... .......... .......... 34%  160K 1m42s
  6950K .......... .......... .......... .......... .......... 35%  204K 1m42s
  7000K .......... .......... .......... .......... .......... 35%  170K 1m41s
  7050K .......... .......... .......... .......... .......... 35%  169K 1m40s
  7100K .......... .......... .......... .......... .......... 35%  113K 1m40s
  7150K .......... .......... .......... .......... .......... 36%  131K 1m40s
  7200K .......... .......... .......... .......... .......... 36% 90.9K 1m40s
  7250K .......... .......... .......... .......... .......... 36%  102K 99s
  7300K .......... .......... .......... .......... .......... 36%  170K 99s
  7350K .......... .......... .......... .......... .......... 37%  102K 99s
  7400K .......... .......... .......... .......... .......... 37%  113K 98s
  7450K .......... .......... .......... .......... .......... 37%  170K 98s
  7500K .......... .......... .......... .......... .......... 37%  145K 97s
  7550K .......... .......... .......... .......... .......... 38%  144K 97s
  7600K .......... .......... .......... .......... .......... 38%  102K 97s
  7650K .......... .......... .......... .......... .......... 38%  102K 96s
  7700K .......... .......... .......... .......... .......... 38%  102K 96s
  7750K .......... .......... .......... .......... .......... 39%  113K 96s
  7800K .......... .......... .......... .......... .......... 39% 55.5K 96s
  7850K .......... .......... .......... .......... .......... 39% 57.1K 97s
  7900K .......... .......... .......... .......... .......... 39%  146K 96s
  7950K .......... .......... .......... .......... .......... 40% 94.6K 96s
  8000K .......... .......... .......... .......... .......... 40%  102K 96s
  8050K .......... .......... .......... .......... .......... 40%  145K 95s
  8100K .......... .......... .......... .......... .......... 40%  151K 95s
  8150K .......... .......... .......... .......... .......... 41%  189K 94s
  8200K .......... .......... .......... .......... .......... 41%  145K 94s
  8250K .......... .......... .......... .......... .......... 41%  204K 93s
  8300K .......... .......... .......... .......... .......... 41%  170K 92s
  8350K .......... .......... .......... .......... .......... 42%  131K 92s
  8400K .......... .......... .......... .......... .......... 42%  114K 92s
  8450K .......... .......... .......... .......... .......... 42%  141K 91s
  8500K .......... .......... .......... .......... .......... 42%  113K 91s
  8550K .......... .......... .......... .......... .......... 43% 94.3K 91s
  8600K .......... .......... .......... .......... .......... 43% 84.8K 90s
  8650K .......... .......... .......... .......... .......... 43%  127K 90s
  8700K .......... .......... .......... .......... .......... 43% 84.9K 90s
  8750K .......... .......... .......... .......... .......... 44%  102K 90s
  8800K .......... .......... .......... .......... .......... 44% 63.7K 90s
  8850K .......... .......... .......... .......... .......... 44%  111K 89s
  8900K .......... .......... .......... .......... .......... 44%  116K 89s
  8950K .......... .......... .......... .......... .......... 45%  191K 88s
  9000K .......... .......... .......... .......... .......... 45%  169K 88s
  9050K .......... .......... .......... .......... .......... 45%  128K 87s
  9100K .......... .......... .......... .......... .......... 45%  113K 87s
  9150K .......... .......... .......... .......... .......... 46%  113K 87s
  9200K .......... .......... .......... .......... .......... 46% 84.7K 87s
  9250K .......... .......... .......... .......... .......... 46%  150K 86s
  9300K .......... .......... .......... .......... .......... 46%  150K 86s
  9350K .......... .......... .......... .......... .......... 47%  102K 85s
  9400K .......... .......... .......... .......... .......... 47% 91.0K 85s
  9450K .......... .......... .......... .......... .......... 47%  170K 85s
  9500K .......... .......... .......... .......... .......... 47%  177K 84s
  9550K .......... .......... .......... .......... .......... 48%  204K 83s
  9600K .......... .......... .......... .......... .......... 48%  161K 83s
  9650K .......... .......... .......... .......... .......... 48% 92.8K 83s
  9700K .......... .......... .......... .......... .......... 48%  102K 82s
  9750K .......... .......... .......... .......... .......... 49%  113K 82s
  9800K .......... .......... .......... .......... .......... 49%  105K 82s
  9850K .......... .......... .......... .......... .......... 49%  170K 81s
  9900K .......... .......... .......... .......... .......... 49%  113K 81s
  9950K .......... .......... .......... .......... .......... 50%  112K 80s
 10000K .......... .......... .......... .......... .......... 50% 84.7K 80s
 10050K .......... .......... .......... .......... .......... 50%  127K 80s
 10100K .......... .......... .......... .......... .......... 50%  146K 79s
 10150K .......... .......... .......... .......... .......... 51%  169K 79s
 10200K .......... .......... .......... .......... .......... 51% 68.5K 79s
 10250K .......... .......... .......... .......... .......... 51%  141K 78s
 10300K .......... .......... .......... .......... .......... 51%  144K 78s
 10350K .......... .......... .......... .......... .......... 52%  145K 77s
 10400K .......... .......... .......... .......... .......... 52%  116K 77s
 10450K .......... .......... .......... .......... .......... 52%  169K 77s
 10500K .......... .......... .......... .......... .......... 52%  127K 76s
 10550K .......... .......... .......... .......... .......... 53%  203K 76s
 10600K .......... .......... .......... .......... .......... 53%  146K 75s
 10650K .......... .......... .......... .......... .......... 53%  169K 75s
 10700K .......... .......... .......... .......... .......... 53%  149K 74s
 10750K .......... .......... .......... .......... .......... 54%  197K 74s
 10800K .......... .......... .......... .......... .......... 54% 92.6K 73s
 10850K .......... .......... .......... .......... .......... 54%  117K 73s
 10900K .......... .......... .......... .......... .......... 54%  113K 73s
 10950K .......... .......... .......... .......... .......... 55% 92.5K 72s
 11000K .......... .......... .......... .......... .......... 55%  102K 72s
 11050K .......... .......... .......... .......... .......... 55% 84.8K 72s
 11100K .......... .......... .......... .......... .......... 55% 78.5K 72s
 11150K .......... .......... .......... .......... .......... 56%  127K 71s
 11200K .......... .......... .......... .......... .......... 56%  113K 71s
 11250K .......... .......... .......... .......... .......... 56%  176K 70s
 11300K .......... .......... .......... .......... .......... 56%  203K 70s
 11350K .......... .......... .......... .......... .......... 57%  203K 69s
 11400K .......... .......... .......... .......... .......... 57%  127K 69s
 11450K .......... .......... .......... .......... .......... 57%  146K 68s
 11500K .......... .......... .......... .......... .......... 57%  127K 68s
 11550K .......... .......... .......... .......... .......... 58% 79.8K 68s
 11600K .......... .......... .......... .......... .......... 58% 92.5K 67s
 11650K .......... .......... .......... .......... .......... 58%  114K 67s
 11700K .......... .......... .......... .......... .......... 58% 46.6K 67s
 11750K .......... .......... .......... .......... .......... 59% 72.8K 67s
 11800K .......... .......... .......... .......... .......... 59% 74.1K 67s
 11850K .......... .......... .......... .......... .......... 59%  141K 66s
 11900K .......... .......... .......... .......... .......... 59%  203K 66s
 11950K .......... .......... .......... .......... .......... 60%  102K 65s
 12000K .......... .......... .......... .......... .......... 60% 86.8K 65s
 12050K .......... .......... .......... .......... .......... 60%  145K 65s
 12100K .......... .......... .......... .......... .......... 60%  169K 64s
 12150K .......... .......... .......... .......... .......... 61%  128K 64s
 12200K .......... .......... .......... .......... .......... 61%  104K 63s
 12250K .......... .......... .......... .......... .......... 61%  127K 63s
 12300K .......... .......... .......... .......... .......... 61%  170K 62s
 12350K .......... .......... .......... .......... .......... 62%  202K 62s
 12400K .......... .......... .......... .......... .......... 62%  128K 62s
 12450K .......... .......... .......... .......... .......... 62%  146K 61s
 12500K .......... .......... .......... .......... .......... 62%  171K 61s
 12550K .......... .......... .......... .......... .......... 63%  149K 60s
 12600K .......... .......... .......... .......... .......... 63% 90.4K 60s
 12650K .......... .......... .......... .......... .......... 63%  127K 59s
 12700K .......... .......... .......... .......... .......... 63% 92.7K 59s
 12750K .......... .......... .......... .......... .......... 64%  104K 59s
 12800K .......... .......... .......... .......... .......... 64%  116K 58s
 12850K .......... .......... .......... .......... .......... 64%  170K 58s
 12900K .......... .......... .......... .......... .......... 64%  253K 57s
 12950K .......... .......... .......... .......... .......... 65%  256K 57s
 13000K .......... .......... .......... .......... .......... 65%  204K 56s
 13050K .......... .......... .......... .......... .......... 65%  214K 56s
 13100K .......... .......... .......... .......... .......... 65%  176K 55s
 13150K .......... .......... .......... .......... .......... 66%  141K 55s
 13200K .......... .......... .......... .......... .......... 66% 85.0K 55s
 13250K .......... .......... .......... .......... .......... 66%  131K 54s
 13300K .......... .......... .......... .......... .......... 66%  204K 54s
 13350K .......... .......... .......... .......... .......... 67%  127K 53s
 13400K .......... .......... .......... .......... .......... 67% 92.5K 53s
 13450K .......... .......... .......... .......... .......... 67%  127K 53s
 13500K .......... .......... .......... .......... .......... 67%  127K 52s
 13550K .......... .......... .......... .......... .......... 68%  113K 52s
 13600K .......... .......... .......... .......... .......... 68%  127K 51s
 13650K .......... .......... .......... .......... .......... 68%  204K 51s
 13700K .......... .......... .......... .......... .......... 68%  169K 50s
 13750K .......... .......... .......... .......... .......... 69% 72.3K 50s
 13800K .......... .......... .......... .......... .......... 69% 56.6K 50s
 13850K .......... .......... .......... .......... .......... 69%  104K 50s
 13900K .......... .......... .......... .......... .......... 69%  160K 49s
 13950K .......... .......... .......... .......... .......... 70%  203K 49s
 14000K .......... .......... .......... .......... .......... 70%  170K 48s
 14050K .......... .......... .......... .......... .......... 70%  128K 48s
 14100K .......... .......... .......... .......... .......... 70%  146K 47s
 14150K .......... .......... .......... .......... .......... 71%  151K 47s
 14200K .......... .......... .......... .......... .......... 71% 99.6K 47s
 14250K .......... .......... .......... .......... .......... 71%  145K 46s
 14300K .......... .......... .......... .......... .......... 71%  203K 46s
 14350K .......... .......... .......... .......... .......... 72%  127K 45s
 14400K .......... .......... .......... .......... .......... 72%  116K 45s
 14450K .......... .......... .......... .......... .......... 72%  127K 44s
 14500K .......... .......... .......... .......... .......... 72%  127K 44s
 14550K .......... .......... .......... .......... .......... 73%  170K 44s
 14600K .......... .......... .......... .......... .......... 73%  169K 43s
 14650K .......... .......... .......... .......... .......... 73%  338K 43s
 14700K .......... .......... .......... .......... .......... 73%  252K 42s
 14750K .......... .......... .......... .......... .......... 74%  131K 42s
 14800K .......... .......... .......... .......... .......... 74% 52.7K 42s
 14850K .......... .......... .......... .......... .......... 74%  131K 41s
 14900K .......... .......... .......... .......... .......... 74%  170K 41s
 14950K .......... .......... .......... .......... .......... 75%  177K 40s
 15000K .......... .......... .......... .......... .......... 75%  203K 40s
 15050K .......... .......... .......... .......... .......... 75%  127K 39s
 15100K .......... .......... .......... .......... .......... 75%  165K 39s
 15150K .......... .......... .......... .......... .......... 76%  169K 39s
 15200K .......... .......... .......... .......... .......... 76%  116K 38s
 15250K .......... .......... .......... .......... .......... 76%  102K 38s
 15300K .......... .......... .......... .......... .......... 76%  128K 37s
 15350K .......... .......... .......... .......... .......... 77%  145K 37s
 15400K .......... .......... .......... .......... .......... 77% 68.0K 37s
 15450K .......... .......... .......... .......... .......... 77%  102K 36s
 15500K .......... .......... .......... .......... .......... 77%  151K 36s
 15550K .......... .......... .......... .......... .......... 78%  205K 35s
 15600K .......... .......... .......... .......... .......... 78%  204K 35s
 15650K .......... .......... .......... .......... .......... 78%  170K 35s
 15700K .......... .......... .......... .......... .......... 78%  151K 34s
 15750K .......... .......... .......... .......... .......... 79%  110K 34s
 15800K .......... .......... .......... .......... .......... 79%  102K 33s
 15850K .......... .......... .......... .......... .......... 79% 39.2K 33s
 15900K .......... .......... .......... .......... .......... 79% 64.2K 33s
 15950K .......... .......... .......... .......... .......... 80%  165K 32s
 16000K .......... .......... .......... .......... .......... 80%  113K 32s
 16050K .......... .......... .......... .......... .......... 80%  169K 32s
 16100K .......... .......... .......... .......... .......... 80%  170K 31s
 16150K .......... .......... .......... .......... .......... 81%  127K 31s
 16200K .......... .......... .......... .......... .......... 81%  132K 30s
 16250K .......... .......... .......... .......... .......... 81%  102K 30s
 16300K .......... .......... .......... .......... .......... 81%  164K 30s
 16350K .......... .......... .......... .......... .......... 82%  145K 29s
 16400K .......... .......... .......... .......... .......... 82% 92.4K 29s
 16450K .......... .......... .......... .......... .......... 82%  150K 28s
 16500K .......... .......... .......... .......... .......... 82%  213K 28s
 16550K .......... .......... .......... .......... .......... 83%  202K 27s
 16600K .......... .......... .......... .......... .......... 83%  255K 27s
 16650K .......... .......... .......... .......... .......... 83%  204K 27s
 16700K .......... .......... .......... .......... .......... 83%  145K 26s
 16750K .......... .......... .......... .......... .......... 84%  178K 26s
 16800K .......... .......... .......... .......... .......... 84%  194K 25s
 16850K .......... .......... .......... .......... .......... 84%  203K 25s
 16900K .......... .......... .......... .......... .......... 84%  113K 24s
 16950K .......... .......... .......... .......... .......... 85%  170K 24s
 17000K .......... .......... .......... .......... .......... 85%  146K 24s
 17050K .......... .......... .......... .......... .......... 85%  145K 23s
 17100K .......... .......... .......... .......... .......... 85%  178K 23s
 17150K .......... .......... .......... .......... .......... 86%  204K 22s
 17200K .......... .......... .......... .......... .......... 86%  213K 22s
 17250K .......... .......... .......... .......... .......... 86%  194K 22s
 17300K .......... .......... .......... .......... .......... 86%  338K 21s
 17350K .......... .......... .......... .......... .......... 87%  254K 21s
 17400K .......... .......... .......... .......... .......... 87%  127K 20s
 17450K .......... .......... .......... .......... .......... 87%  145K 20s
 17500K .......... .......... .......... .......... .......... 87%  145K 19s
 17550K .......... .......... .......... .......... .......... 88%  145K 19s
 17600K .......... .......... .......... .......... .......... 88%  150K 19s
 17650K .......... .......... .......... .......... .......... 88%  169K 18s
 17700K .......... .......... .......... .......... .......... 88%  179K 18s
 17750K .......... .......... .......... .......... .......... 89%  310K 17s
 17800K .......... .......... .......... .......... .......... 89%  170K 17s
 17850K .......... .......... .......... .......... .......... 89%  113K 17s
 17900K .......... .......... .......... .......... .......... 89%  102K 16s
 17950K .......... .......... .......... .......... .......... 90%  151K 16s
 18000K .......... .......... .......... .......... .......... 90% 84.9K 15s
 18050K .......... .......... .......... .......... .......... 90% 34.7K 15s
 18100K .......... .......... .......... .......... .......... 90% 68.1K 15s
 18150K .......... .......... .......... .......... .......... 91%  113K 14s
 18200K .......... .......... .......... .......... .......... 91%  102K 14s
 18250K .......... .......... .......... .......... .......... 91%  151K 14s
 18300K .......... .......... .......... .......... .......... 91%  239K 13s
 18350K .......... .......... .......... .......... .......... 92%  146K 13s
 18400K .......... .......... .......... .......... .......... 92%  126K 12s
 18450K .......... .......... .......... .......... .......... 92%  145K 12s
 18500K .......... .......... .......... .......... .......... 92%  128K 12s
 18550K .......... .......... .......... .......... .......... 93%  175K 11s
 18600K .......... .......... .......... .......... .......... 93%  203K 11s
 18650K .......... .......... .......... .......... .......... 93%  128K 10s
 18700K .......... .......... .......... .......... .......... 93%  169K 10s
 18750K .......... .......... .......... .......... .......... 94% 94.9K 10s
 18800K .......... .......... .......... .......... .......... 94% 41.4K 9s
 18850K .......... .......... .......... .......... .......... 94% 84.9K 9s
 18900K .......... .......... .......... .......... .......... 94%  113K 8s
 18950K .......... .......... .......... .......... .......... 95%  177K 8s
 19000K .......... .......... .......... .......... .......... 95%  163K 8s
 19050K .......... .......... .......... .......... .......... 95%  151K 7s
 19100K .......... .......... .......... .......... .......... 95%  162K 7s
 19150K .......... .......... .......... .......... .......... 96%  128K 6s
 19200K .......... .......... .......... .......... .......... 96% 92.8K 6s
 19250K .......... .......... .......... .......... .......... 96% 60.1K 6s
 19300K .......... .......... .......... .......... .......... 96% 94.4K 5s
 19350K .......... .......... .......... .......... .......... 97%  127K 5s
 19400K .......... .......... .......... .......... .......... 97%  146K 4s
 19450K .......... .......... .......... .......... .......... 97%  102K 4s
 19500K .......... .......... .......... .......... .......... 97%  149K 4s
 19550K .......... .......... .......... .......... .......... 98%  165K 3s
 19600K .......... .......... .......... .......... .......... 98%  102K 3s
 19650K .......... .......... .......... .......... .......... 98%  126K 2s
 19700K .......... .......... .......... .......... .......... 98%  204K 2s
 19750K .......... .......... .......... .......... .......... 99%  170K 2s
 19800K .......... .......... .......... .......... .......... 99%  117K 1s
 19850K .......... .......... .......... .......... .......... 99%  170K 1s
 19900K .......... .......... .......... .......... .......... 99%  141K 0s
 19950K .......... .......... .......... .......... ..........100% 72.9K 0s
 20000K                                                       100% 0.00 =2m41s

2020-07-28 14:16:05 (124 KB/s) - ‘random.1’ saved [20480000/20480000]


real	2m40.923s
user	0m2.549s
sys	0m1.224s
