Serving new connection: 86929308c29670a3, version 512 from 10.0.0.1:46229
GET 10.1.0.1:6121/ugfiugizuegiugzeffg
Responding with 404
Info for stream 5 of 86929308c29670a3
Path 0: sent 12 retrans 0 lost 0; rcv 8 rtt 63.756ms
Serving new connection: 6ad8002ea614cf08, version 512 from 10.0.0.1:54296
Info for stream 5 of 86929308c29670a3
Path 0: sent 14 retrans 1 lost 0; rcv 11 rtt 60.235ms
GET 10.1.0.1:6121/random
Responding with 200
Info for stream 5 of 86929308c29670a3
Path 0: sent 15 retrans 2 lost 0; rcv 11 rtt 60.235ms
Info for stream 5 of 86929308c29670a3
Path 0: sent 16 retrans 3 lost 1; rcv 11 rtt 60.235ms
Info for stream 5 of 86929308c29670a3
Path 0: sent 18 retrans 5 lost 3; rcv 11 rtt 60.235ms
Info for stream 5 of 86929308c29670a3
Path 0: sent 19 retrans 6 lost 4; rcv 11 rtt 60.235ms
Info for stream 5 of 86929308c29670a3
Path 0: sent 21 retrans 8 lost 6; rcv 11 rtt 60.235ms
Info for stream 5 of 86929308c29670a3
Path 0: sent 22 retrans 9 lost 7; rcv 11 rtt 60.235ms
Info for stream 5 of 86929308c29670a3
Path 0: sent 24 retrans 11 lost 9; rcv 11 rtt 60.235ms
Info for stream 5 of 86929308c29670a3
Path 0: sent 25 retrans 12 lost 10; rcv 11 rtt 60.235ms
Closing connection 86929308c29670a3
Info for stream 5 of 6ad8002ea614cf08
Path 0: sent 17259 retrans 810 lost 810; rcv 9014 rtt 51.07ms
