2020/07/22 19:17:59 GET https://10.1.0.1:6121/random
2020/07/22 19:17:59 Starting new connection to 10.1.0.1 (0.0.0.0:41390 -> 10.1.0.1:6121), connectionID 32e0226d6dc2e424, version 512
2020/07/22 19:17:59 Queueing packet 0x4 for later decryption
2020/07/22 19:19:41 Info for stream 5 of 32e0226d6dc2e424
2020/07/22 19:19:41 Path 0: sent 9475 retrans 88 lost 88; rcv 16416
2020/07/22 19:19:41 1m42.247872591s
