Serving new connection: ae502fdeedc91b72, version 512 from 10.0.0.1:54015
GET 10.1.0.1:6121/ugfiugizuegiugzeffg
Responding with 404
Info for stream 5 of ae502fdeedc91b72
Path 0: sent 7 retrans 0 lost 0; rcv 7 rtt 62.986ms
Path 1: sent 5 retrans 0 lost 0; rcv 2 rtt 0s
Serving new connection: 7e6c8ee3d7d2266a, version 512 from 10.0.0.1:57658
GET 10.1.0.1:6121/random
Responding with 200
Info for stream 5 of ae502fdeedc91b72
Path 0: sent 7 retrans 0 lost 0; rcv 7 rtt 62.986ms
Path 1: sent 7 retrans 1 lost 0; rcv 4 rtt 51.406ms
Path 3: sent 1 retrans 0 lost 0; rcv 1 rtt 0s
Info for stream 5 of ae502fdeedc91b72
Path 1: sent 8 retrans 2 lost 0; rcv 4 rtt 51.406ms
Path 3: sent 1 retrans 0 lost 0; rcv 1 rtt 0s
Path 0: sent 7 retrans 0 lost 0; rcv 7 rtt 62.986ms
Info for stream 5 of ae502fdeedc91b72
Path 1: sent 8 retrans 3 lost 1; rcv 4 rtt 51.406ms
Path 3: sent 2 retrans 0 lost 0; rcv 1 rtt 0s
Path 0: sent 7 retrans 0 lost 0; rcv 7 rtt 62.986ms
Internal error: Too many outstanding non-acked and non-retransmitted packets
Closing session with error: Too many outstanding non-acked and non-retransmitted packets
Info for stream 5 of 7e6c8ee3d7d2266a
Path 0: sent 4 retrans 0 lost 0; rcv 5 rtt 119.172ms
Path 1: sent 11323 retrans 548 lost 548; rcv 5911 rtt 51.104ms
Path 3: sent 5668 retrans 279 lost 279; rcv 2986 rtt 85.178ms
Info for stream 5 of 7e6c8ee3d7d2266a
Path 0: sent 4 retrans 0 lost 0; rcv 5 rtt 119.172ms
Path 1: sent 11324 retrans 548 lost 548; rcv 5915 rtt 51.81ms
Path 3: sent 5669 retrans 280 lost 279; rcv 2988 rtt 84.758ms
Info for stream 5 of 7e6c8ee3d7d2266a
Path 0: sent 4 retrans 0 lost 0; rcv 5 rtt 119.172ms
Path 1: sent 11325 retrans 549 lost 548; rcv 5915 rtt 51.81ms
Path 3: sent 5669 retrans 280 lost 279; rcv 2988 rtt 84.758ms
Info for stream 5 of 7e6c8ee3d7d2266a
Path 0: sent 4 retrans 0 lost 0; rcv 5 rtt 119.172ms
Path 1: sent 11326 retrans 550 lost 548; rcv 5915 rtt 51.81ms
Path 3: sent 5669 retrans 280 lost 279; rcv 2988 rtt 84.758ms
Info for stream 5 of 7e6c8ee3d7d2266a
Path 3: sent 5670 retrans 280 lost 279; rcv 2988 rtt 84.758ms
Path 0: sent 4 retrans 0 lost 0; rcv 5 rtt 119.172ms
Path 1: sent 11326 retrans 551 lost 549; rcv 5915 rtt 51.81ms
Info for stream 5 of 7e6c8ee3d7d2266a
Path 0: sent 4 retrans 0 lost 0; rcv 5 rtt 119.172ms
Path 1: sent 11327 retrans 551 lost 549; rcv 5915 rtt 51.81ms
Path 3: sent 5671 retrans 281 lost 279; rcv 2988 rtt 84.758ms
