Serving new connection: c438e75354118ebb, version 512 from 10.0.0.1:42540
GET 10.1.0.1:6121/ugfiugizuegiugzeffg
Responding with 404
Info for stream 5 of c438e75354118ebb
Path 0: sent 7 retrans 0 lost 0; rcv 7 rtt 64.012ms
Path 1: sent 5 retrans 0 lost 0; rcv 2 rtt 0s
Serving new connection: dd67bb6d3a9a86eb, version 512 from 10.0.0.1:49399
GET 10.1.0.1:6121/random
Responding with 200
Closing connection c438e75354118ebb
Info for stream 5 of dd67bb6d3a9a86eb
Path 0: sent 5 retrans 0 lost 0; rcv 4 rtt 110.099ms
Path 1: sent 11303 retrans 531 lost 531; rcv 5893 rtt 52.299ms
Path 3: sent 5682 retrans 302 lost 299; rcv 2959 rtt 85.07ms
