PING 10.1.0.1 (10.1.0.1) from 10.0.0.1 : 56(84) bytes of data.
64 bytes from 10.1.0.1: icmp_seq=1 ttl=63 time=110 ms
64 bytes from 10.1.0.1: icmp_seq=2 ttl=63 time=52.0 ms
64 bytes from 10.1.0.1: icmp_seq=3 ttl=63 time=49.3 ms
64 bytes from 10.1.0.1: icmp_seq=4 ttl=63 time=48.6 ms
64 bytes from 10.1.0.1: icmp_seq=5 ttl=63 time=48.7 ms

--- 10.1.0.1 ping statistics ---
5 packets transmitted, 5 received, 0% packet loss, time 4007ms
rtt min/avg/max/mdev = 48.692/61.924/110.772/24.456 ms
PING 10.1.0.1 (10.1.0.1) from 10.0.1.1 : 56(84) bytes of data.
64 bytes from 10.1.0.1: icmp_seq=1 ttl=63 time=178 ms
64 bytes from 10.1.0.1: icmp_seq=2 ttl=63 time=85.9 ms
64 bytes from 10.1.0.1: icmp_seq=3 ttl=63 time=83.4 ms
64 bytes from 10.1.0.1: icmp_seq=4 ttl=63 time=82.6 ms
64 bytes from 10.1.0.1: icmp_seq=5 ttl=63 time=82.7 ms

--- 10.1.0.1 ping statistics ---
5 packets transmitted, 5 received, 0% packet loss, time 4004ms
rtt min/avg/max/mdev = 82.695/102.632/178.397/37.902 ms
