PING 10.1.0.1 (10.1.0.1) from 10.0.0.1 : 56(84) bytes of data.
64 bytes from 10.1.0.1: icmp_seq=1 ttl=63 time=110 ms
64 bytes from 10.1.0.1: icmp_seq=2 ttl=63 time=52.1 ms
64 bytes from 10.1.0.1: icmp_seq=3 ttl=63 time=49.1 ms
64 bytes from 10.1.0.1: icmp_seq=4 ttl=63 time=48.7 ms
64 bytes from 10.1.0.1: icmp_seq=5 ttl=63 time=48.8 ms

--- 10.1.0.1 ping statistics ---
5 packets transmitted, 5 received, 0% packet loss, time 4005ms
rtt min/avg/max/mdev = 48.720/61.811/110.249/24.251 ms
PING 10.1.0.1 (10.1.0.1) from 10.0.1.1 : 56(84) bytes of data.
64 bytes from 10.1.0.1: icmp_seq=1 ttl=63 time=179 ms
64 bytes from 10.1.0.1: icmp_seq=2 ttl=63 time=85.9 ms
64 bytes from 10.1.0.1: icmp_seq=3 ttl=63 time=83.2 ms
64 bytes from 10.1.0.1: icmp_seq=4 ttl=63 time=82.6 ms
64 bytes from 10.1.0.1: icmp_seq=5 ttl=63 time=82.7 ms

--- 10.1.0.1 ping statistics ---
5 packets transmitted, 5 received, 0% packet loss, time 4006ms
rtt min/avg/max/mdev = 82.671/102.854/179.638/38.411 ms
