2020/07/26 17:06:28 GET https://10.1.0.1:6121/random
2020/07/26 17:06:28 Starting new connection to 10.1.0.1 (0.0.0.0:60669 -> 10.1.0.1:6121), connectionID 20591cbb691faafa, version 512
2020/07/26 17:06:29 Queueing packet 0x4 for later decryption
2020/07/26 17:08:11 Info for stream 5 of 20591cbb691faafa
2020/07/26 17:08:11 Path 0: sent 9093 retrans 71 lost 71; rcv 16213
2020/07/26 17:08:11 1m42.880899892s
