PING 10.1.0.1 (10.1.0.1) from 10.0.0.1 : 56(84) bytes of data.
64 bytes from 10.1.0.1: icmp_seq=1 ttl=63 time=111 ms
64 bytes from 10.1.0.1: icmp_seq=2 ttl=63 time=52.3 ms
64 bytes from 10.1.0.1: icmp_seq=3 ttl=63 time=49.2 ms
64 bytes from 10.1.0.1: icmp_seq=4 ttl=63 time=48.7 ms
64 bytes from 10.1.0.1: icmp_seq=5 ttl=63 time=48.7 ms

--- 10.1.0.1 ping statistics ---
5 packets transmitted, 5 received, 0% packet loss, time 4005ms
rtt min/avg/max/mdev = 48.759/62.037/111.055/24.547 ms
PING 10.1.0.1 (10.1.0.1) from 10.0.1.1 : 56(84) bytes of data.
64 bytes from 10.1.0.1: icmp_seq=1 ttl=63 time=178 ms
64 bytes from 10.1.0.1: icmp_seq=2 ttl=63 time=85.8 ms
64 bytes from 10.1.0.1: icmp_seq=3 ttl=63 time=83.2 ms
64 bytes from 10.1.0.1: icmp_seq=4 ttl=63 time=82.8 ms
64 bytes from 10.1.0.1: icmp_seq=5 ttl=63 time=82.6 ms

--- 10.1.0.1 ping statistics ---
5 packets transmitted, 5 received, 0% packet loss, time 4002ms
rtt min/avg/max/mdev = 82.602/102.698/178.905/38.121 ms
