PING 10.1.0.1 (10.1.0.1) from 10.0.0.1 : 56(84) bytes of data.
64 bytes from 10.1.0.1: icmp_seq=1 ttl=63 time=111 ms
64 bytes from 10.1.0.1: icmp_seq=2 ttl=63 time=52.3 ms
64 bytes from 10.1.0.1: icmp_seq=3 ttl=63 time=49.5 ms
64 bytes from 10.1.0.1: icmp_seq=4 ttl=63 time=48.6 ms
64 bytes from 10.1.0.1: icmp_seq=5 ttl=63 time=48.6 ms

--- 10.1.0.1 ping statistics ---
5 packets transmitted, 5 received, 0% packet loss, time 4007ms
rtt min/avg/max/mdev = 48.667/62.111/111.365/24.665 ms
PING 10.1.0.1 (10.1.0.1) from 10.0.1.1 : 56(84) bytes of data.
64 bytes from 10.1.0.1: icmp_seq=1 ttl=63 time=251 ms
64 bytes from 10.1.0.1: icmp_seq=2 ttl=63 time=85.5 ms
64 bytes from 10.1.0.1: icmp_seq=3 ttl=63 time=83.0 ms
64 bytes from 10.1.0.1: icmp_seq=4 ttl=63 time=82.6 ms
64 bytes from 10.1.0.1: icmp_seq=5 ttl=63 time=82.6 ms

--- 10.1.0.1 ping statistics ---
5 packets transmitted, 5 received, 0% packet loss, time 4006ms
rtt min/avg/max/mdev = 82.668/117.070/251.345/67.146 ms
