2020/07/26 20:01:53 GET https://10.1.0.1:6121/random
2020/07/26 20:01:53 Starting new connection to 10.1.0.1 (0.0.0.0:57044 -> 10.1.0.1:6121), connectionID ac0746874a22fc04, version 512
2020/07/26 20:01:53 Queueing packet 0x4 for later decryption
2020/07/26 20:03:37 Info for stream 5 of ac0746874a22fc04
2020/07/26 20:03:37 Path 0: sent 5 retrans 0 lost 0; rcv 5
2020/07/26 20:03:37 Path 1: sent 6499 retrans 49 lost 49; rcv 10946
2020/07/26 20:03:37 Path 3: sent 3113 retrans 1 lost 0; rcv 5346
2020/07/26 20:03:37 1m44.433142364s
