Serving new connection: 65034952682c6d52, version 512 from 10.0.0.1:56583
GET 10.1.0.1:6121/ugfiugizuegiugzeffg
Responding with 404
Info for stream 5 of 65034952682c6d52
Path 0: sent 12 retrans 0 lost 0; rcv 8 rtt 62.211ms
Info for stream 5 of 65034952682c6d52
Path 0: sent 14 retrans 1 lost 0; rcv 11 rtt 59.057ms
Info for stream 5 of 65034952682c6d52
Path 0: sent 15 retrans 2 lost 0; rcv 11 rtt 59.057ms
Info for stream 5 of 65034952682c6d52
Path 0: sent 16 retrans 3 lost 1; rcv 11 rtt 59.057ms
Serving new connection: 547284bfa8de34fa, version 512 from 10.0.0.1:36334
GET 10.1.0.1:6121/random
Responding with 200
Info for stream 5 of 65034952682c6d52
Path 0: sent 18 retrans 5 lost 3; rcv 11 rtt 59.057ms
Info for stream 5 of 65034952682c6d52
Path 0: sent 19 retrans 6 lost 4; rcv 11 rtt 59.057ms
Info for stream 5 of 65034952682c6d52
Path 0: sent 21 retrans 8 lost 6; rcv 11 rtt 59.057ms
Info for stream 5 of 65034952682c6d52
Path 0: sent 22 retrans 9 lost 7; rcv 11 rtt 59.057ms
Info for stream 5 of 65034952682c6d52
Path 0: sent 24 retrans 11 lost 9; rcv 11 rtt 59.057ms
Info for stream 5 of 65034952682c6d52
Path 0: sent 25 retrans 12 lost 10; rcv 11 rtt 59.057ms
Closing connection 65034952682c6d52
Info for stream 5 of 547284bfa8de34fa
Path 0: sent 17226 retrans 813 lost 813; rcv 8976 rtt 50.398ms
Info for stream 5 of 547284bfa8de34fa
Path 0: sent 17228 retrans 814 lost 813; rcv 8980 rtt 50.2ms
Info for stream 5 of 547284bfa8de34fa
Path 0: sent 17229 retrans 815 lost 813; rcv 8980 rtt 50.2ms
Info for stream 5 of 547284bfa8de34fa
Path 0: sent 17230 retrans 816 lost 814; rcv 8980 rtt 50.2ms
Info for stream 5 of 547284bfa8de34fa
Path 0: sent 17232 retrans 818 lost 816; rcv 8980 rtt 50.2ms
Info for stream 5 of 547284bfa8de34fa
Path 0: sent 17233 retrans 819 lost 817; rcv 8980 rtt 50.2ms
