2020/07/22 20:47:02 GET https://10.1.0.1:6121/random
2020/07/22 20:47:02 Starting new connection to 10.1.0.1 (0.0.0.0:50889 -> 10.1.0.1:6121), connectionID 4b85c4d1f2e1c7fe, version 512
2020/07/22 20:47:02 Queueing packet 0x4 for later decryption
2020/07/22 20:48:40 Info for stream 5 of 4b85c4d1f2e1c7fe
2020/07/22 20:48:40 Path 0: sent 5 retrans 0 lost 0; rcv 5
2020/07/22 20:48:40 Path 1: sent 6081 retrans 45 lost 45; rcv 10525
2020/07/22 20:48:40 Path 3: sent 3219 retrans 2 lost 1; rcv 5642
2020/07/22 20:48:40 1m38.592613601s
