PING 10.1.0.1 (10.1.0.1) from 10.0.0.1 : 56(84) bytes of data.
64 bytes from 10.1.0.1: icmp_seq=1 ttl=63 time=110 ms
64 bytes from 10.1.0.1: icmp_seq=2 ttl=63 time=51.9 ms
64 bytes from 10.1.0.1: icmp_seq=3 ttl=63 time=49.2 ms
64 bytes from 10.1.0.1: icmp_seq=4 ttl=63 time=48.8 ms
64 bytes from 10.1.0.1: icmp_seq=5 ttl=63 time=48.9 ms

--- 10.1.0.1 ping statistics ---
5 packets transmitted, 5 received, 0% packet loss, time 4002ms
rtt min/avg/max/mdev = 48.869/61.934/110.675/24.397 ms
PING 10.1.0.1 (10.1.0.1) from 10.0.1.1 : 56(84) bytes of data.
64 bytes from 10.1.0.1: icmp_seq=1 ttl=63 time=183 ms
64 bytes from 10.1.0.1: icmp_seq=2 ttl=63 time=86.0 ms
64 bytes from 10.1.0.1: icmp_seq=3 ttl=63 time=82.9 ms
64 bytes from 10.1.0.1: icmp_seq=4 ttl=63 time=82.6 ms
64 bytes from 10.1.0.1: icmp_seq=5 ttl=63 time=82.6 ms

--- 10.1.0.1 ping statistics ---
5 packets transmitted, 5 received, 0% packet loss, time 4006ms
rtt min/avg/max/mdev = 82.607/103.482/183.039/39.800 ms
