2020/07/27 11:21:39 GET https://10.1.0.1:6121/random
2020/07/27 11:21:39 Starting new connection to 10.1.0.1 (0.0.0.0:38139 -> 10.1.0.1:6121), connectionID a428e8dfa3d2169e, version 512
2020/07/27 11:21:39 Queueing packet 0x4 for later decryption
2020/07/27 11:23:18 Info for stream 5 of a428e8dfa3d2169e
2020/07/27 11:23:18 Path 3: sent 3236 retrans 3 lost 2; rcv 5641
2020/07/27 11:23:18 Path 0: sent 5 retrans 0 lost 0; rcv 5
2020/07/27 11:23:18 Path 1: sent 6084 retrans 33 lost 31; rcv 10517
2020/07/27 11:23:18 1m39.175003529s
