Serving new connection: 32249551609dc052, version 512 from 10.0.0.1:40786
GET 10.1.0.1:6121/ugfiugizuegiugzeffg
Responding with 404
Info for stream 5 of 32249551609dc052
Path 0: sent 7 retrans 0 lost 0; rcv 7 rtt 63.691ms
Path 1: sent 5 retrans 0 lost 0; rcv 2 rtt 0s
Serving new connection: 5c940b4c9717d9c3, version 512 from 10.0.0.1:52302
Info for stream 5 of 32249551609dc052
Path 0: sent 7 retrans 0 lost 0; rcv 7 rtt 63.691ms
Path 1: sent 7 retrans 1 lost 0; rcv 4 rtt 51.206ms
Path 3: sent 2 retrans 0 lost 0; rcv 2 rtt 0s
Info for stream 5 of 32249551609dc052
Path 0: sent 7 retrans 0 lost 0; rcv 7 rtt 63.691ms
Path 1: sent 8 retrans 2 lost 0; rcv 4 rtt 51.206ms
Path 3: sent 2 retrans 0 lost 0; rcv 2 rtt 0s
GET 10.1.0.1:6121/random
Responding with 200
Info for stream 5 of 32249551609dc052
Path 0: sent 7 retrans 0 lost 0; rcv 7 rtt 63.691ms
Path 1: sent 8 retrans 3 lost 1; rcv 4 rtt 51.206ms
Path 3: sent 3 retrans 0 lost 0; rcv 2 rtt 0s
Internal error: Too many outstanding non-acked and non-retransmitted packets
Closing session with error: Too many outstanding non-acked and non-retransmitted packets
Info for stream 5 of 5c940b4c9717d9c3
Path 0: sent 5 retrans 1 lost 0; rcv 5 rtt 110.136ms
Path 1: sent 11581 retrans 556 lost 549; rcv 6080 rtt 50.966ms
Path 3: sent 5580 retrans 304 lost 279; rcv 3044 rtt 85.888ms
