Serving new connection: 6e79df25b70e0da4, version 512 from 10.0.0.1:42810
GET 10.1.0.1:6121/ugfiugizuegiugzeffg
Responding with 404
Info for stream 5 of 6e79df25b70e0da4
Path 0: sent 12 retrans 0 lost 0; rcv 7 rtt 49.796ms
Serving new connection: fb07ef7c36e66570, version 512 from 10.0.0.1:47273
GET 10.1.0.1:6121/random
Responding with 200
Closing connection 6e79df25b70e0da4
Info for stream 5 of fb07ef7c36e66570
Path 0: sent 17085 retrans 839 lost 838; rcv 8569 rtt 50.667ms
Info for stream 5 of fb07ef7c36e66570
Path 0: sent 17087 retrans 840 lost 838; rcv 8576 rtt 51.033ms
Info for stream 5 of fb07ef7c36e66570
Path 0: sent 17088 retrans 841 lost 838; rcv 8576 rtt 51.033ms
Info for stream 5 of fb07ef7c36e66570
Path 0: sent 17089 retrans 842 lost 839; rcv 8576 rtt 51.033ms
Info for stream 5 of fb07ef7c36e66570
Path 0: sent 17091 retrans 844 lost 841; rcv 8576 rtt 51.033ms
Info for stream 5 of fb07ef7c36e66570
Path 0: sent 17092 retrans 845 lost 842; rcv 8576 rtt 51.033ms
