--2020-07-28 00:22:51--  https://10.1.0.1/random
Connecting to 10.1.0.1:443... connected.
WARNING: cannot verify 10.1.0.1's certificate, issued by ‘/C=BE/ST=LLN/O=Internet Widgits Pty Ltd’:
  Self-signed certificate encountered.
    WARNING: certificate common name ‘’ doesn't match requested host name ‘10.1.0.1’.
HTTP request sent, awaiting response... 200 OK
Length: 20480000 (20M) [application/octet-stream]
Saving to: ‘random.1’

     0K .......... .......... .......... .......... ..........  0%  222K 90s
    50K .......... .......... .......... .......... ..........  0%  392K 70s
   100K .......... .......... .......... .......... ..........  0%  259K 72s
   150K .......... .......... .......... .......... ..........  1%  515K 64s
   200K .......... .......... .......... .......... ..........  1%  203K 70s
   250K .......... .......... .......... .......... ..........  1%  203K 75s
   300K .......... .......... .......... .......... ..........  1%  194K 78s
   350K .......... .......... .......... .......... ..........  2%  202K 80s
   400K .......... .......... .......... .......... ..........  2%  145K 86s
   450K .......... .......... .......... .......... ..........  2%  151K 90s
   500K .......... .......... .......... .......... ..........  2%  101K 99s
   550K .......... .......... .......... .......... ..........  3%  138K 1m43s
   600K .......... .......... .......... .......... ..........  3%  179K 1m43s
   650K .......... .......... .......... .......... ..........  3%  210K 1m42s
   700K .......... .......... .......... .......... ..........  3%  193K 1m41s
   750K .......... .......... .......... .......... ..........  4%  162K 1m42s
   800K .......... .......... .......... .......... ..........  4%  106K 1m47s
   850K .......... .......... .......... .......... ..........  4%  202K 1m46s
   900K .......... .......... .......... .......... ..........  4%  162K 1m46s
   950K .......... .......... .......... .......... ..........  5%  139K 1m47s
  1000K .......... .......... .......... .......... ..........  5% 86.0K 1m52s
  1050K .......... .......... .......... .......... ..........  5%  151K 1m53s
  1100K .......... .......... .......... .......... ..........  5%  100K 1m56s
  1150K .......... .......... .......... .......... ..........  6% 78.8K 2m1s
  1200K .......... .......... .......... .......... ..........  6%  113K 2m2s
  1250K .......... .......... .......... .......... ..........  6%  127K 2m3s
  1300K .......... .......... .......... .......... ..........  6%  119K 2m4s
  1350K .......... .......... .......... .......... ..........  7%  130K 2m4s
  1400K .......... .......... .......... .......... ..........  7%  166K 2m3s
  1450K .......... .......... .......... .......... ..........  7% 77.8K 2m7s
  1500K .......... .......... .......... .......... ..........  7%  102K 2m8s
  1550K .......... .......... .......... .......... ..........  8%  252K 2m6s
  1600K .......... .......... .......... .......... ..........  8%  102K 2m7s
  1650K .......... .......... .......... .......... ..........  8%  114K 2m8s
  1700K .......... .......... .......... .......... ..........  8% 94.6K 2m10s
  1750K .......... .......... .......... .......... ..........  9%  201K 2m8s
  1800K .......... .......... .......... .......... ..........  9%  116K 2m9s
  1850K .......... .......... .......... .......... ..........  9%  125K 2m9s
  1900K .......... .......... .......... .......... ..........  9%  169K 2m8s
  1950K .......... .......... .......... .......... .......... 10%  120K 2m8s
  2000K .......... .......... .......... .......... .......... 10%  156K 2m7s
  2050K .......... .......... .......... .......... .......... 10% 90.4K 2m9s
  2100K .......... .......... .......... .......... .......... 10%  152K 2m8s
  2150K .......... .......... .......... .......... .......... 11%  105K 2m9s
  2200K .......... .......... .......... .......... .......... 11% 92.2K 2m10s
  2250K .......... .......... .......... .......... .......... 11%  174K 2m9s
  2300K .......... .......... .......... .......... .......... 11%  114K 2m9s
  2350K .......... .......... .......... .......... .......... 12% 30.0K 2m18s
  2400K .......... .......... .......... .......... .......... 12% 68.2K 2m20s
  2450K .......... .......... .......... .......... .......... 12%  175K 2m19s
  2500K .......... .......... .......... .......... .......... 12%  138K 2m18s
  2550K .......... .......... .......... .......... .......... 13%  180K 2m17s
  2600K .......... .......... .......... .......... .......... 13% 66.9K 2m19s
  2650K .......... .......... .......... .......... .......... 13% 69.0K 2m21s
  2700K .......... .......... .......... .......... .......... 13%  100K 2m21s
  2750K .......... .......... .......... .......... .......... 14% 91.5K 2m21s
  2800K .......... .......... .......... .......... .......... 14%  141K 2m21s
  2850K .......... .......... .......... .......... .......... 14%  127K 2m20s
  2900K .......... .......... .......... .......... .......... 14% 77.9K 2m21s
  2950K .......... .......... .......... .......... .......... 15%  169K 2m20s
  3000K .......... .......... .......... .......... .......... 15%  145K 2m19s
  3050K .......... .......... .......... .......... .......... 15%  166K 2m18s
  3100K .......... .......... .......... .......... .......... 15% 63.0K 2m20s
  3150K .......... .......... .......... .......... .......... 16%  388K 2m18s
  3200K .......... .......... .......... .......... .......... 16%  127K 2m17s
  3250K .......... .......... .......... .......... .......... 16% 86.8K 2m18s
  3300K .......... .......... .......... .......... .......... 16%  105K 2m18s
  3350K .......... .......... .......... .......... .......... 17% 81.7K 2m18s
  3400K .......... .......... .......... .......... .......... 17%  119K 2m18s
  3450K .......... .......... .......... .......... .......... 17%  120K 2m17s
  3500K .......... .......... .......... .......... .......... 17%  168K 2m16s
  3550K .......... .......... .......... .......... .......... 18%  141K 2m16s
  3600K .......... .......... .......... .......... .......... 18%  102K 2m16s
  3650K .......... .......... .......... .......... .......... 18% 58.0K 2m17s
  3700K .......... .......... .......... .......... .......... 18%  201K 2m16s
  3750K .......... .......... .......... .......... .......... 19%  120K 2m16s
  3800K .......... .......... .......... .......... .......... 19%  152K 2m15s
  3850K .......... .......... .......... .......... .......... 19%  146K 2m14s
  3900K .......... .......... .......... .......... .......... 19%  179K 2m13s
  3950K .......... .......... .......... .......... .......... 20%  105K 2m13s
  4000K .......... .......... .......... .......... .......... 20% 89.5K 2m13s
  4050K .......... .......... .......... .......... .......... 20%  299K 2m12s
  4100K .......... .......... .......... .......... .......... 20%  154K 2m11s
  4150K .......... .......... .......... .......... .......... 21%  186K 2m10s
  4200K .......... .......... .......... .......... .......... 21%  118K 2m10s
  4250K .......... .......... .......... .......... .......... 21%  147K 2m9s
  4300K .......... .......... .......... .......... .......... 21%  517K 2m7s
  4350K .......... .......... .......... .......... .......... 22%  197K 2m6s
  4400K .......... .......... .......... .......... .......... 22%  145K 2m6s
  4450K .......... .......... .......... .......... .......... 22%  140K 2m5s
  4500K .......... .......... .......... .......... .......... 22%  122K 2m5s
  4550K .......... .......... .......... .......... .......... 23% 85.9K 2m5s
  4600K .......... .......... .......... .......... .......... 23%  169K 2m4s
  4650K .......... .......... .......... .......... .......... 23%  174K 2m4s
  4700K .......... .......... .......... .......... .......... 23%  103K 2m3s
  4750K .......... .......... .......... .......... .......... 24%  145K 2m3s
  4800K .......... .......... .......... .......... .......... 24%  170K 2m2s
  4850K .......... .......... .......... .......... .......... 24%  102K 2m2s
  4900K .......... .......... .......... .......... .......... 24%  135K 2m1s
  4950K .......... .......... .......... .......... .......... 25% 97.8K 2m1s
  5000K .......... .......... .......... .......... .......... 25% 88.0K 2m1s
  5050K .......... .......... .......... .......... .......... 25%  102K 2m1s
  5100K .......... .......... .......... .......... .......... 25%  115K 2m1s
  5150K .......... .......... .......... .......... .......... 26%  162K 2m0s
  5200K .......... .......... .......... .......... .......... 26%  102K 2m0s
  5250K .......... .......... .......... .......... .......... 26%  139K 2m0s
  5300K .......... .......... .......... .......... .......... 26%  147K 1m59s
  5350K .......... .......... .......... .......... .......... 27%  195K 1m58s
  5400K .......... .......... .......... .......... .......... 27% 57.7K 1m59s
  5450K .......... .......... .......... .......... .......... 27%  302K 1m58s
  5500K .......... .......... .......... .......... .......... 27%  201K 1m57s
  5550K .......... .......... .......... .......... .......... 28%  148K 1m57s
  5600K .......... .......... .......... .......... .......... 28% 94.2K 1m56s
  5650K .......... .......... .......... .......... .......... 28%  142K 1m56s
  5700K .......... .......... .......... .......... .......... 28% 48.8K 1m57s
  5750K .......... .......... .......... .......... .......... 29%  120K 1m57s
  5800K .......... .......... .......... .......... .......... 29%  170K 1m56s
  5850K .......... .......... .......... .......... .......... 29%  112K 1m56s
  5900K .......... .......... .......... .......... .......... 29%  169K 1m55s
  5950K .......... .......... .......... .......... .......... 30%  146K 1m54s
  6000K .......... .......... .......... .......... .......... 30%  145K 1m54s
  6050K .......... .......... .......... .......... .......... 30%  251K 1m53s
  6100K .......... .......... .......... .......... .......... 30%  178K 1m52s
  6150K .......... .......... .......... .......... .......... 31% 82.8K 1m52s
  6200K .......... .......... .......... .......... .......... 31%  148K 1m52s
  6250K .......... .......... .......... .......... .......... 31%  199K 1m51s
  6300K .......... .......... .......... .......... .......... 31%  245K 1m50s
  6350K .......... .......... .......... .......... .......... 32%  301K 1m49s
  6400K .......... .......... .......... .......... .......... 32%  182K 1m49s
  6450K .......... .......... .......... .......... .......... 32%  253K 1m48s
  6500K .......... .......... .......... .......... .......... 32%  204K 1m47s
  6550K .......... .......... .......... .......... .......... 33%  176K 1m46s
  6600K .......... .......... .......... .......... .......... 33%  141K 1m46s
  6650K .......... .......... .......... .......... .......... 33%  106K 1m46s
  6700K .......... .......... .......... .......... .......... 33%  206K 1m45s
  6750K .......... .......... .......... .......... .......... 34% 72.2K 1m45s
  6800K .......... .......... .......... .......... .......... 34% 63.2K 1m46s
  6850K .......... .......... .......... .......... .......... 34% 98.3K 1m45s
  6900K .......... .......... .......... .......... .......... 34%  201K 1m45s
  6950K .......... .......... .......... .......... .......... 35%  114K 1m44s
  7000K .......... .......... .......... .......... .......... 35%  169K 1m44s
  7050K .......... .......... .......... .......... .......... 35%  114K 1m43s
  7100K .......... .......... .......... .......... .......... 35%  126K 1m43s
  7150K .......... .......... .......... .......... .......... 36%  151K 1m42s
  7200K .......... .......... .......... .......... .......... 36%  165K 1m42s
  7250K .......... .......... .......... .......... .......... 36% 85.9K 1m42s
  7300K .......... .......... .......... .......... .......... 36%  107K 1m41s
  7350K .......... .......... .......... .......... .......... 37%  110K 1m41s
  7400K .......... .......... .......... .......... .......... 37%  110K 1m41s
  7450K .......... .......... .......... .......... .......... 37%  128K 1m40s
  7500K .......... .......... .......... .......... .......... 37%  131K 1m40s
  7550K .......... .......... .......... .......... .......... 38% 84.0K 1m40s
  7600K .......... .......... .......... .......... .......... 38%  355K 99s
  7650K .......... .......... .......... .......... .......... 38%  114K 99s
  7700K .......... .......... .......... .......... .......... 38%  147K 98s
  7750K .......... .......... .......... .......... .......... 39% 94.2K 98s
  7800K .......... .......... .......... .......... .......... 39%  125K 98s
  7850K .......... .......... .......... .......... .......... 39%  201K 97s
  7900K .......... .......... .......... .......... .......... 39%  176K 96s
  7950K .......... .......... .......... .......... .......... 40%  169K 96s
  8000K .......... .......... .......... .......... .......... 40% 91.1K 96s
  8050K .......... .......... .......... .......... .......... 40% 1.03M 95s
  8100K .......... .......... .......... .......... .......... 40%  254K 94s
  8150K .......... .......... .......... .......... .......... 41%  201K 93s
  8200K .......... .......... .......... .......... .......... 41%  146K 93s
  8250K .......... .......... .......... .......... .......... 41%  200K 92s
  8300K .......... .......... .......... .......... .......... 41%  204K 92s
  8350K .......... .......... .......... .......... .......... 42%  151K 91s
  8400K .......... .......... .......... .......... .......... 42%  170K 91s
  8450K .......... .......... .......... .......... .......... 42%  163K 90s
  8500K .......... .......... .......... .......... .......... 42%  115K 90s
  8550K .......... .......... .......... .......... .......... 43%  102K 90s
  8600K .......... .......... .......... .......... .......... 43% 52.5K 90s
  8650K .......... .......... .......... .......... .......... 43%  200K 89s
  8700K .......... .......... .......... .......... .......... 43%  170K 89s
  8750K .......... .......... .......... .......... .......... 44%  127K 89s
  8800K .......... .......... .......... .......... .......... 44%  128K 88s
  8850K .......... .......... .......... .......... .......... 44%  139K 88s
  8900K .......... .......... .......... .......... .......... 44%  105K 87s
  8950K .......... .......... .......... .......... .......... 45%  124K 87s
  9000K .......... .......... .......... .......... .......... 45%  120K 87s
  9050K .......... .......... .......... .......... .......... 45%  144K 86s
  9100K .......... .......... .......... .......... .......... 45%  109K 86s
  9150K .......... .......... .......... .......... .......... 46%  163K 85s
  9200K .......... .......... .......... .......... .......... 46%  130K 85s
  9250K .......... .......... .......... .......... .......... 46%  201K 84s
  9300K .......... .......... .......... .......... .......... 46%  201K 84s
  9350K .......... .......... .......... .......... .......... 47%  129K 83s
  9400K .......... .......... .......... .......... .......... 47%  113K 83s
  9450K .......... .......... .......... .......... .......... 47%  141K 83s
  9500K .......... .......... .......... .......... .......... 47%  118K 82s
  9550K .......... .......... .......... .......... .......... 48%  141K 82s
  9600K .......... .......... .......... .......... .......... 48% 96.7K 82s
  9650K .......... .......... .......... .......... .......... 48%  132K 81s
  9700K .......... .......... .......... .......... .......... 48%  114K 81s
  9750K .......... .......... .......... .......... .......... 49%  175K 80s
  9800K .......... .......... .......... .......... .......... 49%  117K 80s
  9850K .......... .......... .......... .......... .......... 49%  117K 80s
  9900K .......... .......... .......... .......... .......... 49%  139K 79s
  9950K .......... .......... .......... .......... .......... 50% 75.4K 79s
 10000K .......... .......... .......... .......... .......... 50%  182K 79s
 10050K .......... .......... .......... .......... .......... 50%  158K 78s
 10100K .......... .......... .......... .......... .......... 50%  143K 78s
 10150K .......... .......... .......... .......... .......... 51% 64.7K 78s
 10200K .......... .......... .......... .......... .......... 51%  306K 77s
 10250K .......... .......... .......... .......... .......... 51%  150K 77s
 10300K .......... .......... .......... .......... .......... 51%  154K 76s
 10350K .......... .......... .......... .......... .......... 52%  114K 76s
 10400K .......... .......... .......... .......... .......... 52%  192K 75s
 10450K .......... .......... .......... .......... .......... 52%  255K 75s
 10500K .......... .......... .......... .......... .......... 52% 91.3K 74s
 10550K .......... .......... .......... .......... .......... 53%  127K 74s
 10600K .......... .......... .......... .......... .......... 53%  114K 74s
 10650K .......... .......... .......... .......... .......... 53%  144K 73s
 10700K .......... .......... .......... .......... .......... 53%  505K 73s
 10750K .......... .......... .......... .......... .......... 54%  113K 72s
 10800K .......... .......... .......... .......... .......... 54%  203K 72s
 10850K .......... .......... .......... .......... .......... 54%  169K 71s
 10900K .......... .......... .......... .......... .......... 54%  128K 71s
 10950K .......... .......... .......... .......... .......... 55%  122K 70s
 11000K .......... .......... .......... .......... .......... 55%  179K 70s
 11050K .......... .......... .......... .......... .......... 55%  130K 70s
 11100K .......... .......... .......... .......... .......... 55%  143K 69s
 11150K .......... .......... .......... .......... .......... 56%  145K 69s
 11200K .......... .......... .......... .......... .......... 56% 69.4K 69s
 11250K .......... .......... .......... .......... .......... 56%  151K 68s
 11300K .......... .......... .......... .......... .......... 56%  150K 68s
 11350K .......... .......... .......... .......... .......... 57%  100K 67s
 11400K .......... .......... .......... .......... .......... 57%  129K 67s
 11450K .......... .......... .......... .......... .......... 57%  151K 67s
 11500K .......... .......... .......... .......... .......... 57%  197K 66s
 11550K .......... .......... .......... .......... .......... 58%  100K 66s
 11600K .......... .......... .......... .......... .......... 58%  109K 65s
 11650K .......... .......... .......... .......... .......... 58%  170K 65s
 11700K .......... .......... .......... .......... .......... 58%  153K 65s
 11750K .......... .......... .......... .......... .......... 59%  120K 64s
 11800K .......... .......... .......... .......... .......... 59%  129K 64s
 11850K .......... .......... .......... .......... .......... 59%  145K 63s
 11900K .......... .......... .......... .......... .......... 59%  161K 63s
 11950K .......... .......... .......... .......... .......... 60%  101K 63s
 12000K .......... .......... .......... .......... .......... 60%  117K 62s
 12050K .......... .......... .......... .......... .......... 60%  197K 62s
 12100K .......... .......... .......... .......... .......... 60%  144K 61s
 12150K .......... .......... .......... .......... .......... 61%  145K 61s
 12200K .......... .......... .......... .......... .......... 61% 52.5K 61s
 12250K .......... .......... .......... .......... .......... 61%  132K 60s
 12300K .......... .......... .......... .......... .......... 61% 47.7K 60s
 12350K .......... .......... .......... .......... .......... 62% 93.0K 60s
 12400K .......... .......... .......... .......... .......... 62%  109K 60s
 12450K .......... .......... .......... .......... .......... 62% 78.6K 60s
 12500K .......... .......... .......... .......... .......... 62%  203K 59s
 12550K .......... .......... .......... .......... .......... 63%  149K 59s
 12600K .......... .......... .......... .......... .......... 63%  140K 58s
 12650K .......... .......... .......... .......... .......... 63%  124K 58s
 12700K .......... .......... .......... .......... .......... 63%  203K 57s
 12750K .......... .......... .......... .......... .......... 64%  103K 57s
 12800K .......... .......... .......... .......... .......... 64%  121K 57s
 12850K .......... .......... .......... .......... .......... 64% 92.3K 56s
 12900K .......... .......... .......... .......... .......... 64% 88.6K 56s
 12950K .......... .......... .......... .......... .......... 65%  603K 55s
 13000K .......... .......... .......... .......... .......... 65%  125K 55s
 13050K .......... .......... .......... .......... .......... 65%  148K 55s
 13100K .......... .......... .......... .......... .......... 65%  137K 54s
 13150K .......... .......... .......... .......... .......... 66%  201K 54s
 13200K .......... .......... .......... .......... .......... 66%  123K 53s
 13250K .......... .......... .......... .......... .......... 66%  271K 53s
 13300K .......... .......... .......... .......... .......... 66%  217K 52s
 13350K .......... .......... .......... .......... .......... 67%  194K 52s
 13400K .......... .......... .......... .......... .......... 67%  170K 51s
 13450K .......... .......... .......... .......... .......... 67%  112K 51s
 13500K .......... .......... .......... .......... .......... 67%  167K 51s
 13550K .......... .......... .......... .......... .......... 68% 65.9K 50s
 13600K .......... .......... .......... .......... .......... 68% 73.2K 50s
 13650K .......... .......... .......... .......... .......... 68% 92.8K 50s
 13700K .......... .......... .......... .......... .......... 68%  134K 49s
 13750K .......... .......... .......... .......... .......... 69%  151K 49s
 13800K .......... .......... .......... .......... .......... 69%  201K 49s
 13850K .......... .......... .......... .......... .......... 69%  198K 48s
 13900K .......... .......... .......... .......... .......... 69%  204K 48s
 13950K .......... .......... .......... .......... .......... 70%  141K 47s
 14000K .......... .......... .......... .......... .......... 70% 72.3K 47s
 14050K .......... .......... .......... .......... .......... 70%  143K 47s
 14100K .......... .......... .......... .......... .......... 70%  150K 46s
 14150K .......... .......... .......... .......... .......... 71%  146K 46s
 14200K .......... .......... .......... .......... .......... 71% 74.7K 45s
 14250K .......... .......... .......... .......... .......... 71%  590K 45s
 14300K .......... .......... .......... .......... .......... 71%  204K 44s
 14350K .......... .......... .......... .......... .......... 72%  197K 44s
 14400K .......... .......... .......... .......... .......... 72% 90.6K 44s
 14450K .......... .......... .......... .......... .......... 72%  219K 43s
 14500K .......... .......... .......... .......... .......... 72%  123K 43s
 14550K .......... .......... .......... .......... .......... 73%  127K 42s
 14600K .......... .......... .......... .......... .......... 73%  127K 42s
 14650K .......... .......... .......... .......... .......... 73%  109K 42s
 14700K .......... .......... .......... .......... .......... 73% 74.2K 41s
 14750K .......... .......... .......... .......... .......... 74%  260K 41s
 14800K .......... .......... .......... .......... .......... 74%  103K 41s
 14850K .......... .......... .......... .......... .......... 74%  113K 40s
 14900K .......... .......... .......... .......... .......... 74%  150K 40s
 14950K .......... .......... .......... .......... .......... 75%  131K 39s
 15000K .......... .......... .......... .......... .......... 75%  146K 39s
 15050K .......... .......... .......... .......... .......... 75%  127K 39s
 15100K .......... .......... .......... .......... .......... 75%  131K 38s
 15150K .......... .......... .......... .......... .......... 76%  144K 38s
 15200K .......... .......... .......... .......... .......... 76%  111K 37s
 15250K .......... .......... .......... .......... .......... 76%  108K 37s
 15300K .......... .......... .......... .......... .......... 76%  110K 37s
 15350K .......... .......... .......... .......... .......... 77%  128K 36s
 15400K .......... .......... .......... .......... .......... 77% 77.3K 36s
 15450K .......... .......... .......... .......... .......... 77%  140K 36s
 15500K .......... .......... .......... .......... .......... 77%  111K 35s
 15550K .......... .......... .......... .......... .......... 78%  141K 35s
 15600K .......... .......... .......... .......... .......... 78%  117K 34s
 15650K .......... .......... .......... .......... .......... 78%  106K 34s
 15700K .......... .......... .......... .......... .......... 78%  127K 34s
 15750K .......... .......... .......... .......... .......... 79% 98.8K 33s
 15800K .......... .......... .......... .......... .......... 79%  107K 33s
 15850K .......... .......... .......... .......... .......... 79%  120K 32s
 15900K .......... .......... .......... .......... .......... 79%  112K 32s
 15950K .......... .......... .......... .......... .......... 80%  167K 32s
 16000K .......... .......... .......... .......... .......... 80%  128K 31s
 16050K .......... .......... .......... .......... .......... 80%  113K 31s
 16100K .......... .......... .......... .......... .......... 80%  151K 30s
 16150K .......... .......... .......... .......... .......... 81%  122K 30s
 16200K .......... .......... .......... .......... .......... 81%  137K 30s
 16250K .......... .......... .......... .......... .......... 81%  145K 29s
 16300K .......... .......... .......... .......... .......... 81%  171K 29s
 16350K .......... .......... .......... .......... .......... 82%  101K 28s
 16400K .......... .......... .......... .......... .......... 82%  122K 28s
 16450K .......... .......... .......... .......... .......... 82%  162K 28s
 16500K .......... .......... .......... .......... .......... 82% 92.6K 27s
 16550K .......... .......... .......... .......... .......... 83%  178K 27s
 16600K .......... .......... .......... .......... .......... 83% 66.6K 27s
 16650K .......... .......... .......... .......... .......... 83%  112K 26s
 16700K .......... .......... .......... .......... .......... 83%  120K 26s
 16750K .......... .......... .......... .......... .......... 84%  136K 25s
 16800K .......... .......... .......... .......... .......... 84%  145K 25s
 16850K .......... .......... .......... .......... .......... 84%  102K 25s
 16900K .......... .......... .......... .......... .......... 84%  170K 24s
 16950K .......... .......... .......... .......... .......... 85%  169K 24s
 17000K .......... .......... .......... .......... .......... 85%  106K 23s
 17050K .......... .......... .......... .......... .......... 85%  121K 23s
 17100K .......... .......... .......... .......... .......... 85%  108K 23s
 17150K .......... .......... .......... .......... .......... 86%  133K 22s
 17200K .......... .......... .......... .......... .......... 86%  170K 22s
 17250K .......... .......... .......... .......... .......... 86%  154K 21s
 17300K .......... .......... .......... .......... .......... 86%  190K 21s
 17350K .......... .......... .......... .......... .......... 87%  116K 21s
 17400K .......... .......... .......... .......... .......... 87%  124K 20s
 17450K .......... .......... .......... .......... .......... 87%  126K 20s
 17500K .......... .......... .......... .......... .......... 87%  151K 19s
 17550K .......... .......... .......... .......... .......... 88%  111K 19s
 17600K .......... .......... .......... .......... .......... 88%  100K 19s
 17650K .......... .......... .......... .......... .......... 88% 77.2K 18s
 17700K .......... .......... .......... .......... .......... 88%  113K 18s
 17750K .......... .......... .......... .......... .......... 89% 95.0K 17s
 17800K .......... .......... .......... .......... .......... 89% 86.1K 17s
 17850K .......... .......... .......... .......... .......... 89%  151K 17s
 17900K .......... .......... .......... .......... .......... 89%  129K 16s
 17950K .......... .......... .......... .......... .......... 90%  101K 16s
 18000K .......... .......... .......... .......... .......... 90%  191K 15s
 18050K .......... .......... .......... .......... .......... 90% 95.8K 15s
 18100K .......... .......... .......... .......... .......... 90%  134K 15s
 18150K .......... .......... .......... .......... .......... 91%  118K 14s
 18200K .......... .......... .......... .......... .......... 91%  113K 14s
 18250K .......... .......... .......... .......... .......... 91% 89.2K 14s
 18300K .......... .......... .......... .......... .......... 91%  115K 13s
 18350K .......... .......... .......... .......... .......... 92%  114K 13s
 18400K .......... .......... .......... .......... .......... 92%  113K 12s
 18450K .......... .......... .......... .......... .......... 92%  141K 12s
 18500K .......... .......... .......... .......... .......... 92%  108K 12s
 18550K .......... .......... .......... .......... .......... 93% 80.3K 11s
 18600K .......... .......... .......... .......... .......... 93%  107K 11s
 18650K .......... .......... .......... .......... .......... 93%  201K 10s
 18700K .......... .......... .......... .......... .......... 93%  206K 10s
 18750K .......... .......... .......... .......... .......... 94%  160K 10s
 18800K .......... .......... .......... .......... .......... 94% 99.6K 9s
 18850K .......... .......... .......... .......... .......... 94%  200K 9s
 18900K .......... .......... .......... .......... .......... 94%  105K 8s
 18950K .......... .......... .......... .......... .......... 95%  140K 8s
 19000K .......... .......... .......... .......... .......... 95%  113K 8s
 19050K .......... .......... .......... .......... .......... 95%  175K 7s
 19100K .......... .......... .......... .......... .......... 95%  212K 7s
 19150K .......... .......... .......... .......... .......... 96%  240K 6s
 19200K .......... .......... .......... .......... .......... 96%  127K 6s
 19250K .......... .......... .......... .......... .......... 96%  172K 6s
 19300K .......... .......... .......... .......... .......... 96%  183K 5s
 19350K .......... .......... .......... .......... .......... 97% 71.4K 5s
 19400K .......... .......... .......... .......... .......... 97%  141K 4s
 19450K .......... .......... .......... .......... .......... 97% 93.6K 4s
 19500K .......... .......... .......... .......... .......... 97%  258K 4s
 19550K .......... .......... .......... .......... .......... 98%  202K 3s
 19600K .......... .......... .......... .......... .......... 98%  138K 3s
 19650K .......... .......... .......... .......... .......... 98% 95.4K 2s
 19700K .......... .......... .......... .......... .......... 98%  130K 2s
 19750K .......... .......... .......... .......... .......... 99%  165K 2s
 19800K .......... .......... .......... .......... .......... 99% 86.2K 1s
 19850K .......... .......... .......... .......... .......... 99% 71.1K 1s
 19900K .......... .......... .......... .......... .......... 99%  201K 0s
 19950K .......... .......... .......... .......... ..........100%  171K 0s
 20000K                                                       100% 0.00 =2m39s

2020-07-28 00:25:30 (126 KB/s) - ‘random.1’ saved [20480000/20480000]


real	2m39.092s
user	0m2.536s
sys	0m1.564s
