2020/07/27 06:02:40 GET https://10.1.0.1:6121/random
2020/07/27 06:02:40 Starting new connection to 10.1.0.1 (0.0.0.0:33152 -> 10.1.0.1:6121), connectionID 10659096f27ecfb0, version 512
2020/07/27 06:02:40 Queueing packet 0x4 for later decryption
2020/07/27 06:04:18 Info for stream 5 of 10659096f27ecfb0
2020/07/27 06:04:18 Path 0: sent 9043 retrans 51 lost 51; rcv 16235
2020/07/27 06:04:18 1m37.92966081s
