Serving new connection: d1f62ba1f5928323, version 512 from 10.0.0.1:57092
GET 10.1.0.1:6121/ugfiugizuegiugzeffg
Responding with 404
Info for stream 5 of d1f62ba1f5928323
Path 0: sent 7 retrans 0 lost 0; rcv 7 rtt 67.488ms
Path 1: sent 5 retrans 0 lost 0; rcv 2 rtt 0s
Serving new connection: d7bc51b6185b071d, version 512 from 10.0.0.1:46559
GET 10.1.0.1:6121/random
Responding with 200
Info for stream 5 of d1f62ba1f5928323
Path 3: sent 2 retrans 0 lost 0; rcv 2 rtt 0s
Path 0: sent 7 retrans 0 lost 0; rcv 7 rtt 67.488ms
Path 1: sent 7 retrans 1 lost 0; rcv 4 rtt 50.605ms
Info for stream 5 of d1f62ba1f5928323
Path 0: sent 7 retrans 0 lost 0; rcv 7 rtt 67.488ms
Path 1: sent 8 retrans 2 lost 0; rcv 4 rtt 50.605ms
Path 3: sent 2 retrans 0 lost 0; rcv 2 rtt 0s
Info for stream 5 of d1f62ba1f5928323
Path 0: sent 7 retrans 0 lost 0; rcv 7 rtt 67.488ms
Path 1: sent 8 retrans 3 lost 1; rcv 4 rtt 50.605ms
Path 3: sent 3 retrans 0 lost 0; rcv 2 rtt 0s
Internal error: Too many outstanding non-acked and non-retransmitted packets
Closing session with error: Too many outstanding non-acked and non-retransmitted packets
Info for stream 5 of d7bc51b6185b071d
Path 0: sent 4 retrans 0 lost 0; rcv 5 rtt 124.039ms
Path 1: sent 11212 retrans 569 lost 566; rcv 5854 rtt 51.754ms
Path 3: sent 5839 retrans 295 lost 271; rcv 3042 rtt 85.795ms
