Serving new connection: 17150244a0a05ace, version 512 from 10.0.0.1:55904
GET 10.1.0.1:6121/ugfiugizuegiugzeffg
Responding with 404
Info for stream 5 of 17150244a0a05ace
Path 0: sent 13 retrans 1 lost 0; rcv 8 rtt 62.227ms
Serving new connection: c1cb2ef1e8fc9dc8, version 512 from 10.0.0.1:56481
Info for stream 5 of 17150244a0a05ace
Path 0: sent 15 retrans 2 lost 0; rcv 11 rtt 59.093ms
GET 10.1.0.1:6121/random
Responding with 200
Info for stream 5 of 17150244a0a05ace
Path 0: sent 16 retrans 3 lost 0; rcv 11 rtt 59.093ms
Info for stream 5 of 17150244a0a05ace
Path 0: sent 17 retrans 4 lost 1; rcv 11 rtt 59.093ms
Info for stream 5 of 17150244a0a05ace
Path 0: sent 19 retrans 6 lost 3; rcv 11 rtt 59.093ms
Info for stream 5 of 17150244a0a05ace
Path 0: sent 20 retrans 7 lost 4; rcv 11 rtt 59.093ms
Info for stream 5 of 17150244a0a05ace
Path 0: sent 22 retrans 9 lost 6; rcv 11 rtt 59.093ms
Info for stream 5 of 17150244a0a05ace
Path 0: sent 23 retrans 10 lost 7; rcv 11 rtt 59.093ms
Info for stream 5 of 17150244a0a05ace
Path 0: sent 25 retrans 12 lost 9; rcv 11 rtt 59.093ms
Info for stream 5 of 17150244a0a05ace
Path 0: sent 26 retrans 13 lost 10; rcv 11 rtt 59.093ms
Closing connection 17150244a0a05ace
Info for stream 5 of c1cb2ef1e8fc9dc8
Path 0: sent 17075 retrans 832 lost 832; rcv 8604 rtt 51.758ms
