--2020-07-28 18:18:53--  https://10.1.0.1/random
Connecting to 10.1.0.1:443... connected.
WARNING: cannot verify 10.1.0.1's certificate, issued by ‘/C=BE/ST=LLN/O=Internet Widgits Pty Ltd’:
  Self-signed certificate encountered.
    WARNING: certificate common name ‘’ doesn't match requested host name ‘10.1.0.1’.
HTTP request sent, awaiting response... 200 OK
Length: 20480000 (20M) [application/octet-stream]
Saving to: ‘random.1’

     0K .......... .......... .......... .......... ..........  0%  335K 60s
    50K .......... .......... .......... .......... ..........  0%  330K 60s
   100K .......... .......... .......... .......... ..........  0%  345K 59s
   150K .......... .......... .......... .......... ..........  1%  254K 64s
   200K .......... .......... .......... .......... ..........  1%  203K 70s
   250K .......... .......... .......... .......... ..........  1%  127K 84s
   300K .......... .......... .......... .......... ..........  1%  145K 91s
   350K .......... .......... .......... .......... ..........  2% 92.9K 1m46s
   400K .......... .......... .......... .......... ..........  2%  102K 1m55s
   450K .......... .......... .......... .......... ..........  2%  145K 1m57s
   500K .......... .......... .......... .......... ..........  2%  171K 1m56s
   550K .......... .......... .......... .......... ..........  3%  113K 2m1s
   600K .......... .......... .......... .......... ..........  3% 92.7K 2m7s
   650K .......... .......... .......... .......... ..........  3%  113K 2m10s
   700K .......... .......... .......... .......... ..........  3%  150K 2m10s
   750K .......... .......... .......... .......... ..........  4%  196K 2m7s
   800K .......... .......... .......... .......... ..........  4%  170K 2m6s
   850K .......... .......... .......... .......... ..........  4%  116K 2m8s
   900K .......... .......... .......... .......... ..........  4%  127K 2m9s
   950K .......... .......... .......... .......... ..........  5%  131K 2m9s
  1000K .......... .......... .......... .......... ..........  5%  169K 2m8s
  1050K .......... .......... .......... .......... ..........  5% 85.2K 2m12s
  1100K .......... .......... .......... .......... ..........  5%  102K 2m14s
  1150K .......... .......... .......... .......... ..........  6%  131K 2m14s
  1200K .......... .......... .......... .......... ..........  6%  168K 2m13s
  1250K .......... .......... .......... .......... ..........  6%  204K 2m11s
  1300K .......... .......... .......... .......... ..........  6% 92.8K 2m13s
  1350K .......... .......... .......... .......... ..........  7%  127K 2m13s
  1400K .......... .......... .......... .......... ..........  7%  116K 2m14s
  1450K .......... .......... .......... .......... ..........  7% 83.2K 2m16s
  1500K .......... .......... .......... .......... ..........  7%  170K 2m15s
  1550K .......... .......... .......... .......... ..........  8%  203K 2m13s
  1600K .......... .......... .......... .......... ..........  8%  127K 2m13s
  1650K .......... .......... .......... .......... ..........  8% 63.5K 2m18s
  1700K .......... .......... .......... .......... ..........  8%  113K 2m18s
  1750K .......... .......... .......... .......... ..........  9%  169K 2m17s
  1800K .......... .......... .......... .......... ..........  9%  114K 2m17s
  1850K .......... .......... .......... .......... ..........  9%  170K 2m16s
  1900K .......... .......... .......... .......... ..........  9%  169K 2m15s
  1950K .......... .......... .......... .......... .......... 10%  144K 2m14s
  2000K .......... .......... .......... .......... .......... 10%  127K 2m14s
  2050K .......... .......... .......... .......... .......... 10%  128K 2m14s
  2100K .......... .......... .......... .......... .......... 10% 56.3K 2m18s
  2150K .......... .......... .......... .......... .......... 11%  116K 2m18s
  2200K .......... .......... .......... .......... .......... 11%  146K 2m17s
  2250K .......... .......... .......... .......... .......... 11%  203K 2m15s
  2300K .......... .......... .......... .......... .......... 11%  132K 2m15s
  2350K .......... .......... .......... .......... .......... 12%  195K 2m14s
  2400K .......... .......... .......... .......... .......... 12%  102K 2m14s
  2450K .......... .......... .......... .......... .......... 12%  102K 2m15s
  2500K .......... .......... .......... .......... .......... 12%  105K 2m15s
  2550K .......... .......... .......... .......... .......... 13% 43.7K 2m19s
  2600K .......... .......... .......... .......... .......... 13% 93.3K 2m20s
  2650K .......... .......... .......... .......... .......... 13% 82.0K 2m21s
  2700K .......... .......... .......... .......... .......... 13% 78.3K 2m22s
  2750K .......... .......... .......... .......... .......... 14%  113K 2m22s
  2800K .......... .......... .......... .......... .......... 14%  127K 2m21s
  2850K .......... .......... .......... .......... .......... 14%  203K 2m20s
  2900K .......... .......... .......... .......... .......... 14%  145K 2m19s
  2950K .......... .......... .......... .......... .......... 15%  205K 2m18s
  3000K .......... .......... .......... .......... .......... 15%  168K 2m17s
  3050K .......... .......... .......... .......... .......... 15%  116K 2m16s
  3100K .......... .......... .......... .......... .......... 15%  128K 2m16s
  3150K .......... .......... .......... .......... .......... 16%  127K 2m15s
  3200K .......... .......... .......... .......... .......... 16% 70.1K 2m17s
  3250K .......... .......... .......... .......... .......... 16%  127K 2m16s
  3300K .......... .......... .......... .......... .......... 16%  203K 2m15s
  3350K .......... .......... .......... .......... .......... 17%  169K 2m14s
  3400K .......... .......... .......... .......... .......... 17%  252K 2m13s
  3450K .......... .......... .......... .......... .......... 17%  205K 2m11s
  3500K .......... .......... .......... .......... .......... 17%  170K 2m11s
  3550K .......... .......... .......... .......... .......... 18%  146K 2m10s
  3600K .......... .......... .......... .......... .......... 18%  102K 2m10s
  3650K .......... .......... .......... .......... .......... 18% 63.3K 2m11s
  3700K .......... .......... .......... .......... .......... 18%  169K 2m10s
  3750K .......... .......... .......... .......... .......... 19%  102K 2m10s
  3800K .......... .......... .......... .......... .......... 19% 92.7K 2m11s
  3850K .......... .......... .......... .......... .......... 19%  131K 2m10s
  3900K .......... .......... .......... .......... .......... 19%  168K 2m9s
  3950K .......... .......... .......... .......... .......... 20%  113K 2m9s
  4000K .......... .......... .......... .......... .......... 20% 84.1K 2m9s
  4050K .......... .......... .......... .......... .......... 20% 92.5K 2m10s
  4100K .......... .......... .......... .......... .......... 20%  127K 2m9s
  4150K .......... .......... .......... .......... .......... 21%  146K 2m8s
  4200K .......... .......... .......... .......... .......... 21%  127K 2m8s
  4250K .......... .......... .......... .......... .......... 21%  204K 2m7s
  4300K .......... .......... .......... .......... .......... 21%  170K 2m6s
  4350K .......... .......... .......... .......... .......... 22%  169K 2m5s
  4400K .......... .......... .......... .......... .......... 22%  113K 2m5s
  4450K .......... .......... .......... .......... .......... 22% 94.8K 2m5s
  4500K .......... .......... .......... .......... .......... 22%  169K 2m4s
  4550K .......... .......... .......... .......... .......... 23%  127K 2m4s
  4600K .......... .......... .......... .......... .......... 23%  146K 2m3s
  4650K .......... .......... .......... .......... .......... 23%  127K 2m3s
  4700K .......... .......... .......... .......... .......... 23%  145K 2m2s
  4750K .......... .......... .......... .......... .......... 24%  127K 2m2s
  4800K .......... .......... .......... .......... .......... 24%  147K 2m1s
  4850K .......... .......... .......... .......... .......... 24%  150K 2m1s
  4900K .......... .......... .......... .......... .......... 24%  164K 2m0s
  4950K .......... .......... .......... .......... .......... 25%  203K 1m59s
  5000K .......... .......... .......... .......... .......... 25%  170K 1m58s
  5050K .......... .......... .......... .......... .......... 25%  200K 1m58s
  5100K .......... .......... .......... .......... .......... 25%  128K 1m57s
  5150K .......... .......... .......... .......... .......... 26%  102K 1m57s
  5200K .......... .......... .......... .......... .......... 26% 92.2K 1m57s
  5250K .......... .......... .......... .......... .......... 26% 84.8K 1m57s
  5300K .......... .......... .......... .......... .......... 26%  116K 1m57s
  5350K .......... .......... .......... .......... .......... 27% 50.7K 1m58s
  5400K .......... .......... .......... .......... .......... 27%  127K 1m58s
  5450K .......... .......... .......... .......... .......... 27%  127K 1m57s
  5500K .......... .......... .......... .......... .......... 27%  116K 1m57s
  5550K .......... .......... .......... .......... .......... 28% 92.6K 1m57s
  5600K .......... .......... .......... .......... .......... 28%  131K 1m56s
  5650K .......... .......... .......... .......... .......... 28%  243K 1m55s
  5700K .......... .......... .......... .......... .......... 28%  177K 1m55s
  5750K .......... .......... .......... .......... .......... 29%  253K 1m54s
  5800K .......... .......... .......... .......... .......... 29%  127K 1m53s
  5850K .......... .......... .......... .......... .......... 29%  127K 1m53s
  5900K .......... .......... .......... .......... .......... 29% 84.9K 1m53s
  5950K .......... .......... .......... .......... .......... 30%  128K 1m53s
  6000K .......... .......... .......... .......... .......... 30%  178K 1m52s
  6050K .......... .......... .......... .......... .......... 30%  252K 1m51s
  6100K .......... .......... .......... .......... .......... 30%  164K 1m50s
  6150K .......... .......... .......... .......... .......... 31%  127K 1m50s
  6200K .......... .......... .......... .......... .......... 31% 67.8K 1m50s
  6250K .......... .......... .......... .......... .......... 31%  102K 1m50s
  6300K .......... .......... .......... .......... .......... 31%  169K 1m50s
  6350K .......... .......... .......... .......... .......... 32%  151K 1m49s
  6400K .......... .......... .......... .......... .......... 32%  202K 1m48s
  6450K .......... .......... .......... .......... .......... 32%  146K 1m48s
  6500K .......... .......... .......... .......... .......... 32%  146K 1m47s
  6550K .......... .......... .......... .......... .......... 33%  146K 1m47s
  6600K .......... .......... .......... .......... .......... 33% 92.5K 1m47s
  6650K .......... .......... .......... .......... .......... 33%  145K 1m46s
  6700K .......... .......... .......... .......... .......... 33%  250K 1m45s
  6750K .......... .......... .......... .......... .......... 34%  204K 1m45s
  6800K .......... .......... .......... .......... .......... 34%  170K 1m44s
  6850K .......... .......... .......... .......... .......... 34%  113K 1m44s
  6900K .......... .......... .......... .......... .......... 34%  102K 1m44s
  6950K .......... .......... .......... .......... .......... 35% 85.0K 1m44s
  7000K .......... .......... .......... .......... .......... 35% 59.9K 1m44s
  7050K .......... .......... .......... .......... .......... 35%  113K 1m44s
  7100K .......... .......... .......... .......... .......... 35%  145K 1m43s
  7150K .......... .......... .......... .......... .......... 36%  169K 1m43s
  7200K .......... .......... .......... .......... .......... 36% 78.5K 1m43s
  7250K .......... .......... .......... .......... .......... 36% 87.0K 1m42s
  7300K .......... .......... .......... .......... .......... 36%  116K 1m42s
  7350K .......... .......... .......... .......... .......... 37% 72.8K 1m42s
  7400K .......... .......... .......... .......... .......... 37% 63.7K 1m42s
  7450K .......... .......... .......... .......... .......... 37%  113K 1m42s
  7500K .......... .......... .......... .......... .......... 37%  145K 1m42s
  7550K .......... .......... .......... .......... .......... 38%  132K 1m41s
  7600K .......... .......... .......... .......... .......... 38%  145K 1m41s
  7650K .......... .......... .......... .......... .......... 38%  169K 1m40s
  7700K .......... .......... .......... .......... .......... 38%  127K 1m40s
  7750K .......... .......... .......... .......... .......... 39%  150K 99s
  7800K .......... .......... .......... .......... .......... 39%  165K 98s
  7850K .......... .......... .......... .......... .......... 39%  255K 98s
  7900K .......... .......... .......... .......... .......... 39%  170K 97s
  7950K .......... .......... .......... .......... .......... 40%  127K 97s
  8000K .......... .......... .......... .......... .......... 40%  102K 96s
  8050K .......... .......... .......... .......... .......... 40%  150K 96s
  8100K .......... .......... .......... .......... .......... 40%  127K 96s
  8150K .......... .......... .......... .......... .......... 41%  169K 95s
  8200K .......... .......... .......... .......... .......... 41%  170K 94s
  8250K .......... .......... .......... .......... .......... 41%  169K 94s
  8300K .......... .......... .......... .......... .......... 41%  146K 93s
  8350K .......... .......... .......... .......... .......... 42%  113K 93s
  8400K .......... .......... .......... .......... .......... 42%  151K 93s
  8450K .......... .......... .......... .......... .......... 42%  255K 92s
  8500K .......... .......... .......... .......... .......... 42%  140K 91s
  8550K .......... .......... .......... .......... .......... 43%  169K 91s
  8600K .......... .......... .......... .......... .......... 43%  128K 90s
  8650K .......... .......... .......... .......... .......... 43%  145K 90s
  8700K .......... .......... .......... .......... .......... 43%  144K 90s
  8750K .......... .......... .......... .......... .......... 44%  145K 89s
  8800K .......... .......... .......... .......... .......... 44%  102K 89s
  8850K .......... .......... .......... .......... .......... 44%  145K 88s
  8900K .......... .......... .......... .......... .......... 44%  145K 88s
  8950K .......... .......... .......... .......... .......... 45%  146K 87s
  9000K .......... .......... .......... .......... .......... 45%  105K 87s
  9050K .......... .......... .......... .......... .......... 45%  145K 87s
  9100K .......... .......... .......... .......... .......... 45%  169K 86s
  9150K .......... .......... .......... .......... .......... 46%  170K 86s
  9200K .......... .......... .......... .......... .......... 46%  145K 85s
  9250K .......... .......... .......... .......... .......... 46%  128K 85s
  9300K .......... .......... .......... .......... .......... 46%  203K 84s
  9350K .......... .......... .......... .......... .......... 47%  102K 84s
  9400K .......... .......... .......... .......... .......... 47% 92.6K 84s
  9450K .......... .......... .......... .......... .......... 47%  127K 83s
  9500K .......... .......... .......... .......... .......... 47%  145K 83s
  9550K .......... .......... .......... .......... .......... 48%  102K 83s
  9600K .......... .......... .......... .......... .......... 48%  102K 82s
  9650K .......... .......... .......... .......... .......... 48%  169K 82s
  9700K .......... .......... .......... .......... .......... 48%  203K 81s
  9750K .......... .......... .......... .......... .......... 49%  170K 81s
  9800K .......... .......... .......... .......... .......... 49%  170K 80s
  9850K .......... .......... .......... .......... .......... 49%  203K 80s
  9900K .......... .......... .......... .......... .......... 49%  252K 79s
  9950K .......... .......... .......... .......... .......... 50%  170K 79s
 10000K .......... .......... .......... .......... .......... 50%  169K 78s
 10050K .......... .......... .......... .......... .......... 50%  146K 78s
 10100K .......... .......... .......... .......... .......... 50%  102K 77s
 10150K .......... .......... .......... .......... .......... 51%  145K 77s
 10200K .......... .......... .......... .......... .......... 51%  169K 76s
 10250K .......... .......... .......... .......... .......... 51%  146K 76s
 10300K .......... .......... .......... .......... .......... 51%  113K 76s
 10350K .......... .......... .......... .......... .......... 52%  127K 75s
 10400K .......... .......... .......... .......... .......... 52%  203K 75s
 10450K .......... .......... .......... .......... .......... 52%  103K 74s
 10500K .......... .......... .......... .......... .......... 52%  145K 74s
 10550K .......... .......... .......... .......... .......... 53%  127K 74s
 10600K .......... .......... .......... .......... .......... 53%  128K 73s
 10650K .......... .......... .......... .......... .......... 53%  203K 73s
 10700K .......... .......... .......... .......... .......... 53%  145K 72s
 10750K .......... .......... .......... .......... .......... 54%  169K 72s
 10800K .......... .......... .......... .......... .......... 54% 46.3K 72s
 10850K .......... .......... .......... .......... .......... 54%  145K 72s
 10900K .......... .......... .......... .......... .......... 54%  168K 71s
 10950K .......... .......... .......... .......... .......... 55%  171K 71s
 11000K .......... .......... .......... .......... .......... 55%  113K 70s
 11050K .......... .......... .......... .......... .......... 55%  169K 70s
 11100K .......... .......... .......... .......... .......... 55%  127K 69s
 11150K .......... .......... .......... .......... .......... 56%  205K 69s
 11200K .......... .......... .......... .......... .......... 56%  127K 68s
 11250K .......... .......... .......... .......... .......... 56%  145K 68s
 11300K .......... .......... .......... .......... .......... 56%  203K 68s
 11350K .......... .......... .......... .......... .......... 57%  146K 67s
 11400K .......... .......... .......... .......... .......... 57%  170K 67s
 11450K .......... .......... .......... .......... .......... 57%  203K 66s
 11500K .......... .......... .......... .......... .......... 57%  170K 66s
 11550K .......... .......... .......... .......... .......... 58% 63.2K 66s
 11600K .......... .......... .......... .......... .......... 58%  102K 65s
 11650K .......... .......... .......... .......... .......... 58%  169K 65s
 11700K .......... .......... .......... .......... .......... 58%  145K 64s
 11750K .......... .......... .......... .......... .......... 59%  203K 64s
 11800K .......... .......... .......... .......... .......... 59% 78.6K 64s
 11850K .......... .......... .......... .......... .......... 59%  102K 63s
 11900K .......... .......... .......... .......... .......... 59%  127K 63s
 11950K .......... .......... .......... .......... .......... 60%  145K 63s
 12000K .......... .......... .......... .......... .......... 60%  178K 62s
 12050K .......... .......... .......... .......... .......... 60%  309K 62s
 12100K .......... .......... .......... .......... .......... 60%  216K 61s
 12150K .......... .......... .......... .......... .......... 61%  127K 61s
 12200K .......... .......... .......... .......... .......... 61%  102K 60s
 12250K .......... .......... .......... .......... .......... 61%  102K 60s
 12300K .......... .......... .......... .......... .......... 61%  127K 60s
 12350K .......... .......... .......... .......... .......... 62%  202K 59s
 12400K .......... .......... .......... .......... .......... 62%  171K 59s
 12450K .......... .......... .......... .......... .......... 62%  144K 58s
 12500K .......... .......... .......... .......... .......... 62%  145K 58s
 12550K .......... .......... .......... .......... .......... 63%  203K 57s
 12600K .......... .......... .......... .......... .......... 63%  113K 57s
 12650K .......... .......... .......... .......... .......... 63%  127K 57s
 12700K .......... .......... .......... .......... .......... 63%  169K 56s
 12750K .......... .......... .......... .......... .......... 64%  102K 56s
 12800K .......... .......... .......... .......... .......... 64% 84.9K 56s
 12850K .......... .......... .......... .......... .......... 64% 72.3K 55s
 12900K .......... .......... .......... .......... .......... 64%  127K 55s
 12950K .......... .......... .......... .......... .......... 65%  127K 55s
 13000K .......... .......... .......... .......... .......... 65%  126K 54s
 13050K .......... .......... .......... .......... .......... 65%  169K 54s
 13100K .......... .......... .......... .......... .......... 65% 78.2K 54s
 13150K .......... .......... .......... .......... .......... 66%  113K 53s
 13200K .......... .......... .......... .......... .......... 66%  146K 53s
 13250K .......... .......... .......... .......... .......... 66%  151K 52s
 13300K .......... .......... .......... .......... .......... 66%  203K 52s
 13350K .......... .......... .......... .......... .......... 67%  203K 51s
 13400K .......... .......... .......... .......... .......... 67%  169K 51s
 13450K .......... .......... .......... .......... .......... 67%  127K 51s
 13500K .......... .......... .......... .......... .......... 67% 67.9K 50s
 13550K .......... .......... .......... .......... .......... 68% 84.7K 50s
 13600K .......... .......... .......... .......... .......... 68% 92.6K 50s
 13650K .......... .......... .......... .......... .......... 68% 72.8K 49s
 13700K .......... .......... .......... .......... .......... 68%  113K 49s
 13750K .......... .......... .......... .......... .......... 69%  145K 49s
 13800K .......... .......... .......... .......... .......... 69%  127K 48s
 13850K .......... .......... .......... .......... .......... 69%  176K 48s
 13900K .......... .......... .......... .......... .......... 69%  113K 47s
 13950K .......... .......... .......... .......... .......... 70%  117K 47s
 14000K .......... .......... .......... .......... .......... 70%  163K 47s
 14050K .......... .......... .......... .......... .......... 70%  203K 46s
 14100K .......... .......... .......... .......... .......... 70%  146K 46s
 14150K .......... .......... .......... .......... .......... 71%  170K 45s
 14200K .......... .......... .......... .......... .......... 71%  127K 45s
 14250K .......... .......... .......... .......... .......... 71%  170K 45s
 14300K .......... .......... .......... .......... .......... 71%  145K 44s
 14350K .......... .......... .......... .......... .......... 72% 92.8K 44s
 14400K .......... .......... .......... .......... .......... 72% 67.9K 44s
 14450K .......... .......... .......... .......... .......... 72%  167K 43s
 14500K .......... .......... .......... .......... .......... 72%  145K 43s
 14550K .......... .......... .......... .......... .......... 73% 92.7K 42s
 14600K .......... .......... .......... .......... .......... 73% 67.9K 42s
 14650K .......... .......... .......... .......... .......... 73% 67.7K 42s
 14700K .......... .......... .......... .......... .......... 73%  113K 41s
 14750K .......... .......... .......... .......... .......... 74%  204K 41s
 14800K .......... .......... .......... .......... .......... 74%  151K 41s
 14850K .......... .......... .......... .......... .......... 74%  169K 40s
 14900K .......... .......... .......... .......... .......... 74%  169K 40s
 14950K .......... .......... .......... .......... .......... 75%  113K 39s
 15000K .......... .......... .......... .......... .......... 75%  127K 39s
 15050K .......... .......... .......... .......... .......... 75%  169K 39s
 15100K .......... .......... .......... .......... .......... 75%  204K 38s
 15150K .......... .......... .......... .......... .......... 76%  204K 38s
 15200K .......... .......... .......... .......... .......... 76%  169K 37s
 15250K .......... .......... .......... .......... .......... 76%  203K 37s
 15300K .......... .......... .......... .......... .......... 76%  254K 36s
 15350K .......... .......... .......... .......... .......... 77%  203K 36s
 15400K .......... .......... .......... .......... .......... 77%  170K 36s
 15450K .......... .......... .......... .......... .......... 77%  145K 35s
 15500K .......... .......... .......... .......... .......... 77%  145K 35s
 15550K .......... .......... .......... .......... .......... 78%  334K 34s
 15600K .......... .......... .......... .......... .......... 78%  170K 34s
 15650K .......... .......... .......... .......... .......... 78%  169K 33s
 15700K .......... .......... .......... .......... .......... 78%  146K 33s
 15750K .......... .......... .......... .......... .......... 79%  127K 33s
 15800K .......... .......... .......... .......... .......... 79% 92.4K 32s
 15850K .......... .......... .......... .......... .......... 79%  128K 32s
 15900K .......... .......... .......... .......... .......... 79%  113K 32s
 15950K .......... .......... .......... .......... .......... 80%  113K 31s
 16000K .......... .......... .......... .......... .......... 80%  104K 31s
 16050K .......... .......... .......... .......... .......... 80%  111K 30s
 16100K .......... .......... .......... .......... .......... 80%  112K 30s
 16150K .......... .......... .......... .......... .......... 81%  105K 30s
 16200K .......... .......... .......... .......... .......... 81% 72.9K 29s
 16250K .......... .......... .......... .......... .......... 81% 94.7K 29s
 16300K .......... .......... .......... .......... .......... 81%  102K 29s
 16350K .......... .......... .......... .......... .......... 82% 92.4K 28s
 16400K .......... .......... .......... .......... .......... 82% 86.7K 28s
 16450K .......... .......... .......... .......... .......... 82%  169K 27s
 16500K .......... .......... .......... .......... .......... 82%  150K 27s
 16550K .......... .......... .......... .......... .......... 83%  102K 27s
 16600K .......... .......... .......... .......... .......... 83% 84.8K 26s
 16650K .......... .......... .......... .......... .......... 83%  146K 26s
 16700K .......... .......... .......... .......... .......... 83%  169K 26s
 16750K .......... .......... .......... .......... .......... 84%  145K 25s
 16800K .......... .......... .......... .......... .......... 84%  144K 25s
 16850K .......... .......... .......... .......... .......... 84%  169K 24s
 16900K .......... .......... .......... .......... .......... 84%  169K 24s
 16950K .......... .......... .......... .......... .......... 85%  102K 24s
 17000K .......... .......... .......... .......... .......... 85% 59.7K 23s
 17050K .......... .......... .......... .......... .......... 85%  145K 23s
 17100K .......... .......... .......... .......... .......... 85%  113K 22s
 17150K .......... .......... .......... .......... .......... 86%  204K 22s
 17200K .......... .......... .......... .......... .......... 86%  113K 22s
 17250K .......... .......... .......... .......... .......... 86%  150K 21s
 17300K .......... .......... .......... .......... .......... 86%  204K 21s
 17350K .......... .......... .......... .......... .......... 87%  169K 20s
 17400K .......... .......... .......... .......... .......... 87%  131K 20s
 17450K .......... .......... .......... .......... .......... 87%  195K 20s
 17500K .......... .......... .......... .......... .......... 87%  102K 19s
 17550K .......... .......... .......... .......... .......... 88%  127K 19s
 17600K .......... .......... .......... .......... .......... 88%  145K 18s
 17650K .......... .......... .......... .......... .......... 88%  113K 18s
 17700K .......... .......... .......... .......... .......... 88%  116K 18s
 17750K .......... .......... .......... .......... .......... 89%  113K 17s
 17800K .......... .......... .......... .......... .......... 89% 67.9K 17s
 17850K .......... .......... .......... .......... .......... 89%  113K 17s
 17900K .......... .......... .......... .......... .......... 89%  170K 16s
 17950K .......... .......... .......... .......... .......... 90%  216K 16s
 18000K .......... .......... .......... .......... .......... 90%  238K 15s
 18050K .......... .......... .......... .......... .......... 90%  215K 15s
 18100K .......... .......... .......... .......... .......... 90% 98.7K 15s
 18150K .......... .......... .......... .......... .......... 91%  104K 14s
 18200K .......... .......... .......... .......... .......... 91%  123K 14s
 18250K .......... .......... .......... .......... .......... 91%  170K 13s
 18300K .......... .......... .......... .......... .......... 91%  146K 13s
 18350K .......... .......... .......... .......... .......... 92%  145K 13s
 18400K .......... .......... .......... .......... .......... 92%  113K 12s
 18450K .......... .......... .......... .......... .......... 92% 92.8K 12s
 18500K .......... .......... .......... .......... .......... 92%  145K 11s
 18550K .......... .......... .......... .......... .......... 93%  170K 11s
 18600K .......... .......... .......... .......... .......... 93%  169K 11s
 18650K .......... .......... .......... .......... .......... 93%  170K 10s
 18700K .......... .......... .......... .......... .......... 93% 92.6K 10s
 18750K .......... .......... .......... .......... .......... 94% 92.6K 9s
 18800K .......... .......... .......... .......... .......... 94% 73.5K 9s
 18850K .......... .......... .......... .......... .......... 94%  130K 9s
 18900K .......... .......... .......... .......... .......... 94%  254K 8s
 18950K .......... .......... .......... .......... .......... 95%  203K 8s
 19000K .......... .......... .......... .......... .......... 95%  201K 7s
 19050K .......... .......... .......... .......... .......... 95%  147K 7s
 19100K .......... .......... .......... .......... .......... 95%  102K 7s
 19150K .......... .......... .......... .......... .......... 96% 72.1K 6s
 19200K .......... .......... .......... .......... .......... 96%  113K 6s
 19250K .......... .......... .......... .......... .......... 96%  104K 6s
 19300K .......... .......... .......... .......... .......... 96%  170K 5s
 19350K .......... .......... .......... .......... .......... 97%  170K 5s
 19400K .......... .......... .......... .......... .......... 97%  127K 4s
 19450K .......... .......... .......... .......... .......... 97%  143K 4s
 19500K .......... .......... .......... .......... .......... 97%  127K 4s
 19550K .......... .......... .......... .......... .......... 98%  132K 3s
 19600K .......... .......... .......... .......... .......... 98%  164K 3s
 19650K .......... .......... .......... .......... .......... 98%  169K 2s
 19700K .......... .......... .......... .......... .......... 98%  113K 2s
 19750K .......... .......... .......... .......... .......... 99% 73.0K 2s
 19800K .......... .......... .......... .......... .......... 99%  113K 1s
 19850K .......... .......... .......... .......... .......... 99%  146K 1s
 19900K .......... .......... .......... .......... .......... 99%  169K 0s
 19950K .......... .......... .......... .......... ..........100%  203K 0s
 20000K                                                       100% 0.00 =2m37s

2020-07-28 18:21:30 (127 KB/s) - ‘random.1’ saved [20480000/20480000]


real	2m37.416s
user	0m2.534s
sys	0m1.135s
