2020/07/23 07:03:25 GET https://10.1.0.1:6121/random
2020/07/23 07:03:25 Starting new connection to 10.1.0.1 (0.0.0.0:42584 -> 10.1.0.1:6121), connectionID e7bbc6afcf32705c, version 512
2020/07/23 07:03:25 Queueing packet 0x4 for later decryption
2020/07/23 07:05:06 Info for stream 5 of e7bbc6afcf32705c
2020/07/23 07:05:06 Path 0: sent 5 retrans 0 lost 0; rcv 5
2020/07/23 07:05:06 Path 1: sent 6472 retrans 56 lost 56; rcv 10970
2020/07/23 07:05:06 Path 3: sent 3098 retrans 1 lost 0; rcv 5299
2020/07/23 07:05:06 1m41.331218221s
