2020/07/28 23:45:31 GET https://10.1.0.1:6121/random
2020/07/28 23:45:31 Starting new connection to 10.1.0.1 (0.0.0.0:33553 -> 10.1.0.1:6121), connectionID ce67555e27882544, version 512
2020/07/28 23:45:31 Queueing packet 0x4 for later decryption
2020/07/28 23:47:17 Info for stream 5 of ce67555e27882544
2020/07/28 23:47:17 Path 0: sent 9562 retrans 96 lost 95; rcv 16472
2020/07/28 23:47:17 1m45.840285171s
