PING 10.1.0.1 (10.1.0.1) from 10.0.0.1 : 56(84) bytes of data.
64 bytes from 10.1.0.1: icmp_seq=1 ttl=63 time=115 ms
64 bytes from 10.1.0.1: icmp_seq=2 ttl=63 time=52.5 ms
64 bytes from 10.1.0.1: icmp_seq=3 ttl=63 time=48.9 ms
64 bytes from 10.1.0.1: icmp_seq=4 ttl=63 time=48.5 ms
64 bytes from 10.1.0.1: icmp_seq=5 ttl=63 time=48.8 ms

--- 10.1.0.1 ping statistics ---
5 packets transmitted, 5 received, 0% packet loss, time 4007ms
rtt min/avg/max/mdev = 48.590/62.820/115.144/26.204 ms
PING 10.1.0.1 (10.1.0.1) from 10.0.1.1 : 56(84) bytes of data.
64 bytes from 10.1.0.1: icmp_seq=1 ttl=63 time=178 ms
64 bytes from 10.1.0.1: icmp_seq=2 ttl=63 time=86.0 ms
64 bytes from 10.1.0.1: icmp_seq=3 ttl=63 time=83.0 ms
64 bytes from 10.1.0.1: icmp_seq=4 ttl=63 time=82.7 ms
64 bytes from 10.1.0.1: icmp_seq=5 ttl=63 time=82.7 ms

--- 10.1.0.1 ping statistics ---
5 packets transmitted, 5 received, 0% packet loss, time 4000ms
rtt min/avg/max/mdev = 82.765/102.604/178.365/37.901 ms
