--2020-07-26 15:48:32--  https://10.1.0.1/random
Connecting to 10.1.0.1:443... connected.
WARNING: cannot verify 10.1.0.1's certificate, issued by ‘/C=BE/ST=LLN/O=Internet Widgits Pty Ltd’:
  Self-signed certificate encountered.
    WARNING: certificate common name ‘’ doesn't match requested host name ‘10.1.0.1’.
HTTP request sent, awaiting response... 200 OK
Length: 20480000 (20M) [application/octet-stream]
Saving to: ‘random.1’

     0K .......... .......... .......... .......... ..........  0%  341K 59s
    50K .......... .......... .......... .......... ..........  0%  647K 45s
   100K .......... .......... .......... .......... ..........  0% 8.53M 30s
   150K .......... .......... .......... .......... ..........  1%  955K 28s
   200K .......... .......... .......... .......... ..........  1%  360K 33s
   250K .......... .......... .......... .......... ..........  1%  223K 42s
   300K .......... .......... .......... .......... ..........  1%  509K 42s
   350K .......... .......... .......... .......... ..........  2%  200K 49s
   400K .......... .......... .......... .......... ..........  2%  203K 54s
   450K .......... .......... .......... .......... ..........  2%  201K 58s
   500K .......... .......... .......... .......... ..........  2%  206K 61s
   550K .......... .......... .......... .......... ..........  3%  125K 69s
   600K .......... .......... .......... .......... ..........  3%  174K 72s
   650K .......... .......... .......... .......... ..........  3%  168K 75s
   700K .......... .......... .......... .......... ..........  3%  133K 79s
   750K .......... .......... .......... .......... ..........  4% 93.8K 87s
   800K .......... .......... .......... .......... ..........  4%  198K 87s
   850K .......... .......... .......... .......... ..........  4%  127K 91s
   900K .......... .......... .......... .......... ..........  4%  120K 94s
   950K .......... .......... .......... .......... ..........  5%  151K 95s
  1000K .......... .......... .......... .......... ..........  5% 81.0K 1m42s
  1050K .......... .......... .......... .......... ..........  5%  300K 1m40s
  1100K .......... .......... .......... .......... ..........  5%  521K 97s
  1150K .......... .......... .......... .......... ..........  6% 77.5K 1m42s
  1200K .......... .......... .......... .......... ..........  6%  148K 1m43s
  1250K .......... .......... .......... .......... ..........  6%  132K 1m44s
  1300K .......... .......... .......... .......... ..........  6%  122K 1m46s
  1350K .......... .......... .......... .......... ..........  7%  151K 1m46s
  1400K .......... .......... .......... .......... ..........  7% 98.4K 1m49s
  1450K .......... .......... .......... .......... ..........  7%  262K 1m47s
  1500K .......... .......... .......... .......... ..........  7%  204K 1m46s
  1550K .......... .......... .......... .......... ..........  8%  170K 1m46s
  1600K .......... .......... .......... .......... ..........  8%  139K 1m47s
  1650K .......... .......... .......... .......... ..........  8%  151K 1m47s
  1700K .......... .......... .......... .......... ..........  8%  100K 1m49s
  1750K .......... .......... .......... .......... ..........  9%  133K 1m49s
  1800K .......... .......... .......... .......... ..........  9% 99.9K 1m51s
  1850K .......... .......... .......... .......... ..........  9%  163K 1m51s
  1900K .......... .......... .......... .......... ..........  9%  155K 1m50s
  1950K .......... .......... .......... .......... .......... 10%  111K 1m51s
  2000K .......... .......... .......... .......... .......... 10%  118K 1m52s
  2050K .......... .......... .......... .......... .......... 10%  143K 1m52s
  2100K .......... .......... .......... .......... .......... 10% 90.1K 1m54s
  2150K .......... .......... .......... .......... .......... 11%  295K 1m52s
  2200K .......... .......... .......... .......... .......... 11%  153K 1m52s
  2250K .......... .......... .......... .......... .......... 11%  201K 1m51s
  2300K .......... .......... .......... .......... .......... 11%  115K 1m52s
  2350K .......... .......... .......... .......... .......... 12%  140K 1m52s
  2400K .......... .......... .......... .......... .......... 12% 92.1K 1m53s
  2450K .......... .......... .......... .......... .......... 12%  152K 1m53s
  2500K .......... .......... .......... .......... .......... 12% 90.4K 1m54s
  2550K .......... .......... .......... .......... .......... 13%  149K 1m54s
  2600K .......... .......... .......... .......... .......... 13% 87.1K 1m55s
  2650K .......... .......... .......... .......... .......... 13%  218K 1m54s
  2700K .......... .......... .......... .......... .......... 13%  187K 1m53s
  2750K .......... .......... .......... .......... .......... 14%  201K 1m53s
  2800K .......... .......... .......... .......... .......... 14%  200K 1m52s
  2850K .......... .......... .......... .......... .......... 14%  120K 1m52s
  2900K .......... .......... .......... .......... .......... 14%  257K 1m51s
  2950K .......... .......... .......... .......... .......... 15%  129K 1m51s
  3000K .......... .......... .......... .......... .......... 15% 86.7K 1m52s
  3050K .......... .......... .......... .......... .......... 15%  128K 1m52s
  3100K .......... .......... .......... .......... .......... 15%  146K 1m52s
  3150K .......... .......... .......... .......... .......... 16%  145K 1m51s
  3200K .......... .......... .......... .......... .......... 16%  113K 1m52s
  3250K .......... .......... .......... .......... .......... 16%  116K 1m52s
  3300K .......... .......... .......... .......... .......... 16%  107K 1m52s
  3350K .......... .......... .......... .......... .......... 17%  120K 1m52s
  3400K .......... .......... .......... .......... .......... 17% 89.8K 1m53s
  3450K .......... .......... .......... .......... .......... 17%  184K 1m52s
  3500K .......... .......... .......... .......... .......... 17%  201K 1m52s
  3550K .......... .......... .......... .......... .......... 18%  175K 1m51s
  3600K .......... .......... .......... .......... .......... 18%  144K 1m51s
  3650K .......... .......... .......... .......... .......... 18%  121K 1m51s
  3700K .......... .......... .......... .......... .......... 18% 94.1K 1m51s
  3750K .......... .......... .......... .......... .......... 19% 73.0K 1m52s
  3800K .......... .......... .......... .......... .......... 19%  100K 1m53s
  3850K .......... .......... .......... .......... .......... 19% 68.9K 1m54s
  3900K .......... .......... .......... .......... .......... 19%  116K 1m54s
  3950K .......... .......... .......... .......... .......... 20%  151K 1m53s
  4000K .......... .......... .......... .......... .......... 20%  128K 1m53s
  4050K .......... .......... .......... .......... .......... 20%  120K 1m53s
  4100K .......... .......... .......... .......... .......... 20%  413K 1m52s
  4150K .......... .......... .......... .......... .......... 21%  155K 1m51s
  4200K .......... .......... .......... .......... .......... 21%  120K 1m51s
  4250K .......... .......... .......... .......... .......... 21%  134K 1m51s
  4300K .......... .......... .......... .......... .......... 21%  200K 1m50s
  4350K .......... .......... .......... .......... .......... 22%  219K 1m49s
  4400K .......... .......... .......... .......... .......... 22%  146K 1m49s
  4450K .......... .......... .......... .......... .......... 22%  146K 1m49s
  4500K .......... .......... .......... .......... .......... 22% 79.7K 1m49s
  4550K .......... .......... .......... .......... .......... 23%  138K 1m49s
  4600K .......... .......... .......... .......... .......... 23%  105K 1m49s
  4650K .......... .......... .......... .......... .......... 23%  151K 1m48s
  4700K .......... .......... .......... .......... .......... 23% 77.2K 1m49s
  4750K .......... .......... .......... .......... .......... 24%  109K 1m49s
  4800K .......... .......... .......... .......... .......... 24%  135K 1m49s
  4850K .......... .......... .......... .......... .......... 24%  119K 1m49s
  4900K .......... .......... .......... .......... .......... 24%  248K 1m48s
  4950K .......... .......... .......... .......... .......... 25% 86.1K 1m48s
  5000K .......... .......... .......... .......... .......... 25%  459K 1m47s
  5050K .......... .......... .......... .......... .......... 25%  201K 1m46s
  5100K .......... .......... .......... .......... .......... 25%  198K 1m46s
  5150K .......... .......... .......... .......... .......... 26% 78.8K 1m46s
  5200K .......... .......... .......... .......... .......... 26%  211K 1m45s
  5250K .......... .......... .......... .......... .......... 26%  113K 1m45s
  5300K .......... .......... .......... .......... .......... 26%  179K 1m45s
  5350K .......... .......... .......... .......... .......... 27%  113K 1m44s
  5400K .......... .......... .......... .......... .......... 27%  146K 1m44s
  5450K .......... .......... .......... .......... .......... 27%  175K 1m44s
  5500K .......... .......... .......... .......... .......... 27%  201K 1m43s
  5550K .......... .......... .......... .......... .......... 28%  262K 1m42s
  5600K .......... .......... .......... .......... .......... 28%  106K 1m42s
  5650K .......... .......... .......... .......... .......... 28%  346K 1m41s
  5700K .......... .......... .......... .......... .......... 28%  184K 1m41s
  5750K .......... .......... .......... .......... .......... 29%  180K 1m40s
  5800K .......... .......... .......... .......... .......... 29%  107K 1m40s
  5850K .......... .......... .......... .......... .......... 29%  294K 99s
  5900K .......... .......... .......... .......... .......... 29%  202K 99s
  5950K .......... .......... .......... .......... .......... 30%  175K 98s
  6000K .......... .......... .......... .......... .......... 30%  132K 98s
  6050K .......... .......... .......... .......... .......... 30%  227K 97s
  6100K .......... .......... .......... .......... .......... 30%  169K 97s
  6150K .......... .......... .......... .......... .......... 31%  146K 96s
  6200K .......... .......... .......... .......... .......... 31% 71.5K 97s
  6250K .......... .......... .......... .......... .......... 31%  135K 96s
  6300K .......... .......... .......... .......... .......... 31%  146K 96s
  6350K .......... .......... .......... .......... .......... 32%  210K 95s
  6400K .......... .......... .......... .......... .......... 32%  149K 95s
  6450K .......... .......... .......... .......... .......... 32%  204K 95s
  6500K .......... .......... .......... .......... .......... 32%  200K 94s
  6550K .......... .......... .......... .......... .......... 33% 79.9K 94s
  6600K .......... .......... .......... .......... .......... 33%  127K 94s
  6650K .......... .......... .......... .......... .......... 33% 92.0K 94s
  6700K .......... .......... .......... .......... .......... 33% 86.0K 94s
  6750K .......... .......... .......... .......... .......... 34%  105K 94s
  6800K .......... .......... .......... .......... .......... 34%  151K 94s
  6850K .......... .......... .......... .......... .......... 34% 93.3K 94s
  6900K .......... .......... .......... .......... .......... 34%  134K 93s
  6950K .......... .......... .......... .......... .......... 35%  169K 93s
  7000K .......... .......... .......... .......... .......... 35% 86.8K 93s
  7050K .......... .......... .......... .......... .......... 35%  151K 92s
  7100K .......... .......... .......... .......... .......... 35%  182K 92s
  7150K .......... .......... .......... .......... .......... 36%  127K 92s
  7200K .......... .......... .......... .......... .......... 36%  101K 91s
  7250K .......... .......... .......... .......... .......... 36%  138K 91s
  7300K .......... .......... .......... .......... .......... 36%  154K 91s
  7350K .......... .......... .......... .......... .......... 37%  136K 90s
  7400K .......... .......... .......... .......... .......... 37%  116K 90s
  7450K .......... .......... .......... .......... .......... 37%  293K 89s
  7500K .......... .......... .......... .......... .......... 37%  146K 89s
  7550K .......... .......... .......... .......... .......... 38%  125K 89s
  7600K .......... .......... .......... .......... .......... 38%  134K 88s
  7650K .......... .......... .......... .......... .......... 38%  256K 88s
  7700K .......... .......... .......... .......... .......... 38%  238K 87s
  7750K .......... .......... .......... .......... .......... 39%  103K 87s
  7800K .......... .......... .......... .......... .......... 39%  200K 87s
  7850K .......... .......... .......... .......... .......... 39%  151K 86s
  7900K .......... .......... .......... .......... .......... 39%  102K 86s
  7950K .......... .......... .......... .......... .......... 40% 92.7K 86s
  8000K .......... .......... .......... .......... .......... 40%  120K 86s
  8050K .......... .......... .......... .......... .......... 40%  205K 85s
  8100K .......... .......... .......... .......... .......... 40%  105K 85s
  8150K .......... .......... .......... .......... .......... 41%  124K 85s
  8200K .......... .......... .......... .......... .......... 41%  127K 84s
  8250K .......... .......... .......... .......... .......... 41%  105K 84s
  8300K .......... .......... .......... .......... .......... 41% 86.4K 84s
  8350K .......... .......... .......... .......... .......... 42%  295K 83s
  8400K .......... .......... .......... .......... .......... 42%  100K 83s
  8450K .......... .......... .......... .......... .......... 42%  201K 83s
  8500K .......... .......... .......... .......... .......... 42%  201K 82s
  8550K .......... .......... .......... .......... .......... 43%  114K 82s
  8600K .......... .......... .......... .......... .......... 43%  126K 82s
  8650K .......... .......... .......... .......... .......... 43%  181K 81s
  8700K .......... .......... .......... .......... .......... 43%  138K 81s
  8750K .......... .......... .......... .......... .......... 44%  129K 81s
  8800K .......... .......... .......... .......... .......... 44%  170K 80s
  8850K .......... .......... .......... .......... .......... 44%  169K 80s
  8900K .......... .......... .......... .......... .......... 44% 84.9K 80s
  8950K .......... .......... .......... .......... .......... 45%  146K 79s
  9000K .......... .......... .......... .......... .......... 45%  252K 79s
  9050K .......... .......... .......... .......... .......... 45%  203K 78s
  9100K .......... .......... .......... .......... .......... 45% 68.8K 78s
  9150K .......... .......... .......... .......... .......... 46% 7.59M 77s
  9200K .......... .......... .......... .......... .......... 46%  146K 77s
  9250K .......... .......... .......... .......... .......... 46%  141K 77s
  9300K .......... .......... .......... .......... .......... 46%  188K 76s
  9350K .......... .......... .......... .......... .......... 47%  164K 76s
  9400K .......... .......... .......... .......... .......... 47%  153K 75s
  9450K .......... .......... .......... .......... .......... 47%  101K 75s
  9500K .......... .......... .......... .......... .......... 47%  127K 75s
  9550K .......... .......... .......... .......... .......... 48%  147K 75s
  9600K .......... .......... .......... .......... .......... 48% 75.3K 75s
  9650K .......... .......... .......... .......... .......... 48% 76.0K 74s
  9700K .......... .......... .......... .......... .......... 48%  137K 74s
  9750K .......... .......... .......... .......... .......... 49%  149K 74s
  9800K .......... .......... .......... .......... .......... 49%  169K 73s
  9850K .......... .......... .......... .......... .......... 49%  263K 73s
  9900K .......... .......... .......... .......... .......... 49%  161K 72s
  9950K .......... .......... .......... .......... .......... 50% 88.3K 72s
 10000K .......... .......... .......... .......... .......... 50% 83.1K 72s
 10050K .......... .......... .......... .......... .......... 50% 88.7K 72s
 10100K .......... .......... .......... .......... .......... 50%  151K 72s
 10150K .......... .......... .......... .......... .......... 51%  178K 71s
 10200K .......... .......... .......... .......... .......... 51%  142K 71s
 10250K .......... .......... .......... .......... .......... 51%  131K 70s
 10300K .......... .......... .......... .......... .......... 51% 54.8K 70s
 10350K .......... .......... .......... .......... .......... 52%  149K 70s
 10400K .......... .......... .......... .......... .......... 52%  153K 70s
 10450K .......... .......... .......... .......... .......... 52%  115K 69s
 10500K .......... .......... .......... .......... .......... 52% 60.2K 69s
 10550K .......... .......... .......... .......... .......... 53% 85.1K 69s
 10600K .......... .......... .......... .......... .......... 53%  151K 69s
 10650K .......... .......... .......... .......... .......... 53%  141K 68s
 10700K .......... .......... .......... .......... .......... 53%  146K 68s
 10750K .......... .......... .......... .......... .......... 54%  124K 68s
 10800K .......... .......... .......... .......... .......... 54% 75.1K 68s
 10850K .......... .......... .......... .......... .......... 54%  188K 67s
 10900K .......... .......... .......... .......... .......... 54%  130K 67s
 10950K .......... .......... .......... .......... .......... 55%  196K 66s
 11000K .......... .......... .......... .......... .......... 55%  149K 66s
 11050K .......... .......... .......... .......... .......... 55%  112K 66s
 11100K .......... .......... .......... .......... .......... 55% 94.4K 65s
 11150K .......... .......... .......... .......... .......... 56%  574K 65s
 11200K .......... .......... .......... .......... .......... 56%  301K 64s
 11250K .......... .......... .......... .......... .......... 56%  121K 64s
 11300K .......... .......... .......... .......... .......... 56%  375K 63s
 11350K .......... .......... .......... .......... .......... 57%  132K 63s
 11400K .......... .......... .......... .......... .......... 57%  108K 63s
 11450K .......... .......... .......... .......... .......... 57%  120K 62s
 11500K .......... .......... .......... .......... .......... 57% 93.6K 62s
 11550K .......... .......... .......... .......... .......... 58%  267K 62s
 11600K .......... .......... .......... .......... .......... 58%  127K 61s
 11650K .......... .......... .......... .......... .......... 58%  132K 61s
 11700K .......... .......... .......... .......... .......... 58% 84.5K 61s
 11750K .......... .......... .......... .......... .......... 59%  344K 60s
 11800K .......... .......... .......... .......... .......... 59%  120K 60s
 11850K .......... .......... .......... .......... .......... 59%  117K 60s
 11900K .......... .......... .......... .......... .......... 59% 94.7K 59s
 11950K .......... .......... .......... .......... .......... 60%  127K 59s
 12000K .......... .......... .......... .......... .......... 60%  116K 59s
 12050K .......... .......... .......... .......... .......... 60% 95.5K 58s
 12100K .......... .......... .......... .......... .......... 60%  117K 58s
 12150K .......... .......... .......... .......... .......... 61%  140K 58s
 12200K .......... .......... .......... .......... .......... 61% 75.0K 58s
 12250K .......... .......... .......... .......... .......... 61%  135K 57s
 12300K .......... .......... .......... .......... .......... 61% 98.0K 57s
 12350K .......... .......... .......... .......... .......... 62%  120K 57s
 12400K .......... .......... .......... .......... .......... 62%  172K 56s
 12450K .......... .......... .......... .......... .......... 62%  225K 56s
 12500K .......... .......... .......... .......... .......... 62%  200K 55s
 12550K .......... .......... .......... .......... .......... 63%  204K 55s
 12600K .......... .......... .......... .......... .......... 63%  212K 54s
 12650K .......... .......... .......... .......... .......... 63%  309K 54s
 12700K .......... .......... .......... .......... .......... 63%  266K 53s
 12750K .......... .......... .......... .......... .......... 64%  213K 53s
 12800K .......... .......... .......... .......... .......... 64%  164K 52s
 12850K .......... .......... .......... .......... .......... 64% 67.3K 52s
 12900K .......... .......... .......... .......... .......... 64%  141K 52s
 12950K .......... .......... .......... .......... .......... 65%  114K 52s
 13000K .......... .......... .......... .......... .......... 65%  203K 51s
 13050K .......... .......... .......... .......... .......... 65%  165K 51s
 13100K .......... .......... .......... .......... .......... 65%  208K 50s
 13150K .......... .......... .......... .......... .......... 66%  246K 50s
 13200K .......... .......... .......... .......... .......... 66%  151K 50s
 13250K .......... .......... .......... .......... .......... 66%  120K 49s
 13300K .......... .......... .......... .......... .......... 66% 74.6K 49s
 13350K .......... .......... .......... .......... .......... 67%  121K 49s
 13400K .......... .......... .......... .......... .......... 67%  138K 48s
 13450K .......... .......... .......... .......... .......... 67%  127K 48s
 13500K .......... .......... .......... .......... .......... 67%  126K 48s
 13550K .......... .......... .......... .......... .......... 68%  175K 47s
 13600K .......... .......... .......... .......... .......... 68% 95.9K 47s
 13650K .......... .......... .......... .......... .......... 68%  221K 46s
 13700K .......... .......... .......... .......... .......... 68%  113K 46s
 13750K .......... .......... .......... .......... .......... 69%  113K 46s
 13800K .......... .......... .......... .......... .......... 69%  107K 45s
 13850K .......... .......... .......... .......... .......... 69%  104K 45s
 13900K .......... .......... .......... .......... .......... 69%  150K 45s
 13950K .......... .......... .......... .......... .......... 70%  150K 44s
 14000K .......... .......... .......... .......... .......... 70%  181K 44s
 14050K .......... .......... .......... .......... .......... 70%  126K 44s
 14100K .......... .......... .......... .......... .......... 70%  122K 43s
 14150K .......... .......... .......... .......... .......... 71%  179K 43s
 14200K .......... .......... .......... .......... .......... 71%  181K 42s
 14250K .......... .......... .......... .......... .......... 71% 69.3K 42s
 14300K .......... .......... .......... .......... .......... 71%  152K 42s
 14350K .......... .......... .......... .......... .......... 72%  102K 41s
 14400K .......... .......... .......... .......... .......... 72%  201K 41s
 14450K .......... .......... .......... .......... .......... 72%  129K 41s
 14500K .......... .......... .......... .......... .......... 72%  139K 40s
 14550K .......... .......... .......... .......... .......... 73% 80.6K 40s
 14600K .......... .......... .......... .......... .......... 73%  177K 40s
 14650K .......... .......... .......... .......... .......... 73%  143K 39s
 14700K .......... .......... .......... .......... .......... 73% 95.0K 39s
 14750K .......... .......... .......... .......... .......... 74%  259K 38s
 14800K .......... .......... .......... .......... .......... 74%  146K 38s
 14850K .......... .......... .......... .......... .......... 74%  113K 38s
 14900K .......... .......... .......... .......... .......... 74%  200K 37s
 14950K .......... .......... .......... .......... .......... 75%  120K 37s
 15000K .......... .......... .......... .......... .......... 75%  162K 37s
 15050K .......... .......... .......... .......... .......... 75%  141K 36s
 15100K .......... .......... .......... .......... .......... 75%  151K 36s
 15150K .......... .......... .......... .......... .......... 76%  166K 35s
 15200K .......... .......... .......... .......... .......... 76% 74.6K 35s
 15250K .......... .......... .......... .......... .......... 76%  141K 35s
 15300K .......... .......... .......... .......... .......... 76%  258K 34s
 15350K .......... .......... .......... .......... .......... 77%  125K 34s
 15400K .......... .......... .......... .......... .......... 77%  144K 34s
 15450K .......... .......... .......... .......... .......... 77%  146K 33s
 15500K .......... .......... .......... .......... .......... 77% 83.6K 33s
 15550K .......... .......... .......... .......... .......... 78%  133K 33s
 15600K .......... .......... .......... .......... .......... 78% 82.0K 32s
 15650K .......... .......... .......... .......... .......... 78%  121K 32s
 15700K .......... .......... .......... .......... .......... 78%  150K 32s
 15750K .......... .......... .......... .......... .......... 79%  169K 31s
 15800K .......... .......... .......... .......... .......... 79%  146K 31s
 15850K .......... .......... .......... .......... .......... 79%  175K 30s
 15900K .......... .......... .......... .......... .......... 79%  101K 30s
 15950K .......... .......... .......... .......... .......... 80% 62.1K 30s
 16000K .......... .......... .......... .......... .......... 80%  340K 29s
 16050K .......... .......... .......... .......... .......... 80%  187K 29s
 16100K .......... .......... .......... .......... .......... 80%  188K 29s
 16150K .......... .......... .......... .......... .......... 81%  229K 28s
 16200K .......... .......... .......... .......... .......... 81%  153K 28s
 16250K .......... .......... .......... .......... .......... 81%  203K 27s
 16300K .......... .......... .......... .......... .......... 81%  174K 27s
 16350K .......... .......... .......... .......... .......... 82%  137K 27s
 16400K .......... .......... .......... .......... .......... 82%  117K 26s
 16450K .......... .......... .......... .......... .......... 82%  132K 26s
 16500K .......... .......... .......... .......... .......... 82%  186K 26s
 16550K .......... .......... .......... .......... .......... 83%  101K 25s
 16600K .......... .......... .......... .......... .......... 83%  133K 25s
 16650K .......... .......... .......... .......... .......... 83% 52.7K 25s
 16700K .......... .......... .......... .......... .......... 83% 94.4K 24s
 16750K .......... .......... .......... .......... .......... 84%  140K 24s
 16800K .......... .......... .......... .......... .......... 84% 88.9K 23s
 16850K .......... .......... .......... .......... .......... 84%  126K 23s
 16900K .......... .......... .......... .......... .......... 84%  141K 23s
 16950K .......... .......... .......... .......... .......... 85%  151K 22s
 17000K .......... .......... .......... .......... .......... 85%  151K 22s
 17050K .......... .......... .......... .......... .......... 85%  161K 22s
 17100K .......... .......... .......... .......... .......... 85%  170K 21s
 17150K .......... .......... .......... .......... .......... 86%  118K 21s
 17200K .......... .......... .......... .......... .......... 86%  113K 20s
 17250K .......... .......... .......... .......... .......... 86%  129K 20s
 17300K .......... .......... .......... .......... .......... 86%  143K 20s
 17350K .......... .......... .......... .......... .......... 87%  142K 19s
 17400K .......... .......... .......... .......... .......... 87% 81.5K 19s
 17450K .......... .......... .......... .......... .......... 87%  200K 19s
 17500K .......... .......... .......... .......... .......... 87% 70.4K 18s
 17550K .......... .......... .......... .......... .......... 88%  217K 18s
 17600K .......... .......... .......... .......... .......... 88% 99.9K 18s
 17650K .......... .......... .......... .......... .......... 88%  122K 17s
 17700K .......... .......... .......... .......... .......... 88%  269K 17s
 17750K .......... .......... .......... .......... .......... 89%  203K 16s
 17800K .......... .......... .......... .......... .......... 89%  144K 16s
 17850K .......... .......... .......... .......... .......... 89%  166K 16s
 17900K .......... .......... .......... .......... .......... 89%  327K 15s
 17950K .......... .......... .......... .......... .......... 90%  128K 15s
 18000K .......... .......... .......... .......... .......... 90%  114K 15s
 18050K .......... .......... .......... .......... .......... 90%  120K 14s
 18100K .......... .......... .......... .......... .......... 90%  105K 14s
 18150K .......... .......... .......... .......... .......... 91%  112K 13s
 18200K .......... .......... .......... .......... .......... 91% 96.4K 13s
 18250K .......... .......... .......... .......... .......... 91% 90.5K 13s
 18300K .......... .......... .......... .......... .......... 91%  150K 12s
 18350K .......... .......... .......... .......... .......... 92%  142K 12s
 18400K .......... .......... .......... .......... .......... 92%  127K 12s
 18450K .......... .......... .......... .......... .......... 92%  167K 11s
 18500K .......... .......... .......... .......... .......... 92%  165K 11s
 18550K .......... .......... .......... .......... .......... 93%  216K 10s
 18600K .......... .......... .......... .......... .......... 93%  203K 10s
 18650K .......... .......... .......... .......... .......... 93%  112K 10s
 18700K .......... .......... .......... .......... .......... 93% 82.8K 9s
 18750K .......... .......... .......... .......... .......... 94%  258K 9s
 18800K .......... .......... .......... .......... .......... 94% 64.9K 9s
 18850K .......... .......... .......... .......... .......... 94%  301K 8s
 18900K .......... .......... .......... .......... .......... 94%  128K 8s
 18950K .......... .......... .......... .......... .......... 95% 88.2K 7s
 19000K .......... .......... .......... .......... .......... 95%  150K 7s
 19050K .......... .......... .......... .......... .......... 95%  120K 7s
 19100K .......... .......... .......... .......... .......... 95%  106K 6s
 19150K .......... .......... .......... .......... .......... 96% 90.5K 6s
 19200K .......... .......... .......... .......... .......... 96%  154K 6s
 19250K .......... .......... .......... .......... .......... 96%  116K 5s
 19300K .......... .......... .......... .......... .......... 96%  203K 5s
 19350K .......... .......... .......... .......... .......... 97%  114K 4s
 19400K .......... .......... .......... .......... .......... 97%  113K 4s
 19450K .......... .......... .......... .......... .......... 97% 87.0K 4s
 19500K .......... .......... .......... .......... .......... 97%  145K 3s
 19550K .......... .......... .......... .......... .......... 98%  128K 3s
 19600K .......... .......... .......... .......... .......... 98% 93.3K 3s
 19650K .......... .......... .......... .......... .......... 98%  350K 2s
 19700K .......... .......... .......... .......... .......... 98%  197K 2s
 19750K .......... .......... .......... .......... .......... 99% 73.2K 2s
 19800K .......... .......... .......... .......... .......... 99%  141K 1s
 19850K .......... .......... .......... .......... .......... 99% 85.9K 1s
 19900K .......... .......... .......... .......... .......... 99%  202K 0s
 19950K .......... .......... .......... .......... ..........100%  260K 0s
 20000K                                                       100% 0.00 =2m30s

2020-07-26 15:51:03 (133 KB/s) - ‘random.1’ saved [20480000/20480000]


real	2m31.281s
user	0m2.536s
sys	0m1.555s
