2020/07/27 04:36:24 GET https://10.1.0.1:6121/random
2020/07/27 04:36:24 Starting new connection to 10.1.0.1 (0.0.0.0:43803 -> 10.1.0.1:6121), connectionID 599ebdeb9bc9b648, version 512
2020/07/27 04:36:24 Queueing packet 0x4 for later decryption
2020/07/27 04:38:06 Info for stream 5 of 599ebdeb9bc9b648
2020/07/27 04:38:06 Path 0: sent 9500 retrans 71 lost 70; rcv 16461
2020/07/27 04:38:06 1m42.161022907s
