--2020-07-22 19:47:43--  https://10.1.0.1/random
Connecting to 10.1.0.1:443... connected.
WARNING: cannot verify 10.1.0.1's certificate, issued by ‘/C=BE/ST=LLN/O=Internet Widgits Pty Ltd’:
  Self-signed certificate encountered.
    WARNING: certificate common name ‘’ doesn't match requested host name ‘10.1.0.1’.
HTTP request sent, awaiting response... 200 OK
Length: 20480000 (20M) [application/octet-stream]
Saving to: ‘random.1’

     0K .......... .......... .......... .......... ..........  0%  329K 61s
    50K .......... .......... .......... .......... ..........  0% 1.00M 40s
   100K .......... .......... .......... .......... ..........  0%  509K 40s
   150K .......... .......... .......... .......... ..........  1%  339K 44s
   200K .......... .......... .......... .......... ..........  1%  202K 55s
   250K .......... .......... .......... .......... ..........  1%  170K 65s
   300K .......... .......... .......... .......... ..........  1%  169K 72s
   350K .......... .......... .......... .......... ..........  2%  152K 79s
   400K .......... .......... .......... .......... ..........  2% 56.2K 1m49s
   450K .......... .......... .......... .......... ..........  2% 92.8K 1m59s
   500K .......... .......... .......... .......... ..........  2% 78.2K 2m10s
   550K .......... .......... .......... .......... ..........  3%  113K 2m13s
   600K .......... .......... .......... .......... ..........  3%  116K 2m16s
   650K .......... .......... .......... .......... ..........  3% 73.0K 2m24s
   700K .......... .......... .......... .......... ..........  3%  116K 2m25s
   750K .......... .......... .......... .......... ..........  4% 92.7K 2m29s
   800K .......... .......... .......... .......... ..........  4%  127K 2m29s
   850K .......... .......... .......... .......... ..........  4%  127K 2m28s
   900K .......... .......... .......... .......... ..........  4%  127K 2m28s
   950K .......... .......... .......... .......... ..........  5%  169K 2m26s
  1000K .......... .......... .......... .......... ..........  5%  131K 2m26s
  1050K .......... .......... .......... .......... ..........  5%  255K 2m22s
  1100K .......... .......... .......... .......... ..........  5%  314K 2m18s
  1150K .......... .......... .......... .......... ..........  6%  204K 2m16s
  1200K .......... .......... .......... .......... ..........  6%  131K 2m16s
  1250K .......... .......... .......... .......... ..........  6%  195K 2m14s
  1300K .......... .......... .......... .......... ..........  6%  116K 2m14s
  1350K .......... .......... .......... .......... ..........  7%  127K 2m15s
  1400K .......... .......... .......... .......... ..........  7%  127K 2m15s
  1450K .......... .......... .......... .......... ..........  7%  203K 2m13s
  1500K .......... .......... .......... .......... ..........  7%  113K 2m13s
  1550K .......... .......... .......... .......... ..........  8%  102K 2m15s
  1600K .......... .......... .......... .......... ..........  8%  127K 2m14s
  1650K .......... .......... .......... .......... ..........  8%  200K 2m13s
  1700K .......... .......... .......... .......... ..........  8%  254K 2m11s
  1750K .......... .......... .......... .......... ..........  9%  337K 2m8s
  1800K .......... .......... .......... .......... ..........  9%  202K 2m7s
  1850K .......... .......... .......... .......... ..........  9%  253K 2m5s
  1900K .......... .......... .......... .......... ..........  9%  203K 2m4s
  1950K .......... .......... .......... .......... .......... 10%  177K 2m3s
  2000K .......... .......... .......... .......... .......... 10%  124K 2m3s
  2050K .......... .......... .......... .......... .......... 10%  102K 2m4s
  2100K .......... .......... .......... .......... .......... 10%  134K 2m4s
  2150K .......... .......... .......... .......... .......... 11%  102K 2m5s
  2200K .......... .......... .......... .......... .......... 11%  102K 2m5s
  2250K .......... .......... .......... .......... .......... 11%  146K 2m5s
  2300K .......... .......... .......... .......... .......... 11%  150K 2m5s
  2350K .......... .......... .......... .......... .......... 12%  124K 2m5s
  2400K .......... .......... .......... .......... .......... 12%  102K 2m5s
  2450K .......... .......... .......... .......... .......... 12%  203K 2m4s
  2500K .......... .......... .......... .......... .......... 12%  170K 2m3s
  2550K .......... .......... .......... .......... .......... 13%  170K 2m3s
  2600K .......... .......... .......... .......... .......... 13%  203K 2m2s
  2650K .......... .......... .......... .......... .......... 13%  170K 2m1s
  2700K .......... .......... .......... .......... .......... 13%  254K 2m0s
  2750K .......... .......... .......... .......... .......... 14%  253K 1m58s
  2800K .......... .......... .......... .......... .......... 14%  170K 1m58s
  2850K .......... .......... .......... .......... .......... 14%  145K 1m57s
  2900K .......... .......... .......... .......... .......... 14%  145K 1m57s
  2950K .......... .......... .......... .......... .......... 15%  146K 1m57s
  3000K .......... .......... .......... .......... .......... 15%  113K 1m57s
  3050K .......... .......... .......... .......... .......... 15%  170K 1m56s
  3100K .......... .......... .......... .......... .......... 15%  127K 1m56s
  3150K .......... .......... .......... .......... .......... 16%  170K 1m56s
  3200K .......... .......... .......... .......... .......... 16%  169K 1m55s
  3250K .......... .......... .......... .......... .......... 16% 94.0K 1m56s
  3300K .......... .......... .......... .......... .......... 16%  143K 1m55s
  3350K .......... .......... .......... .......... .......... 17%  128K 1m55s
  3400K .......... .......... .......... .......... .......... 17%  169K 1m54s
  3450K .......... .......... .......... .......... .......... 17%  102K 1m55s
  3500K .......... .......... .......... .......... .......... 17% 79.5K 1m56s
  3550K .......... .......... .......... .......... .......... 18%  127K 1m56s
  3600K .......... .......... .......... .......... .......... 18% 85.0K 1m56s
  3650K .......... .......... .......... .......... .......... 18%  132K 1m56s
  3700K .......... .......... .......... .......... .......... 18%  213K 1m55s
  3750K .......... .......... .......... .......... .......... 19%  195K 1m54s
  3800K .......... .......... .......... .......... .......... 19%  127K 1m54s
  3850K .......... .......... .......... .......... .......... 19%  127K 1m54s
  3900K .......... .......... .......... .......... .......... 19%  170K 1m53s
  3950K .......... .......... .......... .......... .......... 20%  150K 1m53s
  4000K .......... .......... .......... .......... .......... 20% 59.3K 1m55s
  4050K .......... .......... .......... .......... .......... 20% 93.0K 1m55s
  4100K .......... .......... .......... .......... .......... 20%  131K 1m55s
  4150K .......... .......... .......... .......... .......... 21%  130K 1m54s
  4200K .......... .......... .......... .......... .......... 21%  127K 1m54s
  4250K .......... .......... .......... .......... .......... 21%  102K 1m54s
  4300K .......... .......... .......... .......... .......... 21%  113K 1m54s
  4350K .......... .......... .......... .......... .......... 22%  170K 1m54s
  4400K .......... .......... .......... .......... .......... 22%  202K 1m53s
  4450K .......... .......... .......... .......... .......... 22%  170K 1m52s
  4500K .......... .......... .......... .......... .......... 22%  127K 1m52s
  4550K .......... .......... .......... .......... .......... 23%  169K 1m51s
  4600K .......... .......... .......... .......... .......... 23% 85.0K 1m52s
  4650K .......... .......... .......... .......... .......... 23% 67.9K 1m53s
  4700K .......... .......... .......... .......... .......... 23% 85.1K 1m53s
  4750K .......... .......... .......... .......... .......... 24% 94.2K 1m53s
  4800K .......... .......... .......... .......... .......... 24%  102K 1m53s
  4850K .......... .......... .......... .......... .......... 24%  127K 1m53s
  4900K .......... .......... .......... .......... .......... 24%  150K 1m52s
  4950K .......... .......... .......... .......... .......... 25%  145K 1m52s
  5000K .......... .......... .......... .......... .......... 25%  127K 1m51s
  5050K .......... .......... .......... .......... .......... 25% 72.9K 1m52s
  5100K .......... .......... .......... .......... .......... 25%  104K 1m52s
  5150K .......... .......... .......... .......... .......... 26%  124K 1m52s
  5200K .......... .......... .......... .......... .......... 26%  131K 1m51s
  5250K .......... .......... .......... .......... .......... 26%  163K 1m51s
  5300K .......... .......... .......... .......... .......... 26%  255K 1m50s
  5350K .......... .......... .......... .......... .......... 27% 68.9K 1m50s
  5400K .......... .......... .......... .......... .......... 27% 92.8K 1m50s
  5450K .......... .......... .......... .......... .......... 27%  127K 1m50s
  5500K .......... .......... .......... .......... .......... 27% 86.7K 1m50s
  5550K .......... .......... .......... .......... .......... 28%  132K 1m50s
  5600K .......... .......... .......... .......... .......... 28%  102K 1m50s
  5650K .......... .......... .......... .......... .......... 28%  102K 1m50s
  5700K .......... .......... .......... .......... .......... 28%  149K 1m49s
  5750K .......... .......... .......... .......... .......... 29%  102K 1m49s
  5800K .......... .......... .......... .......... .......... 29% 78.2K 1m49s
  5850K .......... .......... .......... .......... .......... 29%  113K 1m49s
  5900K .......... .......... .......... .......... .......... 29%  117K 1m49s
  5950K .......... .......... .......... .......... .......... 30%  170K 1m48s
  6000K .......... .......... .......... .......... .......... 30% 90.6K 1m48s
  6050K .......... .......... .......... .......... .......... 30%  116K 1m48s
  6100K .......... .......... .......... .......... .......... 30%  128K 1m47s
  6150K .......... .......... .......... .......... .......... 31% 92.7K 1m47s
  6200K .......... .......... .......... .......... .......... 31% 67.9K 1m48s
  6250K .......... .......... .......... .......... .......... 31% 85.0K 1m48s
  6300K .......... .......... .......... .......... .......... 31% 72.8K 1m48s
  6350K .......... .......... .......... .......... .......... 32%  131K 1m48s
  6400K .......... .......... .......... .......... .......... 32%  127K 1m47s
  6450K .......... .......... .......... .......... .......... 32%  128K 1m47s
  6500K .......... .......... .......... .......... .......... 32%  117K 1m46s
  6550K .......... .......... .......... .......... .......... 33%  102K 1m46s
  6600K .......... .......... .......... .......... .......... 33%  169K 1m46s
  6650K .......... .......... .......... .......... .......... 33%  253K 1m45s
  6700K .......... .......... .......... .......... .......... 33%  176K 1m44s
  6750K .......... .......... .......... .......... .......... 34%  164K 1m44s
  6800K .......... .......... .......... .......... .......... 34%  170K 1m43s
  6850K .......... .......... .......... .......... .......... 34%  132K 1m43s
  6900K .......... .......... .......... .......... .......... 34% 78.2K 1m43s
  6950K .......... .......... .......... .......... .......... 35% 87.0K 1m43s
  7000K .......... .......... .......... .......... .......... 35%  102K 1m42s
  7050K .......... .......... .......... .......... .......... 35%  145K 1m42s
  7100K .......... .......... .......... .......... .......... 35%  127K 1m42s
  7150K .......... .......... .......... .......... .......... 36%  113K 1m41s
  7200K .......... .......... .......... .......... .......... 36%  170K 1m41s
  7250K .......... .......... .......... .......... .......... 36%  202K 1m40s
  7300K .......... .......... .......... .......... .......... 36%  204K 99s
  7350K .......... .......... .......... .......... .......... 37%  113K 99s
  7400K .......... .......... .......... .......... .......... 37% 92.7K 99s
  7450K .......... .......... .......... .......... .......... 37%  104K 99s
  7500K .......... .......... .......... .......... .......... 37% 99.1K 98s
  7550K .......... .......... .......... .......... .......... 38%  127K 98s
  7600K .......... .......... .......... .......... .......... 38%  146K 98s
  7650K .......... .......... .......... .......... .......... 38%  203K 97s
  7700K .......... .......... .......... .......... .......... 38%  169K 96s
  7750K .......... .......... .......... .......... .......... 39%  204K 96s
  7800K .......... .......... .......... .......... .......... 39%  130K 95s
  7850K .......... .......... .......... .......... .......... 39%  124K 95s
  7900K .......... .......... .......... .......... .......... 39% 92.7K 95s
  7950K .......... .......... .......... .......... .......... 40%  203K 94s
  8000K .......... .......... .......... .......... .......... 40%  170K 94s
  8050K .......... .......... .......... .......... .......... 40%  204K 93s
  8100K .......... .......... .......... .......... .......... 40%  151K 93s
  8150K .......... .......... .......... .......... .......... 41%  163K 92s
  8200K .......... .......... .......... .......... .......... 41%  128K 92s
  8250K .......... .......... .......... .......... .......... 41%  102K 91s
  8300K .......... .......... .......... .......... .......... 41% 85.0K 91s
  8350K .......... .......... .......... .......... .......... 42% 92.6K 91s
  8400K .......... .......... .......... .......... .......... 42%  113K 91s
  8450K .......... .......... .......... .......... .......... 42%  151K 90s
  8500K .......... .......... .......... .......... .......... 42%  169K 90s
  8550K .......... .......... .......... .......... .......... 43%  203K 89s
  8600K .......... .......... .......... .......... .......... 43%  204K 89s
  8650K .......... .......... .......... .......... .......... 43%  145K 88s
  8700K .......... .......... .......... .......... .......... 43% 67.1K 88s
  8750K .......... .......... .......... .......... .......... 44%  170K 88s
  8800K .......... .......... .......... .......... .......... 44%  170K 87s
  8850K .......... .......... .......... .......... .......... 44%  202K 87s
  8900K .......... .......... .......... .......... .......... 44%  171K 86s
  8950K .......... .......... .......... .......... .......... 45%  202K 86s
  9000K .......... .......... .......... .......... .......... 45%  113K 85s
  9050K .......... .......... .......... .......... .......... 45%  145K 85s
  9100K .......... .......... .......... .......... .......... 45% 60.7K 85s
  9150K .......... .......... .......... .......... .......... 46%  203K 84s
  9200K .......... .......... .......... .......... .......... 46%  127K 84s
  9250K .......... .......... .......... .......... .......... 46% 35.9K 85s
  9300K .......... .......... .......... .......... .......... 46% 78.5K 85s
  9350K .......... .......... .......... .......... .......... 47% 94.3K 84s
  9400K .......... .......... .......... .......... .......... 47%  145K 84s
  9450K .......... .......... .......... .......... .......... 47% 92.5K 84s
  9500K .......... .......... .......... .......... .......... 47%  104K 83s
  9550K .......... .......... .......... .......... .......... 48% 78.3K 83s
  9600K .......... .......... .......... .......... .......... 48%  102K 83s
  9650K .......... .......... .......... .......... .......... 48%  203K 82s
  9700K .......... .......... .......... .......... .......... 48%  145K 82s
  9750K .......... .......... .......... .......... .......... 49%  127K 82s
  9800K .......... .......... .......... .......... .......... 49% 60.1K 82s
  9850K .......... .......... .......... .......... .......... 49% 92.5K 81s
  9900K .......... .......... .......... .......... .......... 49% 56.7K 81s
  9950K .......... .......... .......... .......... .......... 50%  127K 81s
 10000K .......... .......... .......... .......... .......... 50%  168K 80s
 10050K .......... .......... .......... .......... .......... 50%  170K 80s
 10100K .......... .......... .......... .......... .......... 50%  170K 79s
 10150K .......... .......... .......... .......... .......... 51%  117K 79s
 10200K .......... .......... .......... .......... .......... 51%  109K 79s
 10250K .......... .......... .......... .......... .......... 51%  180K 78s
 10300K .......... .......... .......... .......... .......... 51%  122K 78s
 10350K .......... .......... .......... .......... .......... 52% 86.7K 78s
 10400K .......... .......... .......... .......... .......... 52%  102K 77s
 10450K .......... .......... .......... .......... .......... 52%  146K 77s
 10500K .......... .......... .......... .......... .......... 52%  110K 76s
 10550K .......... .......... .......... .......... .......... 53% 92.8K 76s
 10600K .......... .......... .......... .......... .......... 53%  104K 76s
 10650K .......... .......... .......... .......... .......... 53%  163K 75s
 10700K .......... .......... .......... .......... .......... 53%  145K 75s
 10750K .......... .......... .......... .......... .......... 54%  113K 74s
 10800K .......... .......... .......... .......... .......... 54%  113K 74s
 10850K .......... .......... .......... .......... .......... 54%  102K 74s
 10900K .......... .......... .......... .......... .......... 54%  102K 73s
 10950K .......... .......... .......... .......... .......... 55% 39.9K 74s
 11000K .......... .......... .......... .......... .......... 55% 72.7K 74s
 11050K .......... .......... .......... .......... .......... 55%  104K 73s
 11100K .......... .......... .......... .......... .......... 55%  131K 73s
 11150K .......... .......... .......... .......... .......... 56% 63.8K 73s
 11200K .......... .......... .......... .......... .......... 56% 72.8K 72s
 11250K .......... .......... .......... .......... .......... 56%  104K 72s
 11300K .......... .......... .......... .......... .......... 56%  169K 72s
 11350K .......... .......... .......... .......... .......... 57%  127K 71s
 11400K .......... .......... .......... .......... .......... 57%  145K 71s
 11450K .......... .......... .......... .......... .......... 57%  114K 70s
 11500K .......... .......... .......... .......... .......... 57%  177K 70s
 11550K .......... .......... .......... .......... .......... 58%  169K 69s
 11600K .......... .......... .......... .......... .......... 58%  145K 69s
 11650K .......... .......... .......... .......... .......... 58%  114K 68s
 11700K .......... .......... .......... .......... .......... 58%  131K 68s
 11750K .......... .......... .......... .......... .......... 59%  146K 68s
 11800K .......... .......... .......... .......... .......... 59%  131K 67s
 11850K .......... .......... .......... .......... .......... 59% 72.8K 67s
 11900K .......... .......... .......... .......... .......... 59%  113K 66s
 11950K .......... .......... .......... .......... .......... 60%  127K 66s
 12000K .......... .......... .......... .......... .......... 60% 92.6K 66s
 12050K .......... .......... .......... .......... .......... 60%  145K 65s
 12100K .......... .......... .......... .......... .......... 60%  128K 65s
 12150K .......... .......... .......... .......... .......... 61%  146K 64s
 12200K .......... .......... .......... .......... .......... 61%  177K 64s
 12250K .......... .......... .......... .......... .......... 61%  203K 63s
 12300K .......... .......... .......... .......... .......... 61%  169K 63s
 12350K .......... .......... .......... .......... .......... 62%  127K 62s
 12400K .......... .......... .......... .......... .......... 62%  145K 62s
 12450K .......... .......... .......... .......... .......... 62%  169K 62s
 12500K .......... .......... .......... .......... .......... 62%  131K 61s
 12550K .......... .......... .......... .......... .......... 63%  147K 61s
 12600K .......... .......... .......... .......... .......... 63%  146K 60s
 12650K .......... .......... .......... .......... .......... 63%  126K 60s
 12700K .......... .......... .......... .......... .......... 63%  141K 59s
 12750K .......... .......... .......... .......... .......... 64%  145K 59s
 12800K .......... .......... .......... .......... .......... 64%  127K 58s
 12850K .......... .......... .......... .......... .......... 64% 85.3K 58s
 12900K .......... .......... .......... .......... .......... 64%  169K 58s
 12950K .......... .......... .......... .......... .......... 65%  127K 57s
 13000K .......... .......... .......... .......... .......... 65% 92.7K 57s
 13050K .......... .......... .......... .......... .......... 65%  127K 57s
 13100K .......... .......... .......... .......... .......... 65%  127K 56s
 13150K .......... .......... .......... .......... .......... 66%  145K 56s
 13200K .......... .......... .......... .......... .......... 66% 78.5K 55s
 13250K .......... .......... .......... .......... .......... 66% 68.9K 55s
 13300K .......... .......... .......... .......... .......... 66%  113K 55s
 13350K .......... .......... .......... .......... .......... 67%  164K 54s
 13400K .......... .......... .......... .......... .......... 67% 94.8K 54s
 13450K .......... .......... .......... .......... .......... 67% 92.6K 54s
 13500K .......... .......... .......... .......... .......... 67% 78.4K 53s
 13550K .......... .......... .......... .......... .......... 68% 57.0K 53s
 13600K .......... .......... .......... .......... .......... 68%  111K 53s
 13650K .......... .......... .......... .......... .......... 68%  146K 52s
 13700K .......... .......... .......... .......... .......... 68%  128K 52s
 13750K .......... .......... .......... .......... .......... 69%  131K 51s
 13800K .......... .......... .......... .......... .......... 69%  127K 51s
 13850K .......... .......... .......... .......... .......... 69%  128K 50s
 13900K .......... .......... .......... .......... .......... 69% 29.5K 51s
 13950K .......... .......... .......... .......... .......... 70%  146K 50s
 14000K .......... .......... .......... .......... .......... 70%  127K 50s
 14050K .......... .......... .......... .......... .......... 70%  102K 49s
 14100K .......... .......... .......... .......... .......... 70%  127K 49s
 14150K .......... .......... .......... .......... .......... 71%  169K 48s
 14200K .......... .......... .......... .......... .......... 71% 85.1K 48s
 14250K .......... .......... .......... .......... .......... 71%  113K 48s
 14300K .......... .......... .......... .......... .......... 71%  105K 47s
 14350K .......... .......... .......... .......... .......... 72%  146K 47s
 14400K .......... .......... .......... .......... .......... 72%  145K 46s
 14450K .......... .......... .......... .......... .......... 72%  196K 46s
 14500K .......... .......... .......... .......... .......... 72%  113K 46s
 14550K .......... .......... .......... .......... .......... 73%  127K 45s
 14600K .......... .......... .......... .......... .......... 73%  102K 45s
 14650K .......... .......... .......... .......... .......... 73%  131K 44s
 14700K .......... .......... .......... .......... .......... 73%  124K 44s
 14750K .......... .......... .......... .......... .......... 74%  145K 43s
 14800K .......... .......... .......... .......... .......... 74%  127K 43s
 14850K .......... .......... .......... .......... .......... 74%  128K 43s
 14900K .......... .......... .......... .......... .......... 74%  113K 42s
 14950K .......... .......... .......... .......... .......... 75%  169K 42s
 15000K .......... .......... .......... .......... .......... 75%  131K 41s
 15050K .......... .......... .......... .......... .......... 75%  196K 41s
 15100K .......... .......... .......... .......... .......... 75%  214K 40s
 15150K .......... .......... .......... .......... .......... 76%  163K 40s
 15200K .......... .......... .......... .......... .......... 76%  102K 39s
 15250K .......... .......... .......... .......... .......... 76% 67.6K 39s
 15300K .......... .......... .......... .......... .......... 76%  116K 39s
 15350K .......... .......... .......... .......... .......... 77%  115K 38s
 15400K .......... .......... .......... .......... .......... 77%  102K 38s
 15450K .......... .......... .......... .......... .......... 77% 35.9K 38s
 15500K .......... .......... .......... .......... .......... 77% 92.6K 37s
 15550K .......... .......... .......... .......... .......... 78% 62.9K 37s
 15600K .......... .......... .......... .......... .......... 78% 95.2K 37s
 15650K .......... .......... .......... .......... .......... 78%  144K 36s
 15700K .......... .......... .......... .......... .......... 78%  131K 36s
 15750K .......... .......... .......... .......... .......... 79%  146K 35s
 15800K .......... .......... .......... .......... .......... 79%  141K 35s
 15850K .......... .......... .......... .......... .......... 79%  204K 34s
 15900K .......... .......... .......... .......... .......... 79%  145K 34s
 15950K .......... .......... .......... .......... .......... 80%  150K 34s
 16000K .......... .......... .......... .......... .......... 80% 92.5K 33s
 16050K .......... .......... .......... .......... .......... 80%  145K 33s
 16100K .......... .......... .......... .......... .......... 80% 85.1K 32s
 16150K .......... .......... .......... .......... .......... 81% 84.8K 32s
 16200K .......... .......... .......... .......... .......... 81% 56.7K 32s
 16250K .......... .......... .......... .......... .......... 81%  116K 31s
 16300K .......... .......... .......... .......... .......... 81%  128K 31s
 16350K .......... .......... .......... .......... .......... 82%  145K 30s
 16400K .......... .......... .......... .......... .......... 82%  105K 30s
 16450K .......... .......... .......... .......... .......... 82% 72.9K 30s
 16500K .......... .......... .......... .......... .......... 82%  102K 29s
 16550K .......... .......... .......... .......... .......... 83%  113K 29s
 16600K .......... .......... .......... .......... .......... 83%  102K 28s
 16650K .......... .......... .......... .......... .......... 83%  113K 28s
 16700K .......... .......... .......... .......... .......... 83%  176K 28s
 16750K .......... .......... .......... .......... .......... 84%  141K 27s
 16800K .......... .......... .......... .......... .......... 84%  131K 27s
 16850K .......... .......... .......... .......... .......... 84%  146K 26s
 16900K .......... .......... .......... .......... .......... 84%  146K 26s
 16950K .......... .......... .......... .......... .......... 85%  177K 25s
 17000K .......... .......... .......... .......... .......... 85%  163K 25s
 17050K .......... .......... .......... .......... .......... 85%  203K 24s
 17100K .......... .......... .......... .......... .......... 85%  127K 24s
 17150K .......... .......... .......... .......... .......... 86%  169K 24s
 17200K .......... .......... .......... .......... .......... 86%  127K 23s
 17250K .......... .......... .......... .......... .......... 86%  127K 23s
 17300K .......... .......... .......... .......... .......... 86%  146K 22s
 17350K .......... .......... .......... .......... .......... 87%  127K 22s
 17400K .......... .......... .......... .......... .......... 87%  102K 21s
 17450K .......... .......... .......... .......... .......... 87%  176K 21s
 17500K .......... .......... .......... .......... .......... 87%  141K 21s
 17550K .......... .......... .......... .......... .......... 88%  203K 20s
 17600K .......... .......... .......... .......... .......... 88%  169K 20s
 17650K .......... .......... .......... .......... .......... 88%  170K 19s
 17700K .......... .......... .......... .......... .......... 88%  146K 19s
 17750K .......... .......... .......... .......... .......... 89%  254K 18s
 17800K .......... .......... .......... .......... .......... 89%  113K 18s
 17850K .......... .......... .......... .......... .......... 89%  113K 18s
 17900K .......... .......... .......... .......... .......... 89%  177K 17s
 17950K .......... .......... .......... .......... .......... 90%  195K 17s
 18000K .......... .......... .......... .......... .......... 90%  203K 16s
 18050K .......... .......... .......... .......... .......... 90%  253K 16s
 18100K .......... .......... .......... .......... .......... 90%  169K 15s
 18150K .......... .......... .......... .......... .......... 91%  127K 15s
 18200K .......... .......... .......... .......... .......... 91%  113K 15s
 18250K .......... .......... .......... .......... .......... 91%  145K 14s
 18300K .......... .......... .......... .......... .......... 91%  170K 14s
 18350K .......... .......... .......... .......... .......... 92%  338K 13s
 18400K .......... .......... .......... .......... .......... 92%  203K 13s
 18450K .......... .......... .......... .......... .......... 92%  169K 12s
 18500K .......... .......... .......... .......... .......... 92%  145K 12s
 18550K .......... .......... .......... .......... .......... 93%  170K 12s
 18600K .......... .......... .......... .......... .......... 93%  170K 11s
 18650K .......... .......... .......... .......... .......... 93%  131K 11s
 18700K .......... .......... .......... .......... .......... 93%  145K 10s
 18750K .......... .......... .......... .......... .......... 94%  131K 10s
 18800K .......... .......... .......... .......... .......... 94%  104K 9s
 18850K .......... .......... .......... .......... .......... 94%  203K 9s
 18900K .......... .......... .......... .......... .......... 94%  207K 9s
 18950K .......... .......... .......... .......... .......... 95%  193K 8s
 19000K .......... .......... .......... .......... .......... 95%  127K 8s
 19050K .......... .......... .......... .......... .......... 95%  145K 7s
 19100K .......... .......... .......... .......... .......... 95% 78.6K 7s
 19150K .......... .......... .......... .......... .......... 96%  104K 7s
 19200K .......... .......... .......... .......... .......... 96%  145K 6s
 19250K .......... .......... .......... .......... .......... 96%  145K 6s
 19300K .......... .......... .......... .......... .......... 96%  204K 5s
 19350K .......... .......... .......... .......... .......... 97%  146K 5s
 19400K .......... .......... .......... .......... .......... 97%  145K 5s
 19450K .......... .......... .......... .......... .......... 97%  202K 4s
 19500K .......... .......... .......... .......... .......... 97%  170K 4s
 19550K .......... .......... .......... .......... .......... 98%  170K 3s
 19600K .......... .......... .......... .......... .......... 98% 92.7K 3s
 19650K .......... .......... .......... .......... .......... 98% 78.3K 2s
 19700K .......... .......... .......... .......... .......... 98%  113K 2s
 19750K .......... .......... .......... .......... .......... 99%  127K 2s
 19800K .......... .......... .......... .......... .......... 99%  102K 1s
 19850K .......... .......... .......... .......... .......... 99%  170K 1s
 19900K .......... .......... .......... .......... .......... 99%  127K 0s
 19950K .......... .......... .......... .......... ..........100%  151K 0s
 20000K                                                       100% 0.00 =2m44s

2020-07-22 19:50:28 (122 KB/s) - ‘random.1’ saved [20480000/20480000]


real	2m44.542s
user	0m2.542s
sys	0m1.238s
