Serving new connection: 5eb0982d34295135, version 512 from 10.0.0.1:42303
GET 10.1.0.1:6121/ugfiugizuegiugzeffg
Responding with 404
Info for stream 5 of 5eb0982d34295135
Path 0: sent 7 retrans 0 lost 0; rcv 7 rtt 63.835ms
Path 1: sent 5 retrans 0 lost 0; rcv 2 rtt 0s
Serving new connection: 435f4e85f276b2c1, version 512 from 10.0.0.1:53382
Info for stream 5 of 5eb0982d34295135
Path 1: sent 7 retrans 1 lost 0; rcv 4 rtt 51.129ms
Path 3: sent 2 retrans 0 lost 0; rcv 2 rtt 0s
Path 0: sent 7 retrans 0 lost 0; rcv 7 rtt 63.835ms
Info for stream 5 of 5eb0982d34295135
Path 0: sent 7 retrans 0 lost 0; rcv 7 rtt 63.835ms
Path 1: sent 8 retrans 2 lost 0; rcv 4 rtt 51.129ms
Path 3: sent 2 retrans 0 lost 0; rcv 2 rtt 0s
GET 10.1.0.1:6121/random
Responding with 200
Info for stream 5 of 5eb0982d34295135
Path 0: sent 7 retrans 0 lost 0; rcv 7 rtt 63.835ms
Path 1: sent 8 retrans 3 lost 1; rcv 4 rtt 51.129ms
Path 3: sent 3 retrans 0 lost 0; rcv 2 rtt 0s
Internal error: Too many outstanding non-acked and non-retransmitted packets
Closing session with error: Too many outstanding non-acked and non-retransmitted packets
Info for stream 5 of 435f4e85f276b2c1
Path 0: sent 6 retrans 1 lost 0; rcv 5 rtt 115.852584ms
Path 1: sent 11468 retrans 536 lost 532; rcv 5948 rtt 51.344ms
Path 3: sent 5546 retrans 327 lost 305; rcv 2916 rtt 86.034ms
