--2020-07-28 12:59:17--  https://10.1.0.1/random
Connecting to 10.1.0.1:443... connected.
WARNING: cannot verify 10.1.0.1's certificate, issued by ‘/C=BE/ST=LLN/O=Internet Widgits Pty Ltd’:
  Self-signed certificate encountered.
    WARNING: certificate common name ‘’ doesn't match requested host name ‘10.1.0.1’.
HTTP request sent, awaiting response... 200 OK
Length: 20480000 (20M) [application/octet-stream]
Saving to: ‘random.1’

     0K .......... .......... .......... .......... ..........  0%  338K 59s
    50K .......... .......... .......... .......... ..........  0%  339K 59s
   100K .......... .......... .......... .......... ..........  0%  145K 85s
   150K .......... .......... .......... .......... ..........  1% 78.3K 2m7s
   200K .......... .......... .......... .......... ..........  1% 78.5K 2m31s
   250K .......... .......... .......... .......... ..........  1%  132K 2m31s
   300K .......... .......... .......... .......... ..........  1%  204K 2m23s
   350K .......... .......... .......... .......... ..........  2%  146K 2m21s
   400K .......... .......... .......... .......... ..........  2% 83.4K 2m31s
   450K .......... .......... .......... .......... ..........  2%  145K 2m29s
   500K .......... .......... .......... .......... ..........  2%  127K 2m29s
   550K .......... .......... .......... .......... ..........  3%  169K 2m26s
   600K .......... .......... .......... .......... ..........  3% 72.7K 2m35s
   650K .......... .......... .......... .......... ..........  3%  169K 2m32s
   700K .......... .......... .......... .......... ..........  3%  150K 2m30s
   750K .......... .......... .......... .......... ..........  4%  196K 2m26s
   800K .......... .......... .......... .......... ..........  4%  145K 2m25s
   850K .......... .......... .......... .......... ..........  4%  131K 2m25s
   900K .......... .......... .......... .......... ..........  4%  204K 2m22s
   950K .......... .......... .......... .......... ..........  5%  198K 2m19s
  1000K .......... .......... .......... .......... ..........  5%  199K 2m17s
  1050K .......... .......... .......... .......... ..........  5%  336K 2m13s
  1100K .......... .......... .......... .......... ..........  5%  168K 2m11s
  1150K .......... .......... .......... .......... ..........  6% 78.0K 2m16s
  1200K .......... .......... .......... .......... ..........  6% 85.0K 2m19s
  1250K .......... .......... .......... .......... ..........  6%  113K 2m19s
  1300K .......... .......... .......... .......... ..........  6%  169K 2m18s
  1350K .......... .......... .......... .......... ..........  7%  146K 2m17s
  1400K .......... .......... .......... .......... ..........  7%  127K 2m17s
  1450K .......... .......... .......... .......... ..........  7%  131K 2m17s
  1500K .......... .......... .......... .......... ..........  7%  145K 2m16s
  1550K .......... .......... .......... .......... ..........  8%  143K 2m16s
  1600K .......... .......... .......... .......... ..........  8%  127K 2m15s
  1650K .......... .......... .......... .......... ..........  8%  145K 2m15s
  1700K .......... .......... .......... .......... ..........  8%  113K 2m15s
  1750K .......... .......... .......... .......... ..........  9%  113K 2m16s
  1800K .......... .......... .......... .......... ..........  9% 79.6K 2m18s
  1850K .......... .......... .......... .......... ..........  9% 72.2K 2m20s
  1900K .......... .......... .......... .......... ..........  9%  203K 2m19s
  1950K .......... .......... .......... .......... .......... 10%  169K 2m17s
  2000K .......... .......... .......... .......... .......... 10%  146K 2m17s
  2050K .......... .......... .......... .......... .......... 10%  203K 2m15s
  2100K .......... .......... .......... .......... .......... 10%  202K 2m14s
  2150K .......... .......... .......... .......... .......... 11%  203K 2m12s
  2200K .......... .......... .......... .......... .......... 11%  102K 2m13s
  2250K .......... .......... .......... .......... .......... 11%  151K 2m12s
  2300K .......... .......... .......... .......... .......... 11%  239K 2m11s
  2350K .......... .......... .......... .......... .......... 12%  213K 2m9s
  2400K .......... .......... .......... .......... .......... 12%  127K 2m9s
  2450K .......... .......... .......... .......... .......... 12%  203K 2m8s
  2500K .......... .......... .......... .......... .......... 12%  203K 2m7s
  2550K .......... .......... .......... .......... .......... 13%  336K 2m5s
  2600K .......... .......... .......... .......... .......... 13%  204K 2m4s
  2650K .......... .......... .......... .......... .......... 13%  170K 2m3s
  2700K .......... .......... .......... .......... .......... 13%  203K 2m2s
  2750K .......... .......... .......... .......... .......... 14%  202K 2m1s
  2800K .......... .......... .......... .......... .......... 14% 63.8K 2m3s
  2850K .......... .......... .......... .......... .......... 14%  141K 2m3s
  2900K .......... .......... .......... .......... .......... 14%  127K 2m3s
  2950K .......... .......... .......... .......... .......... 15%  127K 2m2s
  3000K .......... .......... .......... .......... .......... 15%  113K 2m3s
  3050K .......... .......... .......... .......... .......... 15%  117K 2m3s
  3100K .......... .......... .......... .......... .......... 15%  102K 2m3s
  3150K .......... .......... .......... .......... .......... 16%  146K 2m2s
  3200K .......... .......... .......... .......... .......... 16%  127K 2m2s
  3250K .......... .......... .......... .......... .......... 16%  169K 2m1s
  3300K .......... .......... .......... .......... .......... 16%  203K 2m1s
  3350K .......... .......... .......... .......... .......... 17%  128K 2m0s
  3400K .......... .......... .......... .......... .......... 17% 92.5K 2m1s
  3450K .......... .......... .......... .......... .......... 17% 94.7K 2m1s
  3500K .......... .......... .......... .......... .......... 17% 83.3K 2m2s
  3550K .......... .......... .......... .......... .......... 18%  127K 2m2s
  3600K .......... .......... .......... .......... .......... 18%  145K 2m1s
  3650K .......... .......... .......... .......... .......... 18%  170K 2m0s
  3700K .......... .......... .......... .......... .......... 18%  127K 2m0s
  3750K .......... .......... .......... .......... .......... 19%  127K 2m0s
  3800K .......... .......... .......... .......... .......... 19%  146K 1m59s
  3850K .......... .......... .......... .......... .......... 19%  102K 2m0s
  3900K .......... .......... .......... .......... .......... 19%  145K 1m59s
  3950K .......... .......... .......... .......... .......... 20%  169K 1m58s
  4000K .......... .......... .......... .......... .......... 20%  169K 1m58s
  4050K .......... .......... .......... .......... .......... 20%  170K 1m57s
  4100K .......... .......... .......... .......... .......... 20%  102K 1m57s
  4150K .......... .......... .......... .......... .......... 21% 92.6K 1m57s
  4200K .......... .......... .......... .......... .......... 21%  131K 1m57s
  4250K .......... .......... .......... .......... .......... 21%  241K 1m56s
  4300K .......... .......... .......... .......... .......... 21%  252K 1m55s
  4350K .......... .......... .......... .......... .......... 22%  203K 1m54s
  4400K .......... .......... .......... .......... .......... 22%  166K 1m54s
  4450K .......... .......... .......... .......... .......... 22%  127K 1m54s
  4500K .......... .......... .......... .......... .......... 22%  113K 1m53s
  4550K .......... .......... .......... .......... .......... 23%  170K 1m53s
  4600K .......... .......... .......... .......... .......... 23%  145K 1m52s
  4650K .......... .......... .......... .......... .......... 23% 85.1K 1m53s
  4700K .......... .......... .......... .......... .......... 23%  102K 1m53s
  4750K .......... .......... .......... .......... .......... 24%  113K 1m53s
  4800K .......... .......... .......... .......... .......... 24% 72.8K 1m53s
  4850K .......... .......... .......... .......... .......... 24% 92.5K 1m53s
  4900K .......... .......... .......... .......... .......... 24%  113K 1m53s
  4950K .......... .......... .......... .......... .......... 25%  146K 1m53s
  5000K .......... .......... .......... .......... .......... 25%  169K 1m52s
  5050K .......... .......... .......... .......... .......... 25%  145K 1m52s
  5100K .......... .......... .......... .......... .......... 25%  113K 1m51s
  5150K .......... .......... .......... .......... .......... 26%  170K 1m51s
  5200K .......... .......... .......... .......... .......... 26%  113K 1m51s
  5250K .......... .......... .......... .......... .......... 26%  146K 1m50s
  5300K .......... .......... .......... .......... .......... 26%  146K 1m50s
  5350K .......... .......... .......... .......... .......... 27%  170K 1m49s
  5400K .......... .......... .......... .......... .......... 27% 78.2K 1m49s
  5450K .......... .......... .......... .......... .......... 27%  127K 1m49s
  5500K .......... .......... .......... .......... .......... 27% 72.9K 1m50s
  5550K .......... .......... .......... .......... .......... 28%  102K 1m49s
  5600K .......... .......... .......... .......... .......... 28%  102K 1m49s
  5650K .......... .......... .......... .......... .......... 28%  145K 1m49s
  5700K .......... .......... .......... .......... .......... 28%  169K 1m48s
  5750K .......... .......... .......... .......... .......... 29%  104K 1m48s
  5800K .......... .......... .......... .......... .......... 29%  123K 1m48s
  5850K .......... .......... .......... .......... .......... 29%  170K 1m47s
  5900K .......... .......... .......... .......... .......... 29%  113K 1m47s
  5950K .......... .......... .......... .......... .......... 30%  169K 1m46s
  6000K .......... .......... .......... .......... .......... 30%  131K 1m46s
  6050K .......... .......... .......... .......... .......... 30%  195K 1m45s
  6100K .......... .......... .......... .......... .......... 30%  150K 1m45s
  6150K .......... .......... .......... .......... .......... 31%  194K 1m44s
  6200K .......... .......... .......... .......... .......... 31%  116K 1m44s
  6250K .......... .......... .......... .......... .......... 31%  112K 1m44s
  6300K .......... .......... .......... .......... .......... 31% 63.8K 1m44s
  6350K .......... .......... .......... .......... .......... 32% 92.5K 1m44s
  6400K .......... .......... .......... .......... .......... 32%  116K 1m44s
  6450K .......... .......... .......... .......... .......... 32%  142K 1m44s
  6500K .......... .......... .......... .......... .......... 32%  145K 1m43s
  6550K .......... .......... .......... .......... .......... 33%  113K 1m43s
  6600K .......... .......... .......... .......... .......... 33%  102K 1m43s
  6650K .......... .......... .......... .......... .......... 33%  113K 1m42s
  6700K .......... .......... .......... .......... .......... 33%  145K 1m42s
  6750K .......... .......... .......... .......... .......... 34%  127K 1m42s
  6800K .......... .......... .......... .......... .......... 34%  113K 1m41s
  6850K .......... .......... .......... .......... .......... 34%  127K 1m41s
  6900K .......... .......... .......... .......... .......... 34%  204K 1m40s
  6950K .......... .......... .......... .......... .......... 35%  102K 1m40s
  7000K .......... .......... .......... .......... .......... 35% 84.8K 1m40s
  7050K .......... .......... .......... .......... .......... 35%  128K 1m40s
  7100K .......... .......... .......... .......... .......... 35% 48.5K 1m40s
  7150K .......... .......... .......... .......... .......... 36% 56.4K 1m41s
  7200K .......... .......... .......... .......... .......... 36%  105K 1m41s
  7250K .......... .......... .......... .......... .......... 36%  123K 1m40s
  7300K .......... .......... .......... .......... .......... 36%  102K 1m40s
  7350K .......... .......... .......... .......... .......... 37%  102K 1m40s
  7400K .......... .......... .......... .......... .......... 37% 85.0K 1m40s
  7450K .......... .......... .......... .......... .......... 37%  116K 99s
  7500K .......... .......... .......... .......... .......... 37%  147K 99s
  7550K .......... .......... .......... .......... .......... 38%  113K 99s
  7600K .......... .......... .......... .......... .......... 38% 63.2K 99s
  7650K .......... .......... .......... .......... .......... 38%  170K 98s
  7700K .......... .......... .......... .......... .......... 38%  169K 98s
  7750K .......... .......... .......... .......... .......... 39%  101K 97s
  7800K .......... .......... .......... .......... .......... 39% 78.4K 97s
  7850K .......... .......... .......... .......... .......... 39%  146K 97s
  7900K .......... .......... .......... .......... .......... 39%  169K 96s
  7950K .......... .......... .......... .......... .......... 40%  170K 96s
  8000K .......... .......... .......... .......... .......... 40%  203K 95s
  8050K .......... .......... .......... .......... .......... 40%  203K 95s
  8100K .......... .......... .......... .......... .......... 40%  146K 94s
  8150K .......... .......... .......... .......... .......... 41%  127K 94s
  8200K .......... .......... .......... .......... .......... 41%  146K 93s
  8250K .......... .......... .......... .......... .......... 41%  146K 93s
  8300K .......... .......... .......... .......... .......... 41%  146K 92s
  8350K .......... .......... .......... .......... .......... 42%  102K 92s
  8400K .......... .......... .......... .......... .......... 42%  102K 92s
  8450K .......... .......... .......... .......... .......... 42% 92.7K 92s
  8500K .......... .......... .......... .......... .......... 42% 39.8K 92s
  8550K .......... .......... .......... .......... .......... 43%  116K 92s
  8600K .......... .......... .......... .......... .......... 43% 78.4K 92s
  8650K .......... .......... .......... .......... .......... 43%  113K 91s
  8700K .......... .......... .......... .......... .......... 43%  127K 91s
  8750K .......... .......... .......... .......... .......... 44%  204K 90s
  8800K .......... .......... .......... .......... .......... 44%  203K 90s
  8850K .......... .......... .......... .......... .......... 44%  335K 89s
  8900K .......... .......... .......... .......... .......... 44%  204K 89s
  8950K .......... .......... .......... .......... .......... 45%  145K 88s
  9000K .......... .......... .......... .......... .......... 45%  116K 88s
  9050K .......... .......... .......... .......... .......... 45%  110K 87s
  9100K .......... .......... .......... .......... .......... 45%  127K 87s
  9150K .......... .......... .......... .......... .......... 46%  113K 87s
  9200K .......... .......... .......... .......... .......... 46%  146K 86s
  9250K .......... .......... .......... .......... .......... 46%  127K 86s
  9300K .......... .......... .......... .......... .......... 46%  144K 85s
  9350K .......... .......... .......... .......... .......... 47%  127K 85s
  9400K .......... .......... .......... .......... .......... 47%  146K 84s
  9450K .......... .......... .......... .......... .......... 47%  102K 84s
  9500K .......... .......... .......... .......... .......... 47% 84.9K 84s
  9550K .......... .......... .......... .......... .......... 48%  127K 83s
  9600K .......... .......... .......... .......... .......... 48%  202K 83s
  9650K .......... .......... .......... .......... .......... 48%  126K 83s
  9700K .......... .......... .......... .......... .......... 48%  127K 82s
  9750K .......... .......... .......... .......... .......... 49% 85.1K 82s
  9800K .......... .......... .......... .......... .......... 49%  102K 82s
  9850K .......... .......... .......... .......... .......... 49%  116K 81s
  9900K .......... .......... .......... .......... .......... 49%  145K 81s
  9950K .......... .......... .......... .......... .......... 50%  145K 80s
 10000K .......... .......... .......... .......... .......... 50% 84.9K 80s
 10050K .......... .......... .......... .......... .......... 50%  127K 80s
 10100K .......... .......... .......... .......... .......... 50%  146K 79s
 10150K .......... .......... .......... .......... .......... 51%  204K 79s
 10200K .......... .......... .......... .......... .......... 51%  169K 78s
 10250K .......... .......... .......... .......... .......... 51%  170K 78s
 10300K .......... .......... .......... .......... .......... 51%  176K 77s
 10350K .......... .......... .......... .......... .......... 52%  127K 77s
 10400K .......... .......... .......... .......... .......... 52%  109K 76s
 10450K .......... .......... .......... .......... .......... 52%  169K 76s
 10500K .......... .......... .......... .......... .......... 52%  203K 75s
 10550K .......... .......... .......... .......... .......... 53%  203K 75s
 10600K .......... .......... .......... .......... .......... 53%  201K 74s
 10650K .......... .......... .......... .......... .......... 53%  205K 74s
 10700K .......... .......... .......... .......... .......... 53%  204K 73s
 10750K .......... .......... .......... .......... .......... 54%  145K 73s
 10800K .......... .......... .......... .......... .......... 54%  204K 72s
 10850K .......... .......... .......... .......... .......... 54%  214K 72s
 10900K .......... .......... .......... .......... .......... 54%  170K 71s
 10950K .......... .......... .......... .......... .......... 55%  203K 71s
 11000K .......... .......... .......... .......... .......... 55% 92.4K 70s
 11050K .......... .......... .......... .......... .......... 55%  131K 70s
 11100K .......... .......... .......... .......... .......... 55%  176K 70s
 11150K .......... .......... .......... .......... .......... 56%  195K 69s
 11200K .......... .......... .......... .......... .......... 56%  204K 69s
 11250K .......... .......... .......... .......... .......... 56%  127K 68s
 11300K .......... .......... .......... .......... .......... 56% 92.1K 68s
 11350K .......... .......... .......... .......... .......... 57% 59.9K 68s
 11400K .......... .......... .......... .......... .......... 57% 72.7K 68s
 11450K .......... .......... .......... .......... .......... 57%  146K 67s
 11500K .......... .......... .......... .......... .......... 57%  145K 67s
 11550K .......... .......... .......... .......... .......... 58% 92.4K 67s
 11600K .......... .......... .......... .......... .......... 58% 72.9K 66s
 11650K .......... .......... .......... .......... .......... 58% 94.1K 66s
 11700K .......... .......... .......... .......... .......... 58%  141K 66s
 11750K .......... .......... .......... .......... .......... 59%  146K 65s
 11800K .......... .......... .......... .......... .......... 59%  112K 65s
 11850K .......... .......... .......... .......... .......... 59%  170K 64s
 11900K .......... .......... .......... .......... .......... 59%  253K 64s
 11950K .......... .......... .......... .......... .......... 60%  204K 63s
 12000K .......... .......... .......... .......... .......... 60%  168K 63s
 12050K .......... .......... .......... .......... .......... 60%  126K 62s
 12100K .......... .......... .......... .......... .......... 60%  117K 62s
 12150K .......... .......... .......... .......... .......... 61% 92.6K 62s
 12200K .......... .......... .......... .......... .......... 61% 78.3K 62s
 12250K .......... .......... .......... .......... .......... 61%  144K 61s
 12300K .......... .......... .......... .......... .......... 61%  128K 61s
 12350K .......... .......... .......... .......... .......... 62%  170K 60s
 12400K .......... .......... .......... .......... .......... 62% 78.4K 60s
 12450K .......... .......... .......... .......... .......... 62%  170K 60s
 12500K .......... .......... .......... .......... .......... 62%  177K 59s
 12550K .......... .......... .......... .......... .......... 63%  140K 59s
 12600K .......... .......... .......... .......... .......... 63%  116K 58s
 12650K .......... .......... .......... .......... .......... 63%  164K 58s
 12700K .......... .......... .......... .......... .......... 63%  145K 57s
 12750K .......... .......... .......... .......... .......... 64%  169K 57s
 12800K .......... .......... .......... .......... .......... 64%  203K 56s
 12850K .......... .......... .......... .......... .......... 64%  246K 56s
 12900K .......... .......... .......... .......... .......... 64%  252K 55s
 12950K .......... .......... .......... .......... .......... 65%  113K 55s
 13000K .......... .......... .......... .......... .......... 65% 60.0K 55s
 13050K .......... .......... .......... .......... .......... 65%  113K 55s
 13100K .......... .......... .......... .......... .......... 65%  128K 54s
 13150K .......... .......... .......... .......... .......... 66%  102K 54s
 13200K .......... .......... .......... .......... .......... 66% 84.6K 54s
 13250K .......... .......... .......... .......... .......... 66%  170K 53s
 13300K .......... .......... .......... .......... .......... 66%  204K 53s
 13350K .......... .......... .......... .......... .......... 67%  169K 52s
 13400K .......... .......... .......... .......... .......... 67%  127K 52s
 13450K .......... .......... .......... .......... .......... 67%  169K 51s
 13500K .......... .......... .......... .......... .......... 67%  127K 51s
 13550K .......... .......... .......... .......... .......... 68%  127K 51s
 13600K .......... .......... .......... .......... .......... 68%  170K 50s
 13650K .......... .......... .......... .......... .......... 68%  169K 50s
 13700K .......... .......... .......... .......... .......... 68%  170K 49s
 13750K .......... .......... .......... .......... .......... 69% 84.7K 49s
 13800K .......... .......... .......... .......... .......... 69% 92.5K 49s
 13850K .......... .......... .......... .......... .......... 69%  204K 48s
 13900K .......... .......... .......... .......... .......... 69%  202K 48s
 13950K .......... .......... .......... .......... .......... 70%  146K 47s
 14000K .......... .......... .......... .......... .......... 70%  144K 47s
 14050K .......... .......... .......... .......... .......... 70%  146K 46s
 14100K .......... .......... .......... .......... .......... 70%  170K 46s
 14150K .......... .......... .......... .......... .......... 71%  202K 46s
 14200K .......... .......... .......... .......... .......... 71%  170K 45s
 14250K .......... .......... .......... .......... .......... 71%  169K 45s
 14300K .......... .......... .......... .......... .......... 71%  125K 44s
 14350K .......... .......... .......... .......... .......... 72%  127K 44s
 14400K .......... .......... .......... .......... .......... 72% 72.9K 44s
 14450K .......... .......... .......... .......... .......... 72%  102K 43s
 14500K .......... .......... .......... .......... .......... 72%  169K 43s
 14550K .......... .......... .......... .......... .......... 73%  254K 42s
 14600K .......... .......... .......... .......... .......... 73%  169K 42s
 14650K .......... .......... .......... .......... .......... 73%  169K 42s
 14700K .......... .......... .......... .......... .......... 73%  254K 41s
 14750K .......... .......... .......... .......... .......... 74%  169K 41s
 14800K .......... .......... .......... .......... .......... 74%  128K 40s
 14850K .......... .......... .......... .......... .......... 74%  145K 40s
 14900K .......... .......... .......... .......... .......... 74%  128K 39s
 14950K .......... .......... .......... .......... .......... 75%  127K 39s
 15000K .......... .......... .......... .......... .......... 75%  101K 39s
 15050K .......... .......... .......... .......... .......... 75%  113K 38s
 15100K .......... .......... .......... .......... .......... 75%  127K 38s
 15150K .......... .......... .......... .......... .......... 76%  127K 38s
 15200K .......... .......... .......... .......... .......... 76%  170K 37s
 15250K .......... .......... .......... .......... .......... 76%  253K 37s
 15300K .......... .......... .......... .......... .......... 76%  253K 36s
 15350K .......... .......... .......... .......... .......... 77%  198K 36s
 15400K .......... .......... .......... .......... .......... 77%  127K 35s
 15450K .......... .......... .......... .......... .......... 77%  102K 35s
 15500K .......... .......... .......... .......... .......... 77% 86.6K 35s
 15550K .......... .......... .......... .......... .......... 78% 92.7K 34s
 15600K .......... .......... .......... .......... .......... 78%  145K 34s
 15650K .......... .......... .......... .......... .......... 78%  145K 34s
 15700K .......... .......... .......... .......... .......... 78%  126K 33s
 15750K .......... .......... .......... .......... .......... 79%  131K 33s
 15800K .......... .......... .......... .......... .......... 79%  111K 32s
 15850K .......... .......... .......... .......... .......... 79% 94.9K 32s
 15900K .......... .......... .......... .......... .......... 79% 32.4K 32s
 15950K .......... .......... .......... .......... .......... 80% 78.5K 32s
 16000K .......... .......... .......... .......... .......... 80% 57.2K 31s
 16050K .......... .......... .......... .......... .......... 80%  113K 31s
 16100K .......... .......... .......... .......... .......... 80% 92.6K 31s
 16150K .......... .......... .......... .......... .......... 81% 68.0K 30s
 16200K .......... .......... .......... .......... .......... 81% 84.8K 30s
 16250K .......... .......... .......... .......... .......... 81%  131K 30s
 16300K .......... .......... .......... .......... .......... 81%  145K 29s
 16350K .......... .......... .......... .......... .......... 82%  127K 29s
 16400K .......... .......... .......... .......... .......... 82%  145K 28s
 16450K .......... .......... .......... .......... .......... 82%  102K 28s
 16500K .......... .......... .......... .......... .......... 82%  128K 28s
 16550K .......... .......... .......... .......... .......... 83%  102K 27s
 16600K .......... .......... .......... .......... .......... 83% 68.8K 27s
 16650K .......... .......... .......... .......... .......... 83% 93.5K 26s
 16700K .......... .......... .......... .......... .......... 83%  162K 26s
 16750K .......... .......... .......... .......... .......... 84%  205K 26s
 16800K .......... .......... .......... .......... .......... 84%  202K 25s
 16850K .......... .......... .......... .......... .......... 84%  169K 25s
 16900K .......... .......... .......... .......... .......... 84%  113K 24s
 16950K .......... .......... .......... .......... .......... 85%  170K 24s
 17000K .......... .......... .......... .......... .......... 85%  131K 24s
 17050K .......... .......... .......... .......... .......... 85%  145K 23s
 17100K .......... .......... .......... .......... .......... 85%  116K 23s
 17150K .......... .......... .......... .......... .......... 86%  196K 22s
 17200K .......... .......... .......... .......... .......... 86% 74.0K 22s
 17250K .......... .......... .......... .......... .......... 86%  145K 22s
 17300K .......... .......... .......... .......... .......... 86%  152K 21s
 17350K .......... .......... .......... .......... .......... 87%  251K 21s
 17400K .......... .......... .......... .......... .......... 87%  127K 20s
 17450K .......... .......... .......... .......... .......... 87%  169K 20s
 17500K .......... .......... .......... .......... .......... 87%  146K 19s
 17550K .......... .......... .......... .......... .......... 88%  146K 19s
 17600K .......... .......... .......... .......... .......... 88% 84.8K 19s
 17650K .......... .......... .......... .......... .......... 88%  116K 18s
 17700K .......... .......... .......... .......... .......... 88%  147K 18s
 17750K .......... .......... .......... .......... .......... 89%  204K 17s
 17800K .......... .......... .......... .......... .......... 89% 72.2K 17s
 17850K .......... .......... .......... .......... .......... 89% 93.6K 17s
 17900K .......... .......... .......... .......... .......... 89%  203K 16s
 17950K .......... .......... .......... .......... .......... 90%  169K 16s
 18000K .......... .......... .......... .......... .......... 90%  113K 16s
 18050K .......... .......... .......... .......... .......... 90%  145K 15s
 18100K .......... .......... .......... .......... .......... 90%  146K 15s
 18150K .......... .......... .......... .......... .......... 91%  203K 14s
 18200K .......... .......... .......... .......... .......... 91%  115K 14s
 18250K .......... .......... .......... .......... .......... 91% 62.5K 14s
 18300K .......... .......... .......... .......... .......... 91%  127K 13s
 18350K .......... .......... .......... .......... .......... 92%  150K 13s
 18400K .......... .......... .......... .......... .......... 92%  141K 12s
 18450K .......... .......... .......... .......... .......... 92%  128K 12s
 18500K .......... .......... .......... .......... .......... 92%  145K 12s
 18550K .......... .......... .......... .......... .......... 93%  170K 11s
 18600K .......... .......... .......... .......... .......... 93%  150K 11s
 18650K .......... .......... .......... .......... .......... 93%  127K 10s
 18700K .......... .......... .......... .......... .......... 93%  102K 10s
 18750K .......... .......... .......... .......... .......... 94%  145K 10s
 18800K .......... .......... .......... .......... .......... 94% 72.8K 9s
 18850K .......... .......... .......... .......... .......... 94% 92.8K 9s
 18900K .......... .......... .......... .......... .......... 94%  150K 8s
 18950K .......... .......... .......... .......... .......... 95%  113K 8s
 19000K .......... .......... .......... .......... .......... 95% 92.5K 8s
 19050K .......... .......... .......... .......... .......... 95% 78.3K 7s
 19100K .......... .......... .......... .......... .......... 95% 72.9K 7s
 19150K .......... .......... .......... .......... .......... 96%  145K 6s
 19200K .......... .......... .......... .......... .......... 96%  113K 6s
 19250K .......... .......... .......... .......... .......... 96%  146K 6s
 19300K .......... .......... .......... .......... .......... 96%  146K 5s
 19350K .......... .......... .......... .......... .......... 97%  130K 5s
 19400K .......... .......... .......... .......... .......... 97%  145K 4s
 19450K .......... .......... .......... .......... .......... 97%  166K 4s
 19500K .......... .......... .......... .......... .......... 97%  203K 4s
 19550K .......... .......... .......... .......... .......... 98%  203K 3s
 19600K .......... .......... .......... .......... .......... 98%  255K 3s
 19650K .......... .......... .......... .......... .......... 98%  113K 2s
 19700K .......... .......... .......... .......... .......... 98%  127K 2s
 19750K .......... .......... .......... .......... .......... 99%  128K 2s
 19800K .......... .......... .......... .......... .......... 99%  128K 1s
 19850K .......... .......... .......... .......... .......... 99%  132K 1s
 19900K .......... .......... .......... .......... .......... 99%  162K 0s
 19950K .......... .......... .......... .......... ..........100% 73.3K 0s
 20000K                                                       100% 0.00 =2m40s

2020-07-28 13:01:57 (125 KB/s) - ‘random.1’ saved [20480000/20480000]


real	2m39.832s
user	0m2.529s
sys	0m1.145s
