PING 10.1.0.1 (10.1.0.1) from 10.0.0.1 : 56(84) bytes of data.
64 bytes from 10.1.0.1: icmp_seq=1 ttl=63 time=110 ms
64 bytes from 10.1.0.1: icmp_seq=2 ttl=63 time=52.5 ms
64 bytes from 10.1.0.1: icmp_seq=3 ttl=63 time=48.8 ms
64 bytes from 10.1.0.1: icmp_seq=4 ttl=63 time=48.8 ms
64 bytes from 10.1.0.1: icmp_seq=5 ttl=63 time=48.8 ms

--- 10.1.0.1 ping statistics ---
5 packets transmitted, 5 received, 0% packet loss, time 4004ms
rtt min/avg/max/mdev = 48.835/61.912/110.462/24.318 ms
PING 10.1.0.1 (10.1.0.1) from 10.0.1.1 : 56(84) bytes of data.
64 bytes from 10.1.0.1: icmp_seq=1 ttl=63 time=178 ms
64 bytes from 10.1.0.1: icmp_seq=2 ttl=63 time=85.6 ms
64 bytes from 10.1.0.1: icmp_seq=3 ttl=63 time=83.4 ms
64 bytes from 10.1.0.1: icmp_seq=4 ttl=63 time=82.5 ms
64 bytes from 10.1.0.1: icmp_seq=5 ttl=63 time=82.6 ms

--- 10.1.0.1 ping statistics ---
5 packets transmitted, 5 received, 0% packet loss, time 4006ms
rtt min/avg/max/mdev = 82.565/102.539/178.388/37.941 ms
