PING 10.1.0.1 (10.1.0.1) from 10.0.0.1 : 56(84) bytes of data.
64 bytes from 10.1.0.1: icmp_seq=1 ttl=63 time=111 ms
64 bytes from 10.1.0.1: icmp_seq=2 ttl=63 time=52.8 ms
64 bytes from 10.1.0.1: icmp_seq=3 ttl=63 time=49.2 ms
64 bytes from 10.1.0.1: icmp_seq=4 ttl=63 time=48.9 ms
64 bytes from 10.1.0.1: icmp_seq=5 ttl=63 time=48.7 ms

--- 10.1.0.1 ping statistics ---
5 packets transmitted, 5 received, 0% packet loss, time 4004ms
rtt min/avg/max/mdev = 48.794/62.201/111.130/24.511 ms
PING 10.1.0.1 (10.1.0.1) from 10.0.1.1 : 56(84) bytes of data.
64 bytes from 10.1.0.1: icmp_seq=1 ttl=63 time=180 ms
64 bytes from 10.1.0.1: icmp_seq=2 ttl=63 time=85.7 ms
64 bytes from 10.1.0.1: icmp_seq=3 ttl=63 time=83.0 ms
64 bytes from 10.1.0.1: icmp_seq=4 ttl=63 time=83.3 ms
64 bytes from 10.1.0.1: icmp_seq=5 ttl=63 time=82.6 ms

--- 10.1.0.1 ping statistics ---
5 packets transmitted, 5 received, 0% packet loss, time 4004ms
rtt min/avg/max/mdev = 82.649/102.986/180.142/38.595 ms
