--2020-07-26 18:50:18--  https://10.1.0.1/random
Connecting to 10.1.0.1:443... connected.
WARNING: cannot verify 10.1.0.1's certificate, issued by ‘/C=BE/ST=LLN/O=Internet Widgits Pty Ltd’:
  Self-signed certificate encountered.
    WARNING: certificate common name ‘’ doesn't match requested host name ‘10.1.0.1’.
HTTP request sent, awaiting response... 200 OK
Length: 20480000 (20M) [application/octet-stream]
Saving to: ‘random.1’

     0K .......... .......... .......... .......... ..........  0%  340K 59s
    50K .......... .......... .......... .......... ..........  0%  202K 78s
   100K .......... .......... .......... .......... ..........  0%  147K 97s
   150K .......... .......... .......... .......... ..........  1%  117K 1m55s
   200K .......... .......... .......... .......... ..........  1% 90.5K 2m16s
   250K .......... .......... .......... .......... ..........  1% 78.7K 2m34s
   300K .......... .......... .......... .......... ..........  1%  103K 2m39s
   350K .......... .......... .......... .......... ..........  2%  145K 2m36s
   400K .......... .......... .......... .......... ..........  2%  146K 2m33s
   450K .......... .......... .......... .......... ..........  2%  145K 2m31s
   500K .......... .......... .......... .......... ..........  2%  254K 2m24s
   550K .......... .......... .......... .......... ..........  3%  204K 2m19s
   600K .......... .......... .......... .......... ..........  3%  169K 2m17s
   650K .......... .......... .......... .......... ..........  3%  145K 2m17s
   700K .......... .......... .......... .......... ..........  3% 72.1K 2m25s
   750K .......... .......... .......... .......... ..........  4%  146K 2m24s
   800K .......... .......... .......... .......... ..........  4% 59.2K 2m34s
   850K .......... .......... .......... .......... ..........  4%  145K 2m32s
   900K .......... .......... .......... .......... ..........  4%  127K 2m32s
   950K .......... .......... .......... .......... ..........  5%  104K 2m33s
  1000K .......... .......... .......... .......... ..........  5%  104K 2m34s
  1050K .......... .......... .......... .......... ..........  5%  111K 2m34s
  1100K .......... .......... .......... .......... ..........  5% 63.5K 2m40s
  1150K .......... .......... .......... .......... ..........  6%  102K 2m41s
  1200K .......... .......... .......... .......... ..........  6%  127K 2m40s
  1250K .......... .......... .......... .......... ..........  6%  203K 2m37s
  1300K .......... .......... .......... .......... ..........  6%  169K 2m35s
  1350K .......... .......... .......... .......... ..........  7%  114K 2m35s
  1400K .......... .......... .......... .......... ..........  7% 79.8K 2m37s
  1450K .......... .......... .......... .......... ..........  7%  141K 2m36s
  1500K .......... .......... .......... .......... ..........  7%  176K 2m34s
  1550K .......... .......... .......... .......... ..........  8%  203K 2m31s
  1600K .......... .......... .......... .......... ..........  8%  169K 2m29s
  1650K .......... .......... .......... .......... ..........  8%  255K 2m27s
  1700K .......... .......... .......... .......... ..........  8%  253K 2m24s
  1750K .......... .......... .......... .......... ..........  9%  203K 2m22s
  1800K .......... .......... .......... .......... ..........  9%  102K 2m23s
  1850K .......... .......... .......... .......... ..........  9% 60.1K 2m27s
  1900K .......... .......... .......... .......... ..........  9% 94.4K 2m28s
  1950K .......... .......... .......... .......... .......... 10%  124K 2m27s
  2000K .......... .......... .......... .......... .......... 10%  145K 2m26s
  2050K .......... .......... .......... .......... .......... 10%  203K 2m24s
  2100K .......... .......... .......... .......... .......... 10%  127K 2m24s
  2150K .......... .......... .......... .......... .......... 11%  145K 2m23s
  2200K .......... .......... .......... .......... .......... 11%  170K 2m22s
  2250K .......... .......... .......... .......... .......... 11%  145K 2m21s
  2300K .......... .......... .......... .......... .......... 11% 95.2K 2m21s
  2350K .......... .......... .......... .......... .......... 12%  149K 2m21s
  2400K .......... .......... .......... .......... .......... 12%  142K 2m20s
  2450K .......... .......... .......... .......... .......... 12% 56.8K 2m23s
  2500K .......... .......... .......... .......... .......... 12%  113K 2m23s
  2550K .......... .......... .......... .......... .......... 13%  170K 2m21s
  2600K .......... .......... .......... .......... .......... 13%  203K 2m20s
  2650K .......... .......... .......... .......... .......... 13%  216K 2m18s
  2700K .......... .......... .......... .......... .......... 13%  146K 2m18s
  2750K .......... .......... .......... .......... .......... 14% 92.5K 2m18s
  2800K .......... .......... .......... .......... .......... 14% 92.2K 2m19s
  2850K .......... .......... .......... .......... .......... 14%  203K 2m17s
  2900K .......... .......... .......... .......... .......... 14%  169K 2m16s
  2950K .......... .......... .......... .......... .......... 15%  145K 2m16s
  3000K .......... .......... .......... .......... .......... 15%  102K 2m16s
  3050K .......... .......... .......... .......... .......... 15%  113K 2m15s
  3100K .......... .......... .......... .......... .......... 15%  145K 2m15s
  3150K .......... .......... .......... .......... .......... 16% 80.1K 2m16s
  3200K .......... .......... .......... .......... .......... 16%  113K 2m15s
  3250K .......... .......... .......... .......... .......... 16%  146K 2m15s
  3300K .......... .......... .......... .......... .......... 16%  169K 2m14s
  3350K .......... .......... .......... .......... .......... 17% 63.8K 2m15s
  3400K .......... .......... .......... .......... .......... 17% 78.3K 2m16s
  3450K .......... .......... .......... .......... .......... 17%  127K 2m15s
  3500K .......... .......... .......... .......... .......... 17%  112K 2m15s
  3550K .......... .......... .......... .......... .......... 18% 92.8K 2m15s
  3600K .......... .......... .......... .......... .......... 18%  113K 2m15s
  3650K .......... .......... .......... .......... .......... 18%  170K 2m14s
  3700K .......... .......... .......... .......... .......... 18%  151K 2m13s
  3750K .......... .......... .......... .......... .......... 19%  203K 2m12s
  3800K .......... .......... .......... .......... .......... 19%  171K 2m11s
  3850K .......... .......... .......... .......... .......... 19%  151K 2m11s
  3900K .......... .......... .......... .......... .......... 19%  120K 2m10s
  3950K .......... .......... .......... .......... .......... 20% 64.2K 2m11s
  4000K .......... .......... .......... .......... .......... 20% 78.4K 2m12s
  4050K .......... .......... .......... .......... .......... 20%  104K 2m12s
  4100K .......... .......... .......... .......... .......... 20%  169K 2m11s
  4150K .......... .......... .......... .......... .......... 21%  127K 2m10s
  4200K .......... .......... .......... .......... .......... 21% 64.8K 2m11s
  4250K .......... .......... .......... .......... .......... 21%  123K 2m11s
  4300K .......... .......... .......... .......... .......... 21%  127K 2m10s
  4350K .......... .......... .......... .......... .......... 22%  128K 2m10s
  4400K .......... .......... .......... .......... .......... 22%  116K 2m9s
  4450K .......... .......... .......... .......... .......... 22%  113K 2m9s
  4500K .......... .......... .......... .......... .......... 22%  113K 2m9s
  4550K .......... .......... .......... .......... .......... 23%  116K 2m8s
  4600K .......... .......... .......... .......... .......... 23%  125K 2m8s
  4650K .......... .......... .......... .......... .......... 23%  145K 2m7s
  4700K .......... .......... .......... .......... .......... 23%  169K 2m6s
  4750K .......... .......... .......... .......... .......... 24%  203K 2m6s
  4800K .......... .......... .......... .......... .......... 24%  113K 2m5s
  4850K .......... .......... .......... .......... .......... 24%  113K 2m5s
  4900K .......... .......... .......... .......... .......... 24%  151K 2m4s
  4950K .......... .......... .......... .......... .......... 25%  197K 2m3s
  5000K .......... .......... .......... .......... .......... 25%  170K 2m3s
  5050K .......... .......... .......... .......... .......... 25%  202K 2m2s
  5100K .......... .......... .......... .......... .......... 25%  146K 2m1s
  5150K .......... .......... .......... .......... .......... 26%  145K 2m0s
  5200K .......... .......... .......... .......... .......... 26%  113K 2m0s
  5250K .......... .......... .......... .......... .......... 26%  127K 2m0s
  5300K .......... .......... .......... .......... .......... 26%  168K 1m59s
  5350K .......... .......... .......... .......... .......... 27%  128K 1m59s
  5400K .......... .......... .......... .......... .......... 27%  113K 1m58s
  5450K .......... .......... .......... .......... .......... 27%  169K 1m58s
  5500K .......... .......... .......... .......... .......... 27%  113K 1m57s
  5550K .......... .......... .......... .......... .......... 28%  113K 1m57s
  5600K .......... .......... .......... .......... .......... 28%  113K 1m57s
  5650K .......... .......... .......... .......... .......... 28%  146K 1m56s
  5700K .......... .......... .......... .......... .......... 28%  214K 1m55s
  5750K .......... .......... .......... .......... .......... 29%  316K 1m54s
  5800K .......... .......... .......... .......... .......... 29%  149K 1m54s
  5850K .......... .......... .......... .......... .......... 29%  102K 1m53s
  5900K .......... .......... .......... .......... .......... 29%  127K 1m53s
  5950K .......... .......... .......... .......... .......... 30% 59.6K 1m54s
  6000K .......... .......... .......... .......... .......... 30%  102K 1m53s
  6050K .......... .......... .......... .......... .......... 30%  146K 1m53s
  6100K .......... .......... .......... .......... .......... 30%  145K 1m52s
  6150K .......... .......... .......... .......... .......... 31%  102K 1m52s
  6200K .......... .......... .......... .......... .......... 31% 72.7K 1m52s
  6250K .......... .......... .......... .......... .......... 31%  130K 1m52s
  6300K .......... .......... .......... .......... .......... 31% 91.7K 1m52s
  6350K .......... .......... .......... .......... .......... 32%  102K 1m52s
  6400K .......... .......... .......... .......... .......... 32%  131K 1m51s
  6450K .......... .......... .......... .......... .......... 32%  116K 1m51s
  6500K .......... .......... .......... .......... .......... 32% 83.5K 1m51s
  6550K .......... .......... .......... .......... .......... 33%  113K 1m50s
  6600K .......... .......... .......... .......... .......... 33% 92.6K 1m50s
  6650K .......... .......... .......... .......... .......... 33%  145K 1m50s
  6700K .......... .......... .......... .......... .......... 33%  169K 1m49s
  6750K .......... .......... .......... .......... .......... 34%  204K 1m48s
  6800K .......... .......... .......... .......... .......... 34%  174K 1m48s
  6850K .......... .......... .......... .......... .......... 34%  170K 1m47s
  6900K .......... .......... .......... .......... .......... 34%  204K 1m46s
  6950K .......... .......... .......... .......... .......... 35%  149K 1m46s
  7000K .......... .......... .......... .......... .......... 35%  127K 1m45s
  7050K .......... .......... .......... .......... .......... 35% 53.4K 1m46s
  7100K .......... .......... .......... .......... .......... 35%  113K 1m46s
  7150K .......... .......... .......... .......... .......... 36%  174K 1m45s
  7200K .......... .......... .......... .......... .......... 36%  192K 1m44s
  7250K .......... .......... .......... .......... .......... 36%  204K 1m44s
  7300K .......... .......... .......... .......... .......... 36%  169K 1m43s
  7350K .......... .......... .......... .......... .......... 37%  105K 1m43s
  7400K .......... .......... .......... .......... .......... 37% 92.9K 1m42s
  7450K .......... .......... .......... .......... .......... 37%  113K 1m42s
  7500K .......... .......... .......... .......... .......... 37% 37.2K 1m43s
  7550K .......... .......... .......... .......... .......... 38% 85.0K 1m43s
  7600K .......... .......... .......... .......... .......... 38%  104K 1m43s
  7650K .......... .......... .......... .......... .......... 38%  113K 1m42s
  7700K .......... .......... .......... .......... .......... 38%  131K 1m42s
  7750K .......... .......... .......... .......... .......... 39%  203K 1m41s
  7800K .......... .......... .......... .......... .......... 39%  125K 1m41s
  7850K .......... .......... .......... .......... .......... 39%  127K 1m40s
  7900K .......... .......... .......... .......... .......... 39%  113K 1m40s
  7950K .......... .......... .......... .......... .......... 40%  130K 1m40s
  8000K .......... .......... .......... .......... .......... 40% 86.6K 99s
  8050K .......... .......... .......... .......... .......... 40%  113K 99s
  8100K .......... .......... .......... .......... .......... 40%  170K 98s
  8150K .......... .......... .......... .......... .......... 41%  203K 98s
  8200K .......... .......... .......... .......... .......... 41%  113K 97s
  8250K .......... .......... .......... .......... .......... 41%  104K 97s
  8300K .......... .......... .......... .......... .......... 41%  145K 97s
  8350K .......... .......... .......... .......... .......... 42%  147K 96s
  8400K .......... .......... .......... .......... .......... 42%  170K 95s
  8450K .......... .......... .......... .......... .......... 42%  127K 95s
  8500K .......... .......... .......... .......... .......... 42% 92.6K 95s
  8550K .......... .......... .......... .......... .......... 43%  113K 94s
  8600K .......... .......... .......... .......... .......... 43%  113K 94s
  8650K .......... .......... .......... .......... .......... 43%  102K 94s
  8700K .......... .......... .......... .......... .......... 43% 79.7K 94s
  8750K .......... .......... .......... .......... .......... 44% 94.5K 93s
  8800K .......... .......... .......... .......... .......... 44% 63.3K 93s
  8850K .......... .......... .......... .......... .......... 44% 95.9K 93s
  8900K .......... .......... .......... .......... .......... 44% 92.7K 93s
  8950K .......... .......... .......... .......... .......... 45%  102K 92s
  9000K .......... .......... .......... .......... .......... 45%  104K 92s
  9050K .......... .......... .......... .......... .......... 45%  165K 92s
  9100K .......... .......... .......... .......... .......... 45% 92.4K 91s
  9150K .......... .......... .......... .......... .......... 46% 92.8K 91s
  9200K .......... .......... .......... .......... .......... 46%  113K 91s
  9250K .......... .......... .......... .......... .......... 46%  203K 90s
  9300K .......... .......... .......... .......... .......... 46%  168K 89s
  9350K .......... .......... .......... .......... .......... 47%  146K 89s
  9400K .......... .......... .......... .......... .......... 47%  145K 88s
  9450K .......... .......... .......... .......... .......... 47%  203K 88s
  9500K .......... .......... .......... .......... .......... 47%  253K 87s
  9550K .......... .......... .......... .......... .......... 48%  100K 87s
  9600K .......... .......... .......... .......... .......... 48% 92.6K 86s
  9650K .......... .......... .......... .......... .......... 48% 85.0K 86s
  9700K .......... .......... .......... .......... .......... 48%  113K 86s
  9750K .......... .......... .......... .......... .......... 49%  102K 86s
  9800K .......... .......... .......... .......... .......... 49%  127K 85s
  9850K .......... .......... .......... .......... .......... 49%  145K 85s
  9900K .......... .......... .......... .......... .......... 49% 83.8K 84s
  9950K .......... .......... .......... .......... .......... 50%  104K 84s
 10000K .......... .......... .......... .......... .......... 50% 38.9K 84s
 10050K .......... .......... .......... .......... .......... 50%  102K 84s
 10100K .......... .......... .......... .......... .......... 50%  127K 84s
 10150K .......... .......... .......... .......... .......... 51%  203K 83s
 10200K .......... .......... .......... .......... .......... 51%  203K 82s
 10250K .......... .......... .......... .......... .......... 51%  146K 82s
 10300K .......... .......... .......... .......... .......... 51%  145K 81s
 10350K .......... .......... .......... .......... .......... 52%  113K 81s
 10400K .......... .......... .......... .......... .......... 52% 94.7K 81s
 10450K .......... .......... .......... .......... .......... 52%  145K 80s
 10500K .......... .......... .......... .......... .......... 52%  143K 80s
 10550K .......... .......... .......... .......... .......... 53%  113K 79s
 10600K .......... .......... .......... .......... .......... 53% 92.5K 79s
 10650K .......... .......... .......... .......... .......... 53%  145K 78s
 10700K .......... .......... .......... .......... .......... 53%  146K 78s
 10750K .......... .......... .......... .......... .......... 54%  203K 77s
 10800K .......... .......... .......... .......... .......... 54% 92.4K 77s
 10850K .......... .......... .......... .......... .......... 54%  128K 77s
 10900K .......... .......... .......... .......... .......... 54%  202K 76s
 10950K .......... .......... .......... .......... .......... 55%  113K 76s
 11000K .......... .......... .......... .......... .......... 55%  127K 75s
 11050K .......... .......... .......... .......... .......... 55% 85.1K 75s
 11100K .......... .......... .......... .......... .......... 55%  105K 75s
 11150K .......... .......... .......... .......... .......... 56%  113K 74s
 11200K .......... .......... .......... .......... .......... 56% 85.0K 74s
 11250K .......... .......... .......... .......... .......... 56%  131K 73s
 11300K .......... .......... .......... .......... .......... 56%  242K 73s
 11350K .......... .......... .......... .......... .......... 57%  213K 72s
 11400K .......... .......... .......... .......... .......... 57%  203K 72s
 11450K .......... .......... .......... .......... .......... 57%  146K 71s
 11500K .......... .......... .......... .......... .......... 57%  127K 71s
 11550K .......... .......... .......... .......... .......... 58%  102K 70s
 11600K .......... .......... .......... .......... .......... 58%  113K 70s
 11650K .......... .......... .......... .......... .......... 58% 92.6K 70s
 11700K .......... .......... .......... .......... .......... 58% 86.1K 69s
 11750K .......... .......... .......... .......... .......... 59% 72.9K 69s
 11800K .......... .......... .......... .......... .......... 59% 72.7K 69s
 11850K .......... .......... .......... .......... .......... 59%  145K 68s
 11900K .......... .......... .......... .......... .......... 59%  170K 68s
 11950K .......... .......... .......... .......... .......... 60%  131K 68s
 12000K .......... .......... .......... .......... .......... 60%  146K 67s
 12050K .......... .......... .......... .......... .......... 60%  113K 67s
 12100K .......... .......... .......... .......... .......... 60%  113K 66s
 12150K .......... .......... .......... .......... .......... 61%  116K 66s
 12200K .......... .......... .......... .......... .......... 61% 94.4K 65s
 12250K .......... .......... .......... .......... .......... 61%  145K 65s
 12300K .......... .......... .......... .......... .......... 61%  145K 65s
 12350K .......... .......... .......... .......... .......... 62%  128K 64s
 12400K .......... .......... .......... .......... .......... 62%  127K 64s
 12450K .......... .......... .......... .......... .......... 62%  145K 63s
 12500K .......... .......... .......... .......... .......... 62%  169K 63s
 12550K .......... .......... .......... .......... .......... 63%  102K 62s
 12600K .......... .......... .......... .......... .......... 63%  116K 62s
 12650K .......... .......... .......... .......... .......... 63%  195K 61s
 12700K .......... .......... .......... .......... .......... 63%  201K 61s
 12750K .......... .......... .......... .......... .......... 64%  146K 60s
 12800K .......... .......... .......... .......... .......... 64%  113K 60s
 12850K .......... .......... .......... .......... .......... 64%  170K 59s
 12900K .......... .......... .......... .......... .......... 64%  151K 59s
 12950K .......... .......... .......... .......... .......... 65%  123K 59s
 13000K .......... .......... .......... .......... .......... 65%  102K 58s
 13050K .......... .......... .......... .......... .......... 65%  170K 58s
 13100K .......... .......... .......... .......... .......... 65%  146K 57s
 13150K .......... .......... .......... .......... .......... 66%  337K 57s
 13200K .......... .......... .......... .......... .......... 66%  145K 56s
 13250K .......... .......... .......... .......... .......... 66% 59.8K 56s
 13300K .......... .......... .......... .......... .......... 66%  102K 56s
 13350K .......... .......... .......... .......... .......... 67%  145K 55s
 13400K .......... .......... .......... .......... .......... 67%  145K 55s
 13450K .......... .......... .......... .......... .......... 67%  203K 54s
 13500K .......... .......... .......... .......... .......... 67%  126K 54s
 13550K .......... .......... .......... .......... .......... 68%  203K 53s
 13600K .......... .......... .......... .......... .......... 68%  146K 53s
 13650K .......... .......... .......... .......... .......... 68%  253K 52s
 13700K .......... .......... .......... .......... .......... 68%  253K 52s
 13750K .......... .......... .......... .......... .......... 69%  204K 51s
 13800K .......... .......... .......... .......... .......... 69%  169K 51s
 13850K .......... .......... .......... .......... .......... 69%  146K 50s
 13900K .......... .......... .......... .......... .......... 69%  202K 50s
 13950K .......... .......... .......... .......... .......... 70%  203K 49s
 14000K .......... .......... .......... .......... .......... 70%  145K 49s
 14050K .......... .......... .......... .......... .......... 70%  252K 49s
 14100K .......... .......... .......... .......... .......... 70%  170K 48s
 14150K .......... .......... .......... .......... .......... 71%  127K 48s
 14200K .......... .......... .......... .......... .......... 71%  113K 47s
 14250K .......... .......... .......... .......... .......... 71%  113K 47s
 14300K .......... .......... .......... .......... .......... 71%  177K 46s
 14350K .......... .......... .......... .......... .......... 72%  145K 46s
 14400K .......... .......... .......... .......... .......... 72%  102K 46s
 14450K .......... .......... .......... .......... .......... 72% 92.5K 45s
 14500K .......... .......... .......... .......... .......... 72%  113K 45s
 14550K .......... .......... .......... .......... .......... 73%  127K 44s
 14600K .......... .......... .......... .......... .......... 73%  127K 44s
 14650K .......... .......... .......... .......... .......... 73%  169K 44s
 14700K .......... .......... .......... .......... .......... 73%  128K 43s
 14750K .......... .......... .......... .......... .......... 74%  145K 43s
 14800K .......... .......... .......... .......... .......... 74%  102K 42s
 14850K .......... .......... .......... .......... .......... 74%  113K 42s
 14900K .......... .......... .......... .......... .......... 74%  170K 41s
 14950K .......... .......... .......... .......... .......... 75%  145K 41s
 15000K .......... .......... .......... .......... .......... 75%  145K 41s
 15050K .......... .......... .......... .......... .......... 75%  145K 40s
 15100K .......... .......... .......... .......... .......... 75%  128K 40s
 15150K .......... .......... .......... .......... .......... 76%  102K 39s
 15200K .......... .......... .......... .......... .......... 76% 92.4K 39s
 15250K .......... .......... .......... .......... .......... 76%  128K 39s
 15300K .......... .......... .......... .......... .......... 76%  212K 38s
 15350K .......... .......... .......... .......... .......... 77%  163K 38s
 15400K .......... .......... .......... .......... .......... 77%  202K 37s
 15450K .......... .......... .......... .......... .......... 77%  146K 37s
 15500K .......... .......... .......... .......... .......... 77%  113K 36s
 15550K .......... .......... .......... .......... .......... 78%  127K 36s
 15600K .......... .......... .......... .......... .......... 78% 77.7K 36s
 15650K .......... .......... .......... .......... .......... 78%  146K 35s
 15700K .......... .......... .......... .......... .......... 78%  127K 35s
 15750K .......... .......... .......... .......... .......... 79%  171K 34s
 15800K .......... .......... .......... .......... .......... 79%  146K 34s
 15850K .......... .......... .......... .......... .......... 79%  177K 33s
 15900K .......... .......... .......... .......... .......... 79%  127K 33s
 15950K .......... .......... .......... .......... .......... 80%  141K 33s
 16000K .......... .......... .......... .......... .......... 80%  145K 32s
 16050K .......... .......... .......... .......... .......... 80%  104K 32s
 16100K .......... .......... .......... .......... .......... 80%  131K 31s
 16150K .......... .......... .......... .......... .......... 81%  171K 31s
 16200K .......... .......... .......... .......... .......... 81%  244K 31s
 16250K .......... .......... .......... .......... .......... 81%  268K 30s
 16300K .......... .......... .......... .......... .......... 81%  255K 30s
 16350K .......... .......... .......... .......... .......... 82%  242K 29s
 16400K .......... .......... .......... .......... .......... 82%  204K 29s
 16450K .......... .......... .......... .......... .......... 82%  204K 28s
 16500K .......... .......... .......... .......... .......... 82%  339K 28s
 16550K .......... .......... .......... .......... .......... 83%  497K 27s
 16600K .......... .......... .......... .......... .......... 83%  254K 27s
 16650K .......... .......... .......... .......... .......... 83%  339K 26s
 16700K .......... .......... .......... .......... .......... 83%  241K 26s
 16750K .......... .......... .......... .......... .......... 84%  502K 26s
 16800K .......... .......... .......... .......... .......... 84%  170K 25s
 16850K .......... .......... .......... .......... .......... 84%  254K 25s
 16900K .......... .......... .......... .......... .......... 84%  127K 24s
 16950K .......... .......... .......... .......... .......... 85%  102K 24s
 17000K .......... .......... .......... .......... .......... 85%  113K 24s
 17050K .......... .......... .......... .......... .......... 85%  151K 23s
 17100K .......... .......... .......... .......... .......... 85%  163K 23s
 17150K .......... .......... .......... .......... .......... 86%  112K 22s
 17200K .......... .......... .......... .......... .......... 86%  169K 22s
 17250K .......... .......... .......... .......... .......... 86%  168K 21s
 17300K .......... .......... .......... .......... .......... 86%  146K 21s
 17350K .......... .......... .......... .......... .......... 87%  170K 21s
 17400K .......... .......... .......... .......... .......... 87%  170K 20s
 17450K .......... .......... .......... .......... .......... 87%  169K 20s
 17500K .......... .......... .......... .......... .......... 87%  145K 19s
 17550K .......... .......... .......... .......... .......... 88%  127K 19s
 17600K .......... .......... .......... .......... .......... 88%  113K 19s
 17650K .......... .......... .......... .......... .......... 88%  169K 18s
 17700K .......... .......... .......... .......... .......... 88%  254K 18s
 17750K .......... .......... .......... .......... .......... 89%  251K 17s
 17800K .......... .......... .......... .......... .......... 89%  204K 17s
 17850K .......... .......... .......... .......... .......... 89%  145K 17s
 17900K .......... .......... .......... .......... .......... 89%  146K 16s
 17950K .......... .......... .......... .......... .......... 90%  169K 16s
 18000K .......... .......... .......... .......... .......... 90%  145K 15s
 18050K .......... .......... .......... .......... .......... 90%  170K 15s
 18100K .......... .......... .......... .......... .......... 90%  203K 15s
 18150K .......... .......... .......... .......... .......... 91%  244K 14s
 18200K .......... .......... .......... .......... .......... 91%  204K 14s
 18250K .......... .......... .......... .......... .......... 91%  255K 13s
 18300K .......... .......... .......... .......... .......... 91%  254K 13s
 18350K .......... .......... .......... .......... .......... 92%  168K 13s
 18400K .......... .......... .......... .......... .......... 92% 78.5K 12s
 18450K .......... .......... .......... .......... .......... 92%  116K 12s
 18500K .......... .......... .......... .......... .......... 92% 78.6K 11s
 18550K .......... .......... .......... .......... .......... 93%  144K 11s
 18600K .......... .......... .......... .......... .......... 93%  113K 11s
 18650K .......... .......... .......... .......... .......... 93%  113K 10s
 18700K .......... .......... .......... .......... .......... 93%  205K 10s
 18750K .......... .......... .......... .......... .......... 94%  127K 9s
 18800K .......... .......... .......... .......... .......... 94%  102K 9s
 18850K .......... .......... .......... .......... .......... 94%  145K 9s
 18900K .......... .......... .......... .......... .......... 94%  146K 8s
 18950K .......... .......... .......... .......... .......... 95%  129K 8s
 19000K .......... .......... .......... .......... .......... 95%  113K 7s
 19050K .......... .......... .......... .......... .......... 95%  170K 7s
 19100K .......... .......... .......... .......... .......... 95%  127K 7s
 19150K .......... .......... .......... .......... .......... 96%  127K 6s
 19200K .......... .......... .......... .......... .......... 96%  127K 6s
 19250K .......... .......... .......... .......... .......... 96%  253K 5s
 19300K .......... .......... .......... .......... .......... 96%  255K 5s
 19350K .......... .......... .......... .......... .......... 97%  252K 5s
 19400K .......... .......... .......... .......... .......... 97%  145K 4s
 19450K .......... .......... .......... .......... .......... 97%  113K 4s
 19500K .......... .......... .......... .......... .......... 97%  146K 4s
 19550K .......... .......... .......... .......... .......... 98%  113K 3s
 19600K .......... .......... .......... .......... .......... 98%  127K 3s
 19650K .......... .......... .......... .......... .......... 98%  145K 2s
 19700K .......... .......... .......... .......... .......... 98%  102K 2s
 19750K .......... .......... .......... .......... .......... 99% 77.4K 2s
 19800K .......... .......... .......... .......... .......... 99%  102K 1s
 19850K .......... .......... .......... .......... .......... 99% 92.7K 1s
 19900K .......... .......... .......... .......... .......... 99% 92.4K 0s
 19950K .......... .......... .......... .......... ..........100%  113K 0s
 20000K                                                       100% 0.00 =2m37s

2020-07-26 18:52:56 (127 KB/s) - ‘random.1’ saved [20480000/20480000]


real	2m37.762s
user	0m2.528s
sys	0m1.145s
