--2020-07-27 10:34:25--  https://10.1.0.1/random
Connecting to 10.1.0.1:443... connected.
WARNING: cannot verify 10.1.0.1's certificate, issued by ‘/C=BE/ST=LLN/O=Internet Widgits Pty Ltd’:
  Self-signed certificate encountered.
    WARNING: certificate common name ‘’ doesn't match requested host name ‘10.1.0.1’.
HTTP request sent, awaiting response... 200 OK
Length: 20480000 (20M) [application/octet-stream]
Saving to: ‘random.1’

     0K .......... .......... .......... .......... ..........  0%  203K 98s
    50K .......... .......... .......... .......... ..........  0%  252K 89s
   100K .......... .......... .......... .......... ..........  0%  204K 91s
   150K .......... .......... .......... .......... ..........  1%  170K 97s
   200K .......... .......... .......... .......... ..........  1%  169K 1m41s
   250K .......... .......... .......... .......... ..........  1%  170K 1m43s
   300K .......... .......... .......... .......... ..........  1%  145K 1m48s
   350K .......... .......... .......... .......... ..........  2%  204K 1m46s
   400K .......... .......... .......... .......... ..........  2%  169K 1m47s
   450K .......... .......... .......... .......... ..........  2%  338K 1m42s
   500K .......... .......... .......... .......... ..........  2%  203K 1m41s
   550K .......... .......... .......... .......... ..........  3%  172K 1m42s
   600K .......... .......... .......... .......... ..........  3%  128K 1m45s
   650K .......... .......... .......... .......... ..........  3%  203K 1m44s
   700K .......... .......... .......... .......... ..........  3%  203K 1m43s
   750K .......... .......... .......... .......... ..........  4%  203K 1m43s
   800K .......... .......... .......... .......... ..........  4%  204K 1m42s
   850K .......... .......... .......... .......... ..........  4%  337K 99s
   900K .......... .......... .......... .......... ..........  4%  171K 1m40s
   950K .......... .......... .......... .......... ..........  5%  104K 1m43s
  1000K .......... .......... .......... .......... ..........  5%  146K 1m44s
  1050K .......... .......... .......... .......... ..........  5%  127K 1m46s
  1100K .......... .......... .......... .......... ..........  5%  127K 1m48s
  1150K .......... .......... .......... .......... ..........  6%  170K 1m48s
  1200K .......... .......... .......... .......... ..........  6%  204K 1m47s
  1250K .......... .......... .......... .......... ..........  6%  169K 1m47s
  1300K .......... .......... .......... .......... ..........  6%  145K 1m47s
  1350K .......... .......... .......... .......... ..........  7%  102K 1m50s
  1400K .......... .......... .......... .......... ..........  7% 78.5K 1m54s
  1450K .......... .......... .......... .......... ..........  7% 84.9K 1m57s
  1500K .......... .......... .......... .......... ..........  7% 92.6K 1m59s
  1550K .......... .......... .......... .......... ..........  8%  113K 2m0s
  1600K .......... .......... .......... .......... ..........  8%  113K 2m1s
  1650K .......... .......... .......... .......... ..........  8%  170K 2m0s
  1700K .......... .......... .......... .......... ..........  8%  170K 2m0s
  1750K .......... .......... .......... .......... ..........  9%  203K 1m59s
  1800K .......... .......... .......... .......... ..........  9%  145K 1m58s
  1850K .......... .......... .......... .......... ..........  9%  255K 1m57s
  1900K .......... .......... .......... .......... ..........  9%  169K 1m56s
  1950K .......... .......... .......... .......... .......... 10%  128K 1m57s
  2000K .......... .......... .......... .......... .......... 10%  104K 1m58s
  2050K .......... .......... .......... .......... .......... 10%  113K 1m58s
  2100K .......... .......... .......... .......... .......... 10%  145K 1m58s
  2150K .......... .......... .......... .......... .......... 11%  145K 1m58s
  2200K .......... .......... .......... .......... .......... 11%  203K 1m57s
  2250K .......... .......... .......... .......... .......... 11%  170K 1m56s
  2300K .......... .......... .......... .......... .......... 11%  169K 1m56s
  2350K .......... .......... .......... .......... .......... 12%  145K 1m56s
  2400K .......... .......... .......... .......... .......... 12% 56.6K 1m59s
  2450K .......... .......... .......... .......... .......... 12% 92.6K 2m0s
  2500K .......... .......... .......... .......... .......... 12% 85.1K 2m2s
  2550K .......... .......... .......... .......... .......... 13%  202K 2m1s
  2600K .......... .......... .......... .......... .......... 13%  203K 2m0s
  2650K .......... .......... .......... .......... .......... 13%  252K 1m58s
  2700K .......... .......... .......... .......... .......... 13%  146K 1m58s
  2750K .......... .......... .......... .......... .......... 14%  203K 1m57s
  2800K .......... .......... .......... .......... .......... 14%  150K 1m57s
  2850K .......... .......... .......... .......... .......... 14%  141K 1m56s
  2900K .......... .......... .......... .......... .......... 14%  102K 1m57s
  2950K .......... .......... .......... .......... .......... 15%  113K 1m57s
  3000K .......... .......... .......... .......... .......... 15% 86.3K 1m58s
  3050K .......... .......... .......... .......... .......... 15%  169K 1m57s
  3100K .......... .......... .......... .......... .......... 15%  145K 1m57s
  3150K .......... .......... .......... .......... .......... 16%  170K 1m56s
  3200K .......... .......... .......... .......... .......... 16%  127K 1m56s
  3250K .......... .......... .......... .......... .......... 16%  127K 1m56s
  3300K .......... .......... .......... .......... .......... 16%  204K 1m55s
  3350K .......... .......... .......... .......... .......... 17%  202K 1m55s
  3400K .......... .......... .......... .......... .......... 17%  203K 1m54s
  3450K .......... .......... .......... .......... .......... 17%  169K 1m53s
  3500K .......... .......... .......... .......... .......... 17%  170K 1m53s
  3550K .......... .......... .......... .......... .......... 18%  113K 1m53s
  3600K .......... .......... .......... .......... .......... 18%  145K 1m52s
  3650K .......... .......... .......... .......... .......... 18%  113K 1m52s
  3700K .......... .......... .......... .......... .......... 18%  132K 1m52s
  3750K .......... .......... .......... .......... .......... 19% 72.9K 1m53s
  3800K .......... .......... .......... .......... .......... 19% 78.4K 1m54s
  3850K .......... .......... .......... .......... .......... 19% 56.7K 1m56s
  3900K .......... .......... .......... .......... .......... 19% 78.2K 1m57s
  3950K .......... .......... .......... .......... .......... 20%  203K 1m56s
  4000K .......... .......... .......... .......... .......... 20%  176K 1m55s
  4050K .......... .......... .......... .......... .......... 20%  318K 1m54s
  4100K .......... .......... .......... .......... .......... 20%  209K 1m53s
  4150K .......... .......... .......... .......... .......... 21%  337K 1m52s
  4200K .......... .......... .......... .......... .......... 21%  145K 1m52s
  4250K .......... .......... .......... .......... .......... 21%  113K 1m52s
  4300K .......... .......... .......... .......... .......... 21%  145K 1m51s
  4350K .......... .......... .......... .......... .......... 22%  145K 1m51s
  4400K .......... .......... .......... .......... .......... 22%  146K 1m51s
  4450K .......... .......... .......... .......... .......... 22%  127K 1m50s
  4500K .......... .......... .......... .......... .......... 22%  127K 1m50s
  4550K .......... .......... .......... .......... .......... 23%  104K 1m50s
  4600K .......... .......... .......... .......... .......... 23%  110K 1m50s
  4650K .......... .......... .......... .......... .......... 23%  127K 1m50s
  4700K .......... .......... .......... .......... .......... 23%  145K 1m49s
  4750K .......... .......... .......... .......... .......... 24% 93.0K 1m50s
  4800K .......... .......... .......... .......... .......... 24%  170K 1m49s
  4850K .......... .......... .......... .......... .......... 24%  202K 1m48s
  4900K .......... .......... .......... .......... .......... 24%  169K 1m48s
  4950K .......... .......... .......... .......... .......... 25%  204K 1m47s
  5000K .......... .......... .......... .......... .......... 25%  141K 1m47s
  5050K .......... .......... .......... .......... .......... 25% 92.9K 1m47s
  5100K .......... .......... .......... .......... .......... 25%  104K 1m47s
  5150K .......... .......... .......... .......... .......... 26% 78.5K 1m47s
  5200K .......... .......... .......... .......... .......... 26% 94.5K 1m47s
  5250K .......... .......... .......... .......... .......... 26% 78.2K 1m48s
  5300K .......... .......... .......... .......... .......... 26%  101K 1m48s
  5350K .......... .......... .......... .......... .......... 27%  104K 1m48s
  5400K .......... .......... .......... .......... .......... 27%  115K 1m48s
  5450K .......... .......... .......... .......... .......... 27%  125K 1m47s
  5500K .......... .......... .......... .......... .......... 27% 78.4K 1m48s
  5550K .......... .......... .......... .......... .......... 28% 63.7K 1m48s
  5600K .......... .......... .......... .......... .......... 28%  113K 1m48s
  5650K .......... .......... .......... .......... .......... 28%  146K 1m48s
  5700K .......... .......... .......... .......... .......... 28%  253K 1m47s
  5750K .......... .......... .......... .......... .......... 29%  253K 1m46s
  5800K .......... .......... .......... .......... .......... 29%  169K 1m45s
  5850K .......... .......... .......... .......... .......... 29% 78.4K 1m46s
  5900K .......... .......... .......... .......... .......... 29% 94.9K 1m46s
  5950K .......... .......... .......... .......... .......... 30% 65.4K 1m46s
  6000K .......... .......... .......... .......... .......... 30%  145K 1m46s
  6050K .......... .......... .......... .......... .......... 30%  201K 1m45s
  6100K .......... .......... .......... .......... .......... 30%  257K 1m44s
  6150K .......... .......... .......... .......... .......... 31%  242K 1m44s
  6200K .......... .......... .......... .......... .......... 31%  170K 1m43s
  6250K .......... .......... .......... .......... .......... 31%  203K 1m42s
  6300K .......... .......... .......... .......... .......... 31%  146K 1m42s
  6350K .......... .......... .......... .......... .......... 32%  102K 1m42s
  6400K .......... .......... .......... .......... .......... 32% 68.0K 1m42s
  6450K .......... .......... .......... .......... .......... 32%  104K 1m42s
  6500K .......... .......... .......... .......... .......... 32%  146K 1m42s
  6550K .......... .......... .......... .......... .......... 33%  127K 1m41s
  6600K .......... .......... .......... .......... .......... 33%  203K 1m41s
  6650K .......... .......... .......... .......... .......... 33%  127K 1m40s
  6700K .......... .......... .......... .......... .......... 33% 79.9K 1m40s
  6750K .......... .......... .......... .......... .......... 34%  114K 1m40s
  6800K .......... .......... .......... .......... .......... 34% 92.5K 1m40s
  6850K .......... .......... .......... .......... .......... 34%  102K 1m40s
  6900K .......... .......... .......... .......... .......... 34% 68.0K 1m40s
  6950K .......... .......... .......... .......... .......... 35% 92.7K 1m40s
  7000K .......... .......... .......... .......... .......... 35%  105K 1m40s
  7050K .......... .......... .......... .......... .......... 35%  113K 1m40s
  7100K .......... .......... .......... .......... .......... 35%  127K 99s
  7150K .......... .......... .......... .......... .......... 36%  104K 99s
  7200K .......... .......... .......... .......... .......... 36% 71.9K 99s
  7250K .......... .......... .......... .......... .......... 36%  203K 98s
  7300K .......... .......... .......... .......... .......... 36%  169K 98s
  7350K .......... .......... .......... .......... .......... 37% 92.8K 98s
  7400K .......... .......... .......... .......... .......... 37% 67.9K 98s
  7450K .......... .......... .......... .......... .......... 37% 92.8K 98s
  7500K .......... .......... .......... .......... .......... 37%  116K 98s
  7550K .......... .......... .......... .......... .......... 38%  146K 97s
  7600K .......... .......... .......... .......... .......... 38%  102K 97s
  7650K .......... .......... .......... .......... .......... 38%  169K 96s
  7700K .......... .......... .......... .......... .......... 38%  146K 96s
  7750K .......... .......... .......... .......... .......... 39%  113K 95s
  7800K .......... .......... .......... .......... .......... 39% 92.7K 95s
  7850K .......... .......... .......... .......... .......... 39%  102K 95s
  7900K .......... .......... .......... .......... .......... 39%  127K 95s
  7950K .......... .......... .......... .......... .......... 40%  113K 94s
  8000K .......... .......... .......... .......... .......... 40% 63.5K 95s
  8050K .......... .......... .......... .......... .......... 40%  102K 94s
  8100K .......... .......... .......... .......... .......... 40% 99.5K 94s
  8150K .......... .......... .......... .......... .......... 41% 86.9K 94s
  8200K .......... .......... .......... .......... .......... 41%  123K 94s
  8250K .......... .......... .......... .......... .......... 41% 72.6K 94s
  8300K .......... .......... .......... .......... .......... 41%  117K 93s
  8350K .......... .......... .......... .......... .......... 42%  141K 93s
  8400K .......... .......... .......... .......... .......... 42%  113K 92s
  8450K .......... .......... .......... .......... .......... 42% 67.3K 92s
  8500K .......... .......... .......... .......... .......... 42%  105K 92s
  8550K .......... .......... .......... .......... .......... 43%  128K 92s
  8600K .......... .......... .......... .......... .......... 43%  145K 91s
  8650K .......... .......... .......... .......... .......... 43% 92.7K 91s
  8700K .......... .......... .......... .......... .......... 43%  146K 91s
  8750K .......... .......... .......... .......... .......... 44%  151K 90s
  8800K .......... .......... .......... .......... .......... 44%  123K 90s
  8850K .......... .......... .......... .......... .......... 44%  204K 89s
  8900K .......... .......... .......... .......... .......... 44%  204K 88s
  8950K .......... .......... .......... .......... .......... 45%  204K 88s
  9000K .......... .......... .......... .......... .......... 45%  169K 87s
  9050K .......... .......... .......... .......... .......... 45%  203K 87s
  9100K .......... .......... .......... .......... .......... 45%  252K 86s
  9150K .......... .......... .......... .......... .......... 46%  102K 86s
  9200K .......... .......... .......... .......... .......... 46% 86.5K 86s
  9250K .......... .......... .......... .......... .......... 46%  164K 85s
  9300K .......... .......... .......... .......... .......... 46%  169K 85s
  9350K .......... .......... .......... .......... .......... 47%  204K 84s
  9400K .......... .......... .......... .......... .......... 47%  201K 84s
  9450K .......... .......... .......... .......... .......... 47%  204K 83s
  9500K .......... .......... .......... .......... .......... 47%  169K 82s
  9550K .......... .......... .......... .......... .......... 48%  131K 82s
  9600K .......... .......... .......... .......... .......... 48%  170K 82s
  9650K .......... .......... .......... .......... .......... 48%  203K 81s
  9700K .......... .......... .......... .......... .......... 48%  170K 80s
  9750K .......... .......... .......... .......... .......... 49% 92.9K 80s
  9800K .......... .......... .......... .......... .......... 49%  113K 80s
  9850K .......... .......... .......... .......... .......... 49%  177K 79s
  9900K .......... .......... .......... .......... .......... 49%  203K 79s
  9950K .......... .......... .......... .......... .......... 50%  146K 78s
 10000K .......... .......... .......... .......... .......... 50%  113K 78s
 10050K .......... .......... .......... .......... .......... 50%  203K 78s
 10100K .......... .......... .......... .......... .......... 50%  203K 77s
 10150K .......... .......... .......... .......... .......... 51%  335K 76s
 10200K .......... .......... .......... .......... .......... 51%  253K 76s
 10250K .......... .......... .......... .......... .......... 51%  253K 75s
 10300K .......... .......... .......... .......... .......... 51%  102K 75s
 10350K .......... .......... .......... .......... .......... 52%  113K 75s
 10400K .......... .......... .......... .......... .......... 52% 92.6K 74s
 10450K .......... .......... .......... .......... .......... 52%  131K 74s
 10500K .......... .......... .......... .......... .......... 52%  131K 74s
 10550K .......... .......... .......... .......... .......... 53%  170K 73s
 10600K .......... .......... .......... .......... .......... 53% 91.2K 73s
 10650K .......... .......... .......... .......... .......... 53%  127K 72s
 10700K .......... .......... .......... .......... .......... 53%  146K 72s
 10750K .......... .......... .......... .......... .......... 54%  204K 72s
 10800K .......... .......... .......... .......... .......... 54%  203K 71s
 10850K .......... .......... .......... .......... .......... 54%  131K 71s
 10900K .......... .......... .......... .......... .......... 54% 59.9K 71s
 10950K .......... .......... .......... .......... .......... 55%  105K 70s
 11000K .......... .......... .......... .......... .......... 55%  163K 70s
 11050K .......... .......... .......... .......... .......... 55%  203K 69s
 11100K .......... .......... .......... .......... .......... 55%  127K 69s
 11150K .......... .......... .......... .......... .......... 56%  125K 69s
 11200K .......... .......... .......... .......... .......... 56% 59.7K 69s
 11250K .......... .......... .......... .......... .......... 56% 94.2K 68s
 11300K .......... .......... .......... .......... .......... 56%  113K 68s
 11350K .......... .......... .......... .......... .......... 57% 78.3K 68s
 11400K .......... .......... .......... .......... .......... 57%  131K 67s
 11450K .......... .......... .......... .......... .......... 57%  163K 67s
 11500K .......... .......... .......... .......... .......... 57% 92.5K 67s
 11550K .......... .......... .......... .......... .......... 58% 92.8K 66s
 11600K .......... .......... .......... .......... .......... 58%  169K 66s
 11650K .......... .......... .......... .......... .......... 58%  128K 65s
 11700K .......... .......... .......... .......... .......... 58%  170K 65s
 11750K .......... .......... .......... .......... .......... 59%  146K 64s
 11800K .......... .......... .......... .......... .......... 59%  105K 64s
 11850K .......... .......... .......... .......... .......... 59%  127K 64s
 11900K .......... .......... .......... .......... .......... 59%  169K 63s
 11950K .......... .......... .......... .......... .......... 60%  145K 63s
 12000K .......... .......... .......... .......... .......... 60%  127K 62s
 12050K .......... .......... .......... .......... .......... 60%  170K 62s
 12100K .......... .......... .......... .......... .......... 60%  127K 62s
 12150K .......... .......... .......... .......... .......... 61%  130K 61s
 12200K .......... .......... .......... .......... .......... 61%  113K 61s
 12250K .......... .......... .......... .......... .......... 61%  201K 60s
 12300K .......... .......... .......... .......... .......... 61%  171K 60s
 12350K .......... .......... .......... .......... .......... 62%  127K 60s
 12400K .......... .......... .......... .......... .......... 62%  127K 59s
 12450K .......... .......... .......... .......... .......... 62% 21.9K 60s
 12500K .......... .......... .......... .......... .......... 62%  146K 59s
 12550K .......... .......... .......... .......... .......... 63%  169K 59s
 12600K .......... .......... .......... .......... .......... 63%  113K 59s
 12650K .......... .......... .......... .......... .......... 63% 73.0K 58s
 12700K .......... .......... .......... .......... .......... 63%  145K 58s
 12750K .......... .......... .......... .......... .......... 64%  145K 58s
 12800K .......... .......... .......... .......... .......... 64%  113K 57s
 12850K .......... .......... .......... .......... .......... 64%  102K 57s
 12900K .......... .......... .......... .......... .......... 64% 67.2K 57s
 12950K .......... .......... .......... .......... .......... 65%  116K 56s
 13000K .......... .......... .......... .......... .......... 65%  127K 56s
 13050K .......... .......... .......... .......... .......... 65%  203K 55s
 13100K .......... .......... .......... .......... .......... 65%  169K 55s
 13150K .......... .......... .......... .......... .......... 66%  170K 54s
 13200K .......... .......... .......... .......... .......... 66% 94.9K 54s
 13250K .......... .......... .......... .......... .......... 66%  113K 54s
 13300K .......... .......... .......... .......... .......... 66%  127K 53s
 13350K .......... .......... .......... .......... .......... 67%  151K 53s
 13400K .......... .......... .......... .......... .......... 67% 93.8K 53s
 13450K .......... .......... .......... .......... .......... 67%  143K 52s
 13500K .......... .......... .......... .......... .......... 67%  170K 52s
 13550K .......... .......... .......... .......... .......... 68%  253K 51s
 13600K .......... .......... .......... .......... .......... 68%  169K 51s
 13650K .......... .......... .......... .......... .......... 68%  113K 50s
 13700K .......... .......... .......... .......... .......... 68%  204K 50s
 13750K .......... .......... .......... .......... .......... 69%  254K 49s
 13800K .......... .......... .......... .......... .......... 69%  169K 49s
 13850K .......... .......... .......... .......... .......... 69%  202K 48s
 13900K .......... .......... .......... .......... .......... 69%  131K 48s
 13950K .......... .......... .......... .......... .......... 70%  147K 48s
 14000K .......... .......... .......... .......... .......... 70%  127K 47s
 14050K .......... .......... .......... .......... .......... 70%  146K 47s
 14100K .......... .......... .......... .......... .......... 70%  145K 46s
 14150K .......... .......... .......... .......... .......... 71% 92.8K 46s
 14200K .......... .......... .......... .......... .......... 71% 92.8K 46s
 14250K .......... .......... .......... .......... .......... 71%  169K 45s
 14300K .......... .......... .......... .......... .......... 71%  203K 45s
 14350K .......... .......... .......... .......... .......... 72%  251K 44s
 14400K .......... .......... .......... .......... .......... 72%  170K 44s
 14450K .......... .......... .......... .......... .......... 72%  171K 43s
 14500K .......... .......... .......... .......... .......... 72%  169K 43s
 14550K .......... .......... .......... .......... .......... 73% 84.8K 43s
 14600K .......... .......... .......... .......... .......... 73% 72.9K 42s
 14650K .......... .......... .......... .......... .......... 73%  169K 42s
 14700K .......... .......... .......... .......... .......... 73% 77.7K 42s
 14750K .......... .......... .......... .......... .......... 74%  104K 41s
 14800K .......... .......... .......... .......... .......... 74%  124K 41s
 14850K .......... .......... .......... .......... .......... 74%  170K 40s
 14900K .......... .......... .......... .......... .......... 74%  145K 40s
 14950K .......... .......... .......... .......... .......... 75% 94.5K 40s
 15000K .......... .......... .......... .......... .......... 75% 67.1K 39s
 15050K .......... .......... .......... .......... .......... 75% 44.0K 39s
 15100K .......... .......... .......... .......... .......... 75%  127K 39s
 15150K .......... .......... .......... .......... .......... 76%  131K 38s
 15200K .......... .......... .......... .......... .......... 76%  113K 38s
 15250K .......... .......... .......... .......... .......... 76%  102K 38s
 15300K .......... .......... .......... .......... .......... 76% 92.6K 37s
 15350K .......... .......... .......... .......... .......... 77% 79.7K 37s
 15400K .......... .......... .......... .......... .......... 77%  116K 37s
 15450K .......... .......... .......... .......... .......... 77%  164K 36s
 15500K .......... .......... .......... .......... .......... 77% 85.1K 36s
 15550K .......... .......... .......... .......... .......... 78% 94.3K 35s
 15600K .......... .......... .......... .......... .......... 78%  144K 35s
 15650K .......... .......... .......... .......... .......... 78%  127K 35s
 15700K .......... .......... .......... .......... .......... 78%  113K 34s
 15750K .......... .......... .......... .......... .......... 79%  146K 34s
 15800K .......... .......... .......... .......... .......... 79%  152K 33s
 15850K .......... .......... .......... .......... .......... 79%  127K 33s
 15900K .......... .......... .......... .......... .......... 79%  114K 33s
 15950K .......... .......... .......... .......... .......... 80%  170K 32s
 16000K .......... .......... .......... .......... .......... 80%  113K 32s
 16050K .......... .......... .......... .......... .......... 80%  151K 31s
 16100K .......... .......... .......... .......... .......... 80%  146K 31s
 16150K .......... .......... .......... .......... .......... 81%  168K 31s
 16200K .......... .......... .......... .......... .......... 81%  128K 30s
 16250K .......... .......... .......... .......... .......... 81%  254K 30s
 16300K .......... .......... .......... .......... .......... 81%  204K 29s
 16350K .......... .......... .......... .......... .......... 82%  169K 29s
 16400K .......... .......... .......... .......... .......... 82%  253K 28s
 16450K .......... .......... .......... .......... .......... 82%  145K 28s
 16500K .......... .......... .......... .......... .......... 82%  170K 28s
 16550K .......... .......... .......... .......... .......... 83%  203K 27s
 16600K .......... .......... .......... .......... .......... 83%  150K 27s
 16650K .......... .......... .......... .......... .......... 83%  170K 26s
 16700K .......... .......... .......... .......... .......... 83%  170K 26s
 16750K .......... .......... .......... .......... .......... 84% 67.1K 26s
 16800K .......... .......... .......... .......... .......... 84%  101K 25s
 16850K .......... .......... .......... .......... .......... 84%  127K 25s
 16900K .......... .......... .......... .......... .......... 84%  102K 24s
 16950K .......... .......... .......... .......... .......... 85%  102K 24s
 17000K .......... .......... .......... .......... .......... 85% 56.2K 24s
 17050K .......... .......... .......... .......... .......... 85% 63.8K 23s
 17100K .......... .......... .......... .......... .......... 85%  116K 23s
 17150K .......... .......... .......... .......... .......... 86%  140K 23s
 17200K .......... .......... .......... .......... .......... 86%  202K 22s
 17250K .......... .......... .......... .......... .......... 86%  145K 22s
 17300K .......... .......... .......... .......... .......... 86% 92.6K 21s
 17350K .......... .......... .......... .......... .......... 87%  102K 21s
 17400K .......... .......... .......... .......... .......... 87% 56.2K 21s
 17450K .......... .......... .......... .......... .......... 87%  132K 20s
 17500K .......... .......... .......... .......... .......... 87%  194K 20s
 17550K .......... .......... .......... .......... .......... 88%  169K 19s
 17600K .......... .......... .......... .......... .......... 88% 78.5K 19s
 17650K .......... .......... .......... .......... .......... 88%  113K 19s
 17700K .......... .......... .......... .......... .......... 88%  151K 18s
 17750K .......... .......... .......... .......... .......... 89%  255K 18s
 17800K .......... .......... .......... .......... .......... 89%  145K 17s
 17850K .......... .......... .......... .......... .......... 89% 79.7K 17s
 17900K .......... .......... .......... .......... .......... 89%  111K 17s
 17950K .......... .......... .......... .......... .......... 90%  105K 16s
 18000K .......... .......... .......... .......... .......... 90% 50.6K 16s
 18050K .......... .......... .......... .......... .......... 90%  116K 15s
 18100K .......... .......... .......... .......... .......... 90%  164K 15s
 18150K .......... .......... .......... .......... .......... 91%  145K 15s
 18200K .......... .......... .......... .......... .......... 91%  116K 14s
 18250K .......... .......... .......... .......... .......... 91%  124K 14s
 18300K .......... .......... .......... .......... .......... 91%  100K 13s
 18350K .......... .......... .......... .......... .......... 92%  113K 13s
 18400K .......... .......... .......... .......... .......... 92%  176K 13s
 18450K .......... .......... .......... .......... .......... 92%  202K 12s
 18500K .......... .......... .......... .......... .......... 92%  195K 12s
 18550K .......... .......... .......... .......... .......... 93%  204K 11s
 18600K .......... .......... .......... .......... .......... 93%  212K 11s
 18650K .......... .......... .......... .......... .......... 93%  338K 10s
 18700K .......... .......... .......... .......... .......... 93%  331K 10s
 18750K .......... .......... .......... .......... .......... 94%  170K 10s
 18800K .......... .......... .......... .......... .......... 94%  102K 9s
 18850K .......... .......... .......... .......... .......... 94% 72.8K 9s
 18900K .......... .......... .......... .......... .......... 94%  146K 8s
 18950K .......... .......... .......... .......... .......... 95%  203K 8s
 19000K .......... .......... .......... .......... .......... 95%  168K 8s
 19050K .......... .......... .......... .......... .......... 95%  146K 7s
 19100K .......... .......... .......... .......... .......... 95%  117K 7s
 19150K .......... .......... .......... .......... .......... 96%  145K 6s
 19200K .......... .......... .......... .......... .......... 96% 85.1K 6s
 19250K .......... .......... .......... .......... .......... 96%  113K 6s
 19300K .......... .......... .......... .......... .......... 96%  203K 5s
 19350K .......... .......... .......... .......... .......... 97%  127K 5s
 19400K .......... .......... .......... .......... .......... 97% 92.4K 4s
 19450K .......... .......... .......... .......... .......... 97% 84.8K 4s
 19500K .......... .......... .......... .......... .......... 97%  128K 4s
 19550K .......... .......... .......... .......... .......... 98%  127K 3s
 19600K .......... .......... .......... .......... .......... 98% 94.4K 3s
 19650K .......... .......... .......... .......... .......... 98%  202K 2s
 19700K .......... .......... .......... .......... .......... 98%  127K 2s
 19750K .......... .......... .......... .......... .......... 99%  127K 2s
 19800K .......... .......... .......... .......... .......... 99%  151K 1s
 19850K .......... .......... .......... .......... .......... 99%  194K 1s
 19900K .......... .......... .......... .......... .......... 99%  253K 0s
 19950K .......... .......... .......... .......... ..........100%  203K 0s
 20000K                                                       100% 0.00 =2m40s

2020-07-27 10:37:06 (125 KB/s) - ‘random.1’ saved [20480000/20480000]


real	2m40.645s
user	0m2.518s
sys	0m1.134s
