Serving new connection: 1bf4386385a3c54d, version 512 from 10.0.0.1:39459
GET 10.1.0.1:6121/ugfiugizuegiugzeffg
Responding with 404
Info for stream 5 of 1bf4386385a3c54d
Path 0: sent 16 retrans 2 lost 0; rcv 11 rtt 50.638ms
Serving new connection: 55696d3e94e47947, version 512 from 10.0.0.1:32782
GET 10.1.0.1:6121/random
Responding with 200
Closing connection 1bf4386385a3c54d
Info for stream 5 of 55696d3e94e47947
Path 0: sent 17074 retrans 817 lost 817; rcv 8588 rtt 50.046ms
