PING 10.1.0.1 (10.1.0.1) from 10.0.0.1 : 56(84) bytes of data.
64 bytes from 10.1.0.1: icmp_seq=1 ttl=63 time=111 ms
64 bytes from 10.1.0.1: icmp_seq=2 ttl=63 time=52.4 ms
64 bytes from 10.1.0.1: icmp_seq=3 ttl=63 time=49.4 ms
64 bytes from 10.1.0.1: icmp_seq=4 ttl=63 time=48.7 ms
64 bytes from 10.1.0.1: icmp_seq=5 ttl=63 time=48.6 ms

--- 10.1.0.1 ping statistics ---
5 packets transmitted, 5 received, 0% packet loss, time 4006ms
rtt min/avg/max/mdev = 48.672/62.088/111.131/24.560 ms
PING 10.1.0.1 (10.1.0.1) from 10.0.1.1 : 56(84) bytes of data.
64 bytes from 10.1.0.1: icmp_seq=1 ttl=63 time=218 ms
64 bytes from 10.1.0.1: icmp_seq=2 ttl=63 time=85.7 ms
64 bytes from 10.1.0.1: icmp_seq=3 ttl=63 time=83.1 ms
64 bytes from 10.1.0.1: icmp_seq=4 ttl=63 time=83.0 ms
64 bytes from 10.1.0.1: icmp_seq=5 ttl=63 time=82.6 ms

--- 10.1.0.1 ping statistics ---
5 packets transmitted, 5 received, 0% packet loss, time 4005ms
rtt min/avg/max/mdev = 82.680/110.618/218.543/53.973 ms
