Client : ifconfig Client-eth0 10.0.0.1 netmask 255.255.255.0
Router : arp -s 10.0.0.1 1e:80:f0:d3:f7:c5
Router : ifconfig Router-eth0 10.0.0.2 netmask 255.255.255.0
Client : arp -s 10.0.0.2 3e:9c:b0:e8:6c:89
Client : ifconfig Client-eth1 10.0.1.1 netmask 255.255.255.0
Router : arp -s 10.0.1.1 ce:4a:92:5a:c3:d5
Router : ifconfig Router-eth1 10.0.1.2 netmask 255.255.255.0
Client : arp -s 10.0.1.2 ba:7b:20:40:5b:94
Router : ifconfig Router-eth2 10.1.0.2 netmask 255.255.255.0
Server : arp -s 10.1.0.2 d2:ed:d9:d6:78:15
Server : ifconfig Server-eth0 10.1.0.1 netmask 255.255.255.0
Router : arp -s 10.1.0.1 22:94:eb:c5:d8:12
Client : ip rule add from 10.0.0.1 table 1
Client : ip route add 10.0.0.0/24 dev Client-eth0 scope link table 1
Client : ip route add default via 10.0.0.2 table 1
Client : ip rule add from 10.0.1.1 table 2
Client : ip route add 10.0.1.0/24 dev Client-eth1 scope link table 2
Client : ip route add default via 10.0.1.2 table 2
Client : ip route add default scope global nexthop via 10.0.0.2 dev Client-eth0
Server : ip route add default via 10.1.0.2
Client : rm ping.log
Client : ping -c 5 -I 10.0.0.1 10.1.0.1 >> ping.log
Client : ping -c 5 -I 10.0.1.1 10.1.0.1 >> ping.log
Not_NS : sysctl net.mptcp.mptcp_scheduler
Not_NS : sysctl net.ipv4.tcp_congestion_control
Not_NS : sysctl net.ipv4.tcp_autocorking
Not_NS : sysctl net.ipv4.tcp_rmem
Not_NS : sysctl net.ipv4.tcp_early_retrans
Not_NS : sysctl net.ipv4.tcp_moderate_rcvbuf
Not_NS : sysctl net.mptcp.mptcp_path_manager
Not_NS : sysctl net.ipv4.tcp_wmem
Client : sysctl net.mptcp.mptcp_path_manager
Server : sysctl net.mptcp.mptcp_path_manager
Not_NS : sysctl net.ipv4.tcp_early_retrans="3"
Not_NS : sysctl net.ipv4.tcp_congestion_control="olia"
Not_NS : sysctl net.ipv4.tcp_autocorking="1"
Not_NS : sysctl net.ipv4.tcp_rmem="10240 87380 16777216"
Not_NS : sysctl net.mptcp.mptcp_scheduler="default"
Not_NS : sysctl net.ipv4.tcp_moderate_rcvbuf="1"
Not_NS : sysctl net.mptcp.mptcp_path_manager="fullmesh"
Not_NS : sysctl net.ipv4.tcp_wmem="4096 16384 4194304"
Client : sysctl net.mptcp.mptcp_path_manager="fullmesh"
Server : sysctl net.mptcp.mptcp_path_manager="fullmesh"
Client : ifconfig Client-eth0 10.0.0.1 netmask 255.255.255.0
Router : arp -s 10.0.0.1 1e:80:f0:d3:f7:c5
Router : ifconfig Router-eth0 10.0.0.2 netmask 255.255.255.0
Client : arp -s 10.0.0.2 3e:9c:b0:e8:6c:89
Client : ifconfig Client-eth1 10.0.1.1 netmask 255.255.255.0
Router : arp -s 10.0.1.1 ce:4a:92:5a:c3:d5
Router : ifconfig Router-eth1 10.0.1.2 netmask 255.255.255.0
Client : arp -s 10.0.1.2 ba:7b:20:40:5b:94
Router : ifconfig Router-eth2 10.1.0.2 netmask 255.255.255.0
Server : arp -s 10.1.0.2 d2:ed:d9:d6:78:15
Server : ifconfig Server-eth0 10.1.0.1 netmask 255.255.255.0
Router : arp -s 10.1.0.1 22:94:eb:c5:d8:12
Client : ip rule add from 10.0.0.1 table 1
Client : ip route add 10.0.0.0/24 dev Client-eth0 scope link table 1
Client : ip route add default via 10.0.0.2 table 1
Client : ip rule add from 10.0.1.1 table 2
Client : ip route add 10.0.1.0/24 dev Client-eth1 scope link table 2
Client : ip route add default via 10.0.1.2 table 2
Client : ip route add default scope global nexthop via 10.0.0.2 dev Client-eth0
Server : ip route add default via 10.1.0.2
s0 : ethtool -K s0-eth2 tso off
Router : ethtool -K Router-eth0 tso off
s1 : ethtool -K s1-eth2 tso off
Router : ethtool -K Router-eth1 tso off
Server : ethtool -K Server-eth0 tso off
Router : ethtool -K Router-eth2 tso off
Client : tcpdump -i any -s 100 -w client.pcap &
Server : tcpdump -i any -s 100 -w server.pcap &
Client : sleep 5
s0 : sleep 0.0 && tc qdisc del dev s0-eth2 root  && tc qdisc add dev s0-eth2 root handle 1:0 tbf rate 9.96mbit burst 61500 latency 1ms &&  tc qdisc add dev s0-eth2  parent 1:0 handle 10:  netem loss 5.0% delay 24ms &&  true &
Router : sleep 0.0 && tc qdisc del dev Router-eth0 root  && tc qdisc add dev Router-eth0 root handle 1:0 tbf rate 9.96mbit burst 61500 latency 1ms &&  tc qdisc add dev Router-eth0  parent 1:0 handle 10:  netem loss 5.0% delay 24ms &&  true &
s1 : sleep 0.0 && tc qdisc del dev s1-eth2 root  && tc qdisc add dev s1-eth2 root handle 1:0 tbf rate 11.05mbit burst 118500 latency 1ms &&  tc qdisc add dev s1-eth2  parent 1:0 handle 10:  netem loss 5.0% delay 41ms &&  true &
Router : sleep 0.0 && tc qdisc del dev Router-eth1 root  && tc qdisc add dev Router-eth1 root handle 1:0 tbf rate 11.05mbit burst 118500 latency 1ms &&  tc qdisc add dev Router-eth1  parent 1:0 handle 10:  netem loss 5.0% delay 41ms &&  true &
Client : rm https_client.log
Server : rm https_server.log
Client : dd if=/dev/urandom of=random bs=1K count=20000
Server : netstat -sn > netstat_server_before
Server : python /home/mininet/git/minitopo/src/https.py &>https_server.log&
Client : sleep 2
Client : netstat -sn > netstat_client_before
Client : (time wget https://10.1.0.1/random --no-check-certificate) &>https_client.log
Server : netstat -sn > netstat_server_after
Client : netstat -sn > netstat_client_after
Server : pkill -f https.py
Client : sleep 2
Client : killall tcpdump
Server : killall tcpdump
Not_NS : sysctl net.ipv4.tcp_early_retrans="3"
Not_NS : sysctl net.ipv4.tcp_congestion_control="cubic"
Not_NS : sysctl net.ipv4.tcp_autocorking="1"
Not_NS : sysctl net.ipv4.tcp_rmem="10240	87380	16777216"
Not_NS : sysctl net.mptcp.mptcp_scheduler="default"
Not_NS : sysctl net.ipv4.tcp_moderate_rcvbuf="1"
Not_NS : sysctl net.mptcp.mptcp_path_manager="fullmesh"
Not_NS : sysctl net.ipv4.tcp_wmem="10240	87380	16777216"
Client : sysctl net.mptcp.mptcp_path_manager="stat /proc/sys/net/mptcp/mptcp_path_manager: No such file or directory"
Server : sysctl net.mptcp.mptcp_path_manager="stat /proc/sys/net/mptcp/mptcp_path_manager: No such file or directory"
Client : rm random*
