PING 10.1.0.1 (10.1.0.1) from 10.0.0.1 : 56(84) bytes of data.
64 bytes from 10.1.0.1: icmp_seq=1 ttl=63 time=110 ms
64 bytes from 10.1.0.1: icmp_seq=2 ttl=63 time=52.7 ms
64 bytes from 10.1.0.1: icmp_seq=3 ttl=63 time=49.3 ms
64 bytes from 10.1.0.1: icmp_seq=4 ttl=63 time=48.7 ms
64 bytes from 10.1.0.1: icmp_seq=5 ttl=63 time=48.8 ms

--- 10.1.0.1 ping statistics ---
5 packets transmitted, 5 received, 0% packet loss, time 4006ms
rtt min/avg/max/mdev = 48.723/62.037/110.529/24.291 ms
PING 10.1.0.1 (10.1.0.1) from 10.0.1.1 : 56(84) bytes of data.
64 bytes from 10.1.0.1: icmp_seq=1 ttl=63 time=178 ms
64 bytes from 10.1.0.1: icmp_seq=2 ttl=63 time=86.2 ms
64 bytes from 10.1.0.1: icmp_seq=3 ttl=63 time=83.0 ms
64 bytes from 10.1.0.1: icmp_seq=4 ttl=63 time=82.9 ms
64 bytes from 10.1.0.1: icmp_seq=5 ttl=63 time=82.5 ms

--- 10.1.0.1 ping statistics ---
5 packets transmitted, 5 received, 0% packet loss, time 4006ms
rtt min/avg/max/mdev = 82.527/102.706/178.746/38.043 ms
