--2020-07-26 23:09:06--  https://10.1.0.1/random
Connecting to 10.1.0.1:443... connected.
WARNING: cannot verify 10.1.0.1's certificate, issued by ‘/C=BE/ST=LLN/O=Internet Widgits Pty Ltd’:
  Self-signed certificate encountered.
    WARNING: certificate common name ‘’ doesn't match requested host name ‘10.1.0.1’.
HTTP request sent, awaiting response... 200 OK
Length: 20480000 (20M) [application/octet-stream]
Saving to: ‘random.1’

     0K .......... .......... .......... .......... ..........  0%  335K 60s
    50K .......... .......... .......... .......... ..........  0%  332K 60s
   100K .......... .......... .......... .......... ..........  0%  205K 72s
   150K .......... .......... .......... .......... ..........  1%  203K 78s
   200K .......... .......... .......... .......... ..........  1%  145K 90s
   250K .......... .......... .......... .......... ..........  1%  127K 1m40s
   300K .......... .......... .......... .......... ..........  1%  105K 1m53s
   350K .......... .......... .......... .......... ..........  2% 99.7K 2m3s
   400K .......... .......... .......... .......... ..........  2%  113K 2m8s
   450K .......... .......... .......... .......... ..........  2%  114K 2m12s
   500K .......... .......... .......... .......... ..........  2% 63.7K 2m28s
   550K .......... .......... .......... .......... ..........  3% 73.8K 2m37s
   600K .......... .......... .......... .......... ..........  3%  145K 2m35s
   650K .......... .......... .......... .......... ..........  3%  128K 2m34s
   700K .......... .......... .......... .......... ..........  3%  127K 2m34s
   750K .......... .......... .......... .......... ..........  4%  170K 2m31s
   800K .......... .......... .......... .......... ..........  4%  252K 2m26s
   850K .......... .......... .......... .......... ..........  4%  254K 2m22s
   900K .......... .......... .......... .......... ..........  4%  169K 2m20s
   950K .......... .......... .......... .......... ..........  5% 78.5K 2m24s
  1000K .......... .......... .......... .......... ..........  5% 92.5K 2m27s
  1050K .......... .......... .......... .......... ..........  5%  113K 2m28s
  1100K .......... .......... .......... .......... ..........  5%  105K 2m29s
  1150K .......... .......... .......... .......... ..........  6%  127K 2m28s
  1200K .......... .......... .......... .......... ..........  6% 64.6K 2m33s
  1250K .......... .......... .......... .......... ..........  6%  145K 2m32s
  1300K .......... .......... .......... .......... ..........  6%  113K 2m32s
  1350K .......... .......... .......... .......... ..........  7% 72.1K 2m36s
  1400K .......... .......... .......... .......... ..........  7%  145K 2m34s
  1450K .......... .......... .......... .......... ..........  7%  145K 2m33s
  1500K .......... .......... .......... .......... ..........  7%  170K 2m31s
  1550K .......... .......... .......... .......... ..........  8%  204K 2m29s
  1600K .......... .......... .......... .......... ..........  8%  169K 2m27s
  1650K .......... .......... .......... .......... ..........  8%  203K 2m25s
  1700K .......... .......... .......... .......... ..........  8%  169K 2m24s
  1750K .......... .......... .......... .......... ..........  9%  169K 2m22s
  1800K .......... .......... .......... .......... ..........  9% 92.1K 2m23s
  1850K .......... .......... .......... .......... ..........  9%  128K 2m23s
  1900K .......... .......... .......... .......... ..........  9%  127K 2m23s
  1950K .......... .......... .......... .......... .......... 10% 92.9K 2m23s
  2000K .......... .......... .......... .......... .......... 10% 56.6K 2m27s
  2050K .......... .......... .......... .......... .......... 10% 68.1K 2m30s
  2100K .......... .......... .......... .......... .......... 10% 78.3K 2m31s
  2150K .......... .......... .......... .......... .......... 11% 67.7K 2m33s
  2200K .......... .......... .......... .......... .......... 11%  145K 2m32s
  2250K .......... .......... .......... .......... .......... 11%  170K 2m31s
  2300K .......... .......... .......... .......... .......... 11%  170K 2m29s
  2350K .......... .......... .......... .......... .......... 12%  164K 2m28s
  2400K .......... .......... .......... .......... .......... 12%  146K 2m27s
  2450K .......... .......... .......... .......... .......... 12%  145K 2m26s
  2500K .......... .......... .......... .......... .......... 12%  145K 2m25s
  2550K .......... .......... .......... .......... .......... 13%  145K 2m24s
  2600K .......... .......... .......... .......... .......... 13%  145K 2m23s
  2650K .......... .......... .......... .......... .......... 13%  256K 2m22s
  2700K .......... .......... .......... .......... .......... 13%  333K 2m19s
  2750K .......... .......... .......... .......... .......... 14%  203K 2m18s
  2800K .......... .......... .......... .......... .......... 14%  169K 2m17s
  2850K .......... .......... .......... .......... .......... 14%  145K 2m16s
  2900K .......... .......... .......... .......... .......... 14%  145K 2m16s
  2950K .......... .......... .......... .......... .......... 15%  170K 2m15s
  3000K .......... .......... .......... .......... .......... 15%  127K 2m14s
  3050K .......... .......... .......... .......... .......... 15%  169K 2m13s
  3100K .......... .......... .......... .......... .......... 15%  127K 2m13s
  3150K .......... .......... .......... .......... .......... 16%  128K 2m12s
  3200K .......... .......... .......... .......... .......... 16%  127K 2m12s
  3250K .......... .......... .......... .......... .......... 16%  127K 2m12s
  3300K .......... .......... .......... .......... .......... 16%  169K 2m11s
  3350K .......... .......... .......... .......... .......... 17%  146K 2m10s
  3400K .......... .......... .......... .......... .......... 17%  127K 2m10s
  3450K .......... .......... .......... .......... .......... 17%  127K 2m9s
  3500K .......... .......... .......... .......... .......... 17%  170K 2m9s
  3550K .......... .......... .......... .......... .......... 18%  204K 2m8s
  3600K .......... .......... .......... .......... .......... 18%  254K 2m6s
  3650K .......... .......... .......... .......... .......... 18%  336K 2m5s
  3700K .......... .......... .......... .......... .......... 18%  203K 2m4s
  3750K .......... .......... .......... .......... .......... 19%  254K 2m3s
  3800K .......... .......... .......... .......... .......... 19%  201K 2m2s
  3850K .......... .......... .......... .......... .......... 19%  112K 2m2s
  3900K .......... .......... .......... .......... .......... 19% 46.2K 2m4s
  3950K .......... .......... .......... .......... .......... 20%  142K 2m4s
  4000K .......... .......... .......... .......... .......... 20%  128K 2m3s
  4050K .......... .......... .......... .......... .......... 20% 85.1K 2m4s
  4100K .......... .......... .......... .......... .......... 20% 59.6K 2m5s
  4150K .......... .......... .......... .......... .......... 21%  102K 2m5s
  4200K .......... .......... .......... .......... .......... 21%  169K 2m4s
  4250K .......... .......... .......... .......... .......... 21%  146K 2m4s
  4300K .......... .......... .......... .......... .......... 21%  144K 2m3s
  4350K .......... .......... .......... .......... .......... 22%  114K 2m3s
  4400K .......... .......... .......... .......... .......... 22%  145K 2m2s
  4450K .......... .......... .......... .......... .......... 22%  127K 2m2s
  4500K .......... .......... .......... .......... .......... 22%  102K 2m2s
  4550K .......... .......... .......... .......... .......... 23%  127K 2m1s
  4600K .......... .......... .......... .......... .......... 23%  145K 2m1s
  4650K .......... .......... .......... .......... .......... 23%  113K 2m1s
  4700K .......... .......... .......... .......... .......... 23%  170K 2m0s
  4750K .......... .......... .......... .......... .......... 24%  113K 2m0s
  4800K .......... .......... .......... .......... .......... 24% 94.2K 2m0s
  4850K .......... .......... .......... .......... .......... 24%  127K 1m59s
  4900K .......... .......... .......... .......... .......... 24%  127K 1m59s
  4950K .......... .......... .......... .......... .......... 25%  113K 1m59s
  5000K .......... .......... .......... .......... .......... 25%  102K 1m59s
  5050K .......... .......... .......... .......... .......... 25%  127K 1m58s
  5100K .......... .......... .......... .......... .......... 25%  145K 1m58s
  5150K .......... .......... .......... .......... .......... 26%  170K 1m57s
  5200K .......... .......... .......... .......... .......... 26%  146K 1m56s
  5250K .......... .......... .......... .......... .......... 26%  169K 1m56s
  5300K .......... .......... .......... .......... .......... 26%  253K 1m55s
  5350K .......... .......... .......... .......... .......... 27%  170K 1m54s
  5400K .......... .......... .......... .......... .......... 27%  127K 1m54s
  5450K .......... .......... .......... .......... .......... 27%  127K 1m53s
  5500K .......... .......... .......... .......... .......... 27%  127K 1m53s
  5550K .......... .......... .......... .......... .......... 28%  128K 1m53s
  5600K .......... .......... .......... .......... .......... 28%  127K 1m52s
  5650K .......... .......... .......... .......... .......... 28%  145K 1m52s
  5700K .......... .......... .......... .......... .......... 28%  203K 1m51s
  5750K .......... .......... .......... .......... .......... 29%  146K 1m50s
  5800K .......... .......... .......... .......... .......... 29%  102K 1m50s
  5850K .......... .......... .......... .......... .......... 29%  145K 1m50s
  5900K .......... .......... .......... .......... .......... 29%  127K 1m49s
  5950K .......... .......... .......... .......... .......... 30%  146K 1m49s
  6000K .......... .......... .......... .......... .......... 30%  102K 1m49s
  6050K .......... .......... .......... .......... .......... 30% 56.1K 1m49s
  6100K .......... .......... .......... .......... .......... 30%  131K 1m49s
  6150K .......... .......... .......... .......... .......... 31%  128K 1m49s
  6200K .......... .......... .......... .......... .......... 31%  113K 1m48s
  6250K .......... .......... .......... .......... .......... 31%  145K 1m48s
  6300K .......... .......... .......... .......... .......... 31%  151K 1m47s
  6350K .......... .......... .......... .......... .......... 32%  254K 1m47s
  6400K .......... .......... .......... .......... .......... 32%  113K 1m46s
  6450K .......... .......... .......... .......... .......... 32%  169K 1m46s
  6500K .......... .......... .......... .......... .......... 32%  204K 1m45s
  6550K .......... .......... .......... .......... .......... 33%  169K 1m44s
  6600K .......... .......... .......... .......... .......... 33%  145K 1m44s
  6650K .......... .......... .......... .......... .......... 33%  127K 1m44s
  6700K .......... .......... .......... .......... .......... 33%  170K 1m43s
  6750K .......... .......... .......... .......... .......... 34%  151K 1m42s
  6800K .......... .......... .......... .......... .......... 34%  163K 1m42s
  6850K .......... .......... .......... .......... .......... 34%  145K 1m41s
  6900K .......... .......... .......... .......... .......... 34%  113K 1m41s
  6950K .......... .......... .......... .......... .......... 35%  128K 1m41s
  7000K .......... .......... .......... .......... .......... 35%  127K 1m40s
  7050K .......... .......... .......... .......... .......... 35% 92.8K 1m40s
  7100K .......... .......... .......... .......... .......... 35%  127K 1m40s
  7150K .......... .......... .......... .......... .......... 36%  169K 99s
  7200K .......... .......... .......... .......... .......... 36%  143K 99s
  7250K .......... .......... .......... .......... .......... 36%  169K 98s
  7300K .......... .......... .......... .......... .......... 36%  170K 98s
  7350K .......... .......... .......... .......... .......... 37%  146K 97s
  7400K .......... .......... .......... .......... .......... 37%  104K 97s
  7450K .......... .......... .......... .......... .......... 37%  166K 97s
  7500K .......... .......... .......... .......... .......... 37%  117K 96s
  7550K .......... .......... .......... .......... .......... 38% 85.1K 96s
  7600K .......... .......... .......... .......... .......... 38% 93.6K 96s
  7650K .......... .......... .......... .......... .......... 38%  128K 96s
  7700K .......... .......... .......... .......... .......... 38%  169K 95s
  7750K .......... .......... .......... .......... .......... 39%  169K 95s
  7800K .......... .......... .......... .......... .......... 39% 85.0K 95s
  7850K .......... .......... .......... .......... .......... 39%  169K 94s
  7900K .......... .......... .......... .......... .......... 39%  127K 94s
  7950K .......... .......... .......... .......... .......... 40%  113K 93s
  8000K .......... .......... .......... .......... .......... 40%  127K 93s
  8050K .......... .......... .......... .......... .......... 40%  127K 93s
  8100K .......... .......... .......... .......... .......... 40%  113K 92s
  8150K .......... .......... .......... .......... .......... 41%  102K 92s
  8200K .......... .......... .......... .......... .......... 41% 59.6K 92s
  8250K .......... .......... .......... .......... .......... 41%  127K 92s
  8300K .......... .......... .......... .......... .......... 41% 85.2K 92s
  8350K .......... .......... .......... .......... .......... 42% 53.4K 92s
  8400K .......... .......... .......... .......... .......... 42%  113K 92s
  8450K .......... .......... .......... .......... .......... 42%  144K 91s
  8500K .......... .......... .......... .......... .......... 42%  169K 91s
  8550K .......... .......... .......... .......... .......... 43%  169K 90s
  8600K .......... .......... .......... .......... .......... 43%  105K 90s
  8650K .......... .......... .......... .......... .......... 43%  169K 89s
  8700K .......... .......... .......... .......... .......... 43%  128K 89s
  8750K .......... .......... .......... .......... .......... 44%  254K 88s
  8800K .......... .......... .......... .......... .......... 44%  145K 88s
  8850K .......... .......... .......... .......... .......... 44%  252K 87s
  8900K .......... .......... .......... .......... .......... 44%  177K 87s
  8950K .......... .......... .......... .......... .......... 45%  239K 86s
  9000K .......... .......... .......... .......... .......... 45%  170K 86s
  9050K .......... .......... .......... .......... .......... 45%  146K 85s
  9100K .......... .......... .......... .......... .......... 45%  170K 85s
  9150K .......... .......... .......... .......... .......... 46%  105K 84s
  9200K .......... .......... .......... .......... .......... 46% 99.0K 84s
  9250K .......... .......... .......... .......... .......... 46%  203K 84s
  9300K .......... .......... .......... .......... .......... 46%  145K 83s
  9350K .......... .......... .......... .......... .......... 47%  203K 83s
  9400K .......... .......... .......... .......... .......... 47%  170K 82s
  9450K .......... .......... .......... .......... .......... 47%  171K 82s
  9500K .......... .......... .......... .......... .......... 47%  165K 81s
  9550K .......... .......... .......... .......... .......... 48%  169K 81s
  9600K .......... .......... .......... .......... .......... 48%  175K 80s
  9650K .......... .......... .......... .......... .......... 48%  171K 80s
  9700K .......... .......... .......... .......... .......... 48%  124K 79s
  9750K .......... .......... .......... .......... .......... 49% 67.9K 79s
  9800K .......... .......... .......... .......... .......... 49%  169K 79s
  9850K .......... .......... .......... .......... .......... 49%  146K 78s
  9900K .......... .......... .......... .......... .......... 49%  146K 78s
  9950K .......... .......... .......... .......... .......... 50%  170K 77s
 10000K .......... .......... .......... .......... .......... 50%  169K 77s
 10050K .......... .......... .......... .......... .......... 50%  203K 76s
 10100K .......... .......... .......... .......... .......... 50% 92.8K 76s
 10150K .......... .......... .......... .......... .......... 51%  102K 76s
 10200K .......... .......... .......... .......... .......... 51% 93.0K 76s
 10250K .......... .......... .......... .......... .......... 51%  151K 75s
 10300K .......... .......... .......... .......... .......... 51%  138K 75s
 10350K .......... .......... .......... .......... .......... 52%  113K 74s
 10400K .......... .......... .......... .......... .......... 52%  128K 74s
 10450K .......... .......... .......... .......... .......... 52%  169K 74s
 10500K .......... .......... .......... .......... .......... 52%  104K 73s
 10550K .......... .......... .......... .......... .......... 53%  169K 73s
 10600K .......... .......... .......... .......... .......... 53%  145K 72s
 10650K .......... .......... .......... .......... .......... 53%  151K 72s
 10700K .......... .......... .......... .......... .......... 53%  170K 71s
 10750K .......... .......... .......... .......... .......... 54%  124K 71s
 10800K .......... .......... .......... .......... .......... 54%  127K 71s
 10850K .......... .......... .......... .......... .......... 54%  101K 70s
 10900K .......... .......... .......... .......... .......... 54% 79.7K 70s
 10950K .......... .......... .......... .......... .......... 55% 56.7K 70s
 11000K .......... .......... .......... .......... .......... 55% 86.3K 70s
 11050K .......... .......... .......... .......... .......... 55%  113K 70s
 11100K .......... .......... .......... .......... .......... 55% 92.6K 69s
 11150K .......... .......... .......... .......... .......... 56%  102K 69s
 11200K .......... .......... .......... .......... .......... 56%  113K 69s
 11250K .......... .......... .......... .......... .......... 56%  146K 68s
 11300K .......... .......... .......... .......... .......... 56%  169K 68s
 11350K .......... .......... .......... .......... .......... 57% 71.8K 68s
 11400K .......... .......... .......... .......... .......... 57% 92.5K 67s
 11450K .......... .......... .......... .......... .......... 57%  113K 67s
 11500K .......... .......... .......... .......... .......... 57%  127K 67s
 11550K .......... .......... .......... .......... .......... 58%  127K 66s
 11600K .......... .......... .......... .......... .......... 58% 53.4K 66s
 11650K .......... .......... .......... .......... .......... 58%  127K 66s
 11700K .......... .......... .......... .......... .......... 58%  127K 65s
 11750K .......... .......... .......... .......... .......... 59%  132K 65s
 11800K .......... .......... .......... .......... .......... 59%  113K 65s
 11850K .......... .......... .......... .......... .......... 59%  150K 64s
 11900K .......... .......... .......... .......... .......... 59%  164K 64s
 11950K .......... .......... .......... .......... .......... 60%  127K 63s
 12000K .......... .......... .......... .......... .......... 60%  170K 63s
 12050K .......... .......... .......... .......... .......... 60%  336K 62s
 12100K .......... .......... .......... .......... .......... 60%  203K 62s
 12150K .......... .......... .......... .......... .......... 61%  146K 61s
 12200K .......... .......... .......... .......... .......... 61%  145K 61s
 12250K .......... .......... .......... .......... .......... 61%  127K 61s
 12300K .......... .......... .......... .......... .......... 61%  131K 60s
 12350K .......... .......... .......... .......... .......... 62%  125K 60s
 12400K .......... .......... .......... .......... .......... 62%  101K 59s
 12450K .......... .......... .......... .......... .......... 62%  143K 59s
 12500K .......... .......... .......... .......... .......... 62%  127K 59s
 12550K .......... .......... .......... .......... .......... 63%  151K 58s
 12600K .......... .......... .......... .......... .......... 63%  193K 58s
 12650K .......... .......... .......... .......... .......... 63%  169K 57s
 12700K .......... .......... .......... .......... .......... 63%  203K 57s
 12750K .......... .......... .......... .......... .......... 64%  255K 56s
 12800K .......... .......... .......... .......... .......... 64%  170K 56s
 12850K .......... .......... .......... .......... .......... 64%  169K 55s
 12900K .......... .......... .......... .......... .......... 64%  203K 55s
 12950K .......... .......... .......... .......... .......... 65%  166K 55s
 13000K .......... .......... .......... .......... .......... 65%  113K 54s
 13050K .......... .......... .......... .......... .......... 65%  127K 54s
 13100K .......... .......... .......... .......... .......... 65%  169K 53s
 13150K .......... .......... .......... .......... .......... 66%  127K 53s
 13200K .......... .......... .......... .......... .......... 66%  113K 53s
 13250K .......... .......... .......... .......... .......... 66%  146K 52s
 13300K .......... .......... .......... .......... .......... 66%  127K 52s
 13350K .......... .......... .......... .......... .......... 67% 84.5K 52s
 13400K .......... .......... .......... .......... .......... 67% 94.6K 51s
 13450K .......... .......... .......... .......... .......... 67%  142K 51s
 13500K .......... .......... .......... .......... .......... 67%  104K 50s
 13550K .......... .......... .......... .......... .......... 68%  145K 50s
 13600K .......... .......... .......... .......... .......... 68%  169K 50s
 13650K .......... .......... .......... .......... .......... 68%  204K 49s
 13700K .......... .......... .......... .......... .......... 68%  253K 49s
 13750K .......... .......... .......... .......... .......... 69%  256K 48s
 13800K .......... .......... .......... .......... .......... 69%  245K 48s
 13850K .......... .......... .......... .......... .......... 69%  205K 47s
 13900K .......... .......... .......... .......... .......... 69%  169K 47s
 13950K .......... .......... .......... .......... .......... 70%  170K 46s
 14000K .......... .......... .......... .......... .......... 70%  131K 46s
 14050K .......... .......... .......... .......... .......... 70%  242K 46s
 14100K .......... .......... .......... .......... .......... 70%  175K 45s
 14150K .......... .......... .......... .......... .......... 71%  146K 45s
 14200K .......... .......... .......... .......... .......... 71%  142K 44s
 14250K .......... .......... .......... .......... .......... 71%  143K 44s
 14300K .......... .......... .......... .......... .......... 71%  128K 44s
 14350K .......... .......... .......... .......... .......... 72%  132K 43s
 14400K .......... .......... .......... .......... .......... 72%  145K 43s
 14450K .......... .......... .......... .......... .......... 72%  151K 42s
 14500K .......... .......... .......... .......... .......... 72%  204K 42s
 14550K .......... .......... .......... .......... .......... 73%  127K 42s
 14600K .......... .......... .......... .......... .......... 73% 94.8K 41s
 14650K .......... .......... .......... .......... .......... 73%  102K 41s
 14700K .......... .......... .......... .......... .......... 73% 92.7K 41s
 14750K .......... .......... .......... .......... .......... 74%  113K 40s
 14800K .......... .......... .......... .......... .......... 74%  127K 40s
 14850K .......... .......... .......... .......... .......... 74%  145K 39s
 14900K .......... .......... .......... .......... .......... 74%  204K 39s
 14950K .......... .......... .......... .......... .......... 75%  127K 39s
 15000K .......... .......... .......... .......... .......... 75% 63.7K 38s
 15050K .......... .......... .......... .......... .......... 75%  127K 38s
 15100K .......... .......... .......... .......... .......... 75%  202K 37s
 15150K .......... .......... .......... .......... .......... 76% 84.3K 37s
 15200K .......... .......... .......... .......... .......... 76%  129K 37s
 15250K .......... .......... .......... .......... .......... 76%  203K 36s
 15300K .......... .......... .......... .......... .......... 76%  337K 36s
 15350K .......... .......... .......... .......... .......... 77%  254K 35s
 15400K .......... .......... .......... .......... .......... 77%  202K 35s
 15450K .......... .......... .......... .......... .......... 77%  204K 35s
 15500K .......... .......... .......... .......... .......... 77%  177K 34s
 15550K .......... .......... .......... .......... .......... 78% 82.7K 34s
 15600K .......... .......... .......... .......... .......... 78%  102K 33s
 15650K .......... .......... .......... .......... .......... 78%  169K 33s
 15700K .......... .......... .......... .......... .......... 78%  204K 33s
 15750K .......... .......... .......... .......... .......... 79%  169K 32s
 15800K .......... .......... .......... .......... .......... 79%  132K 32s
 15850K .......... .......... .......... .......... .......... 79%  238K 31s
 15900K .......... .......... .......... .......... .......... 79%  125K 31s
 15950K .......... .......... .......... .......... .......... 80%  170K 31s
 16000K .......... .......... .......... .......... .......... 80%  170K 30s
 16050K .......... .......... .......... .......... .......... 80%  204K 30s
 16100K .......... .......... .......... .......... .......... 80%  252K 29s
 16150K .......... .......... .......... .......... .......... 81%  113K 29s
 16200K .......... .......... .......... .......... .......... 81%  113K 29s
 16250K .......... .......... .......... .......... .......... 81%  170K 28s
 16300K .......... .......... .......... .......... .......... 81%  169K 28s
 16350K .......... .......... .......... .......... .......... 82%  112K 28s
 16400K .......... .......... .......... .......... .......... 82% 78.2K 27s
 16450K .......... .......... .......... .......... .......... 82%  113K 27s
 16500K .......... .......... .......... .......... .......... 82% 78.4K 26s
 16550K .......... .......... .......... .......... .......... 83% 92.6K 26s
 16600K .......... .......... .......... .......... .......... 83%  170K 26s
 16650K .......... .......... .......... .......... .......... 83%  127K 25s
 16700K .......... .......... .......... .......... .......... 83%  150K 25s
 16750K .......... .......... .......... .......... .......... 84%  102K 25s
 16800K .......... .......... .......... .......... .......... 84% 67.9K 24s
 16850K .......... .......... .......... .......... .......... 84%  104K 24s
 16900K .......... .......... .......... .......... .......... 84% 90.7K 24s
 16950K .......... .......... .......... .......... .......... 85% 72.9K 23s
 17000K .......... .......... .......... .......... .......... 85% 92.5K 23s
 17050K .......... .......... .......... .......... .......... 85% 92.6K 22s
 17100K .......... .......... .......... .......... .......... 85%  127K 22s
 17150K .......... .......... .......... .......... .......... 86%  203K 22s
 17200K .......... .......... .......... .......... .......... 86% 92.7K 21s
 17250K .......... .......... .......... .......... .......... 86%  113K 21s
 17300K .......... .......... .......... .......... .......... 86% 84.9K 21s
 17350K .......... .......... .......... .......... .......... 87%  127K 20s
 17400K .......... .......... .......... .......... .......... 87%  117K 20s
 17450K .......... .......... .......... .......... .......... 87%  203K 19s
 17500K .......... .......... .......... .......... .......... 87%  124K 19s
 17550K .......... .......... .......... .......... .......... 88%  128K 19s
 17600K .......... .......... .......... .......... .......... 88%  105K 18s
 17650K .......... .......... .......... .......... .......... 88%  113K 18s
 17700K .......... .......... .......... .......... .......... 88%  194K 17s
 17750K .......... .......... .......... .......... .......... 89%  177K 17s
 17800K .......... .......... .......... .......... .......... 89% 90.6K 17s
 17850K .......... .......... .......... .......... .......... 89%  145K 16s
 17900K .......... .......... .......... .......... .......... 89%  102K 16s
 17950K .......... .......... .......... .......... .......... 90%  127K 16s
 18000K .......... .......... .......... .......... .......... 90% 92.9K 15s
 18050K .......... .......... .......... .......... .......... 90%  116K 15s
 18100K .......... .......... .......... .......... .......... 90%  141K 14s
 18150K .......... .......... .......... .......... .......... 91%  174K 14s
 18200K .......... .......... .......... .......... .......... 91%  127K 14s
 18250K .......... .......... .......... .......... .......... 91%  102K 13s
 18300K .......... .......... .......... .......... .......... 91%  146K 13s
 18350K .......... .......... .......... .......... .......... 92%  145K 12s
 18400K .......... .......... .......... .......... .......... 92%  145K 12s
 18450K .......... .......... .......... .......... .......... 92%  146K 12s
 18500K .......... .......... .......... .......... .......... 92%  145K 11s
 18550K .......... .......... .......... .......... .......... 93%  127K 11s
 18600K .......... .......... .......... .......... .......... 93% 62.7K 11s
 18650K .......... .......... .......... .......... .......... 93%  169K 10s
 18700K .......... .......... .......... .......... .......... 93%  169K 10s
 18750K .......... .......... .......... .......... .......... 94%  111K 9s
 18800K .......... .......... .......... .......... .......... 94%  170K 9s
 18850K .......... .......... .......... .......... .......... 94%  145K 9s
 18900K .......... .......... .......... .......... .......... 94% 94.2K 8s
 18950K .......... .......... .......... .......... .......... 95%  140K 8s
 19000K .......... .......... .......... .......... .......... 95%  128K 7s
 19050K .......... .......... .......... .......... .......... 95%  203K 7s
 19100K .......... .......... .......... .......... .......... 95%  145K 7s
 19150K .......... .......... .......... .......... .......... 96%  112K 6s
 19200K .......... .......... .......... .......... .......... 96%  151K 6s
 19250K .......... .......... .......... .......... .......... 96%  124K 5s
 19300K .......... .......... .......... .......... .......... 96%  113K 5s
 19350K .......... .......... .......... .......... .......... 97% 78.5K 5s
 19400K .......... .......... .......... .......... .......... 97%  113K 4s
 19450K .......... .......... .......... .......... .......... 97%  127K 4s
 19500K .......... .......... .......... .......... .......... 97%  113K 4s
 19550K .......... .......... .......... .......... .......... 98%  127K 3s
 19600K .......... .......... .......... .......... .......... 98% 84.8K 3s
 19650K .......... .......... .......... .......... .......... 98%  127K 2s
 19700K .......... .......... .......... .......... .......... 98%  151K 2s
 19750K .......... .......... .......... .......... .......... 99%  203K 2s
 19800K .......... .......... .......... .......... .......... 99%  145K 1s
 19850K .......... .......... .......... .......... .......... 99%  204K 1s
 19900K .......... .......... .......... .......... .......... 99% 52.8K 0s
 19950K .......... .......... .......... .......... ..........100%  103K 0s
 20000K                                                       100% 0.00 =2m36s

2020-07-26 23:11:43 (128 KB/s) - ‘random.1’ saved [20480000/20480000]


real	2m36.608s
user	0m2.534s
sys	0m1.149s
