--2020-07-22 21:54:33--  https://10.1.0.1/random
Connecting to 10.1.0.1:443... connected.
WARNING: cannot verify 10.1.0.1's certificate, issued by ‘/C=BE/ST=LLN/O=Internet Widgits Pty Ltd’:
  Self-signed certificate encountered.
    WARNING: certificate common name ‘’ doesn't match requested host name ‘10.1.0.1’.
HTTP request sent, awaiting response... 200 OK
Length: 20480000 (20M) [application/octet-stream]
Saving to: ‘random.1’

     0K .......... .......... .......... .......... ..........  0%  224K 89s
    50K .......... .......... .......... .......... ..........  0%  595K 61s
   100K .......... .......... .......... .......... ..........  0%  299K 63s
   150K .......... .......... .......... .......... ..........  1%  420K 59s
   200K .......... .......... .......... .......... ..........  1%  101K 86s
   250K .......... .......... .......... .......... ..........  1%  217K 87s
   300K .......... .......... .......... .......... ..........  1%  203K 88s
   350K .......... .......... .......... .......... ..........  2%  102K 1m41s
   400K .......... .......... .......... .......... ..........  2%  127K 1m46s
   450K .......... .......... .......... .......... ..........  2%  127K 1m51s
   500K .......... .......... .......... .......... ..........  2% 67.5K 2m7s
   550K .......... .......... .......... .......... ..........  3%  113K 2m10s
   600K .......... .......... .......... .......... ..........  3%  273K 2m5s
   650K .......... .......... .......... .......... ..........  3%  204K 2m3s
   700K .......... .......... .......... .......... ..........  3%  103K 2m7s
   750K .......... .......... .......... .......... ..........  4% 65.3K 2m17s
   800K .......... .......... .......... .......... ..........  4%  169K 2m15s
   850K .......... .......... .......... .......... ..........  4%  171K 2m14s
   900K .......... .......... .......... .......... ..........  4%  126K 2m14s
   950K .......... .......... .......... .......... ..........  5%  143K 2m14s
  1000K .......... .......... .......... .......... ..........  5%  148K 2m13s
  1050K .......... .......... .......... .......... ..........  5%  169K 2m12s
  1100K .......... .......... .......... .......... ..........  5%  169K 2m11s
  1150K .......... .......... .......... .......... ..........  6%  210K 2m9s
  1200K .......... .......... .......... .......... ..........  6%  165K 2m8s
  1250K .......... .......... .......... .......... ..........  6%  203K 2m6s
  1300K .......... .......... .......... .......... ..........  6%  152K 2m5s
  1350K .......... .......... .......... .......... ..........  7%  103K 2m7s
  1400K .......... .......... .......... .......... ..........  7%  151K 2m7s
  1450K .......... .......... .......... .......... ..........  7%  120K 2m7s
  1500K .......... .......... .......... .......... ..........  7%  100K 2m9s
  1550K .......... .......... .......... .......... ..........  8%  121K 2m9s
  1600K .......... .......... .......... .......... ..........  8%  113K 2m10s
  1650K .......... .......... .......... .......... ..........  8%  104K 2m11s
  1700K .......... .......... .......... .......... ..........  8% 56.6K 2m16s
  1750K .......... .......... .......... .......... ..........  9%  280K 2m14s
  1800K .......... .......... .......... .......... ..........  9%  176K 2m12s
  1850K .......... .......... .......... .......... ..........  9%  227K 2m11s
  1900K .......... .......... .......... .......... ..........  9%  178K 2m10s
  1950K .......... .......... .......... .......... .......... 10%  142K 2m9s
  2000K .......... .......... .......... .......... .......... 10%  127K 2m9s
  2050K .......... .......... .......... .......... .......... 10% 97.1K 2m10s
  2100K .......... .......... .......... .......... .......... 10%  133K 2m10s
  2150K .......... .......... .......... .......... .......... 11%  165K 2m9s
  2200K .......... .......... .......... .......... .......... 11%  104K 2m10s
  2250K .......... .......... .......... .......... .......... 11%  115K 2m10s
  2300K .......... .......... .......... .......... .......... 11%  157K 2m9s
  2350K .......... .......... .......... .......... .......... 12%  150K 2m8s
  2400K .......... .......... .......... .......... .......... 12%  147K 2m8s
  2450K .......... .......... .......... .......... .......... 12%  181K 2m7s
  2500K .......... .......... .......... .......... .......... 12%  232K 2m5s
  2550K .......... .......... .......... .......... .......... 13% 78.9K 2m7s
  2600K .......... .......... .......... .......... .......... 13%  167K 2m6s
  2650K .......... .......... .......... .......... .......... 13%  203K 2m5s
  2700K .......... .......... .......... .......... .......... 13%  245K 2m4s
  2750K .......... .......... .......... .......... .......... 14%  174K 2m3s
  2800K .......... .......... .......... .......... .......... 14% 92.9K 2m4s
  2850K .......... .......... .......... .......... .......... 14%  132K 2m3s
  2900K .......... .......... .......... .......... .......... 14%  107K 2m4s
  2950K .......... .......... .......... .......... .......... 15%  151K 2m3s
  3000K .......... .......... .......... .......... .......... 15%  121K 2m3s
  3050K .......... .......... .......... .......... .......... 15%  107K 2m3s
  3100K .......... .......... .......... .......... .......... 15%  138K 2m3s
  3150K .......... .......... .......... .......... .......... 16%  129K 2m3s
  3200K .......... .......... .......... .......... .......... 16% 64.3K 2m4s
  3250K .......... .......... .......... .......... .......... 16%  304K 2m3s
  3300K .......... .......... .......... .......... .......... 16%  151K 2m2s
  3350K .......... .......... .......... .......... .......... 17% 78.2K 2m3s
  3400K .......... .......... .......... .......... .......... 17%  109K 2m3s
  3450K .......... .......... .......... .......... .......... 17%  109K 2m3s
  3500K .......... .......... .......... .......... .......... 17%  191K 2m3s
  3550K .......... .......... .......... .......... .......... 18%  169K 2m2s
  3600K .......... .......... .......... .......... .......... 18% 92.9K 2m2s
  3650K .......... .......... .......... .......... .......... 18%  145K 2m2s
  3700K .......... .......... .......... .......... .......... 18%  151K 2m1s
  3750K .......... .......... .......... .......... .......... 19%  141K 2m1s
  3800K .......... .......... .......... .......... .......... 19%  125K 2m0s
  3850K .......... .......... .......... .......... .......... 19% 52.5K 2m2s
  3900K .......... .......... .......... .......... .......... 19%  601K 2m1s
  3950K .......... .......... .......... .......... .......... 20% 93.0K 2m1s
  4000K .......... .......... .......... .......... .......... 20%  232K 2m0s
  4050K .......... .......... .......... .......... .......... 20%  203K 1m59s
  4100K .......... .......... .......... .......... .......... 20%  129K 1m59s
  4150K .......... .......... .......... .......... .......... 21%  138K 1m58s
  4200K .......... .......... .......... .......... .......... 21% 93.8K 1m59s
  4250K .......... .......... .......... .......... .......... 21%  155K 1m58s
  4300K .......... .......... .......... .......... .......... 21%  110K 1m58s
  4350K .......... .......... .......... .......... .......... 22%  121K 1m58s
  4400K .......... .......... .......... .......... .......... 22%  120K 1m58s
  4450K .......... .......... .......... .......... .......... 22%  190K 1m57s
  4500K .......... .......... .......... .......... .......... 22%  125K 1m56s
  4550K .......... .......... .......... .......... .......... 23%  126K 1m56s
  4600K .......... .......... .......... .......... .......... 23% 97.8K 1m56s
  4650K .......... .......... .......... .......... .......... 23%  113K 1m56s
  4700K .......... .......... .......... .......... .......... 23%  146K 1m56s
  4750K .......... .......... .......... .......... .......... 24%  127K 1m55s
  4800K .......... .......... .......... .......... .......... 24% 78.1K 1m56s
  4850K .......... .......... .......... .......... .......... 24%  132K 1m55s
  4900K .......... .......... .......... .......... .......... 24%  127K 1m55s
  4950K .......... .......... .......... .......... .......... 25%  121K 1m55s
  5000K .......... .......... .......... .......... .......... 25%  157K 1m54s
  5050K .......... .......... .......... .......... .......... 25%  107K 1m54s
  5100K .......... .......... .......... .......... .......... 25%  131K 1m54s
  5150K .......... .......... .......... .......... .......... 26%  116K 1m53s
  5200K .......... .......... .......... .......... .......... 26%  109K 1m53s
  5250K .......... .......... .......... .......... .......... 26% 72.5K 1m54s
  5300K .......... .......... .......... .......... .......... 26%  170K 1m53s
  5350K .......... .......... .......... .......... .......... 27%  121K 1m53s
  5400K .......... .......... .......... .......... .......... 27%  115K 1m52s
  5450K .......... .......... .......... .......... .......... 27%  105K 1m52s
  5500K .......... .......... .......... .......... .......... 27%  151K 1m52s
  5550K .......... .......... .......... .......... .......... 28% 85.9K 1m52s
  5600K .......... .......... .......... .......... .......... 28%  274K 1m51s
  5650K .......... .......... .......... .......... .......... 28%  127K 1m51s
  5700K .......... .......... .......... .......... .......... 28%  120K 1m50s
  5750K .......... .......... .......... .......... .......... 29% 72.9K 1m51s
  5800K .......... .......... .......... .......... .......... 29%  610K 1m49s
  5850K .......... .......... .......... .......... .......... 29%  198K 1m49s
  5900K .......... .......... .......... .......... .......... 29%  132K 1m48s
  5950K .......... .......... .......... .......... .......... 30%  130K 1m48s
  6000K .......... .......... .......... .......... .......... 30% 92.6K 1m48s
  6050K .......... .......... .......... .......... .......... 30% 82.7K 1m48s
  6100K .......... .......... .......... .......... .......... 30%  152K 1m48s
  6150K .......... .......... .......... .......... .......... 31%  170K 1m47s
  6200K .......... .......... .......... .......... .......... 31%  127K 1m47s
  6250K .......... .......... .......... .......... .......... 31%  170K 1m46s
  6300K .......... .......... .......... .......... .......... 31%  163K 1m45s
  6350K .......... .......... .......... .......... .......... 32%  157K 1m45s
  6400K .......... .......... .......... .......... .......... 32%  158K 1m44s
  6450K .......... .......... .......... .......... .......... 32%  178K 1m44s
  6500K .......... .......... .......... .......... .......... 32%  112K 1m43s
  6550K .......... .......... .......... .......... .......... 33% 85.1K 1m44s
  6600K .......... .......... .......... .......... .......... 33% 94.0K 1m43s
  6650K .......... .......... .......... .......... .......... 33%  151K 1m43s
  6700K .......... .......... .......... .......... .......... 33%  134K 1m43s
  6750K .......... .......... .......... .......... .......... 34%  178K 1m42s
  6800K .......... .......... .......... .......... .......... 34%  301K 1m41s
  6850K .......... .......... .......... .......... .......... 34%  148K 1m41s
  6900K .......... .......... .......... .......... .......... 34%  185K 1m40s
  6950K .......... .......... .......... .......... .......... 35%  135K 1m40s
  7000K .......... .......... .......... .......... .......... 35% 62.9K 1m40s
  7050K .......... .......... .......... .......... .......... 35%  290K 99s
  7100K .......... .......... .......... .......... .......... 35%  151K 99s
  7150K .......... .......... .......... .......... .......... 36% 76.0K 99s
  7200K .......... .......... .......... .......... .......... 36%  138K 98s
  7250K .......... .......... .......... .......... .......... 36%  128K 98s
  7300K .......... .......... .......... .......... .......... 36%  131K 98s
  7350K .......... .......... .......... .......... .......... 37% 75.7K 98s
  7400K .......... .......... .......... .......... .......... 37% 85.6K 98s
  7450K .......... .......... .......... .......... .......... 37% 82.0K 98s
  7500K .......... .......... .......... .......... .......... 37%  104K 97s
  7550K .......... .......... .......... .......... .......... 38%  148K 97s
  7600K .......... .......... .......... .......... .......... 38%  127K 97s
  7650K .......... .......... .......... .......... .......... 38%  113K 96s
  7700K .......... .......... .......... .......... .......... 38%  117K 96s
  7750K .......... .......... .......... .......... .......... 39%  106K 96s
  7800K .......... .......... .......... .......... .......... 39%  110K 95s
  7850K .......... .......... .......... .......... .......... 39%  102K 95s
  7900K .......... .......... .......... .......... .......... 39%  169K 95s
  7950K .......... .......... .......... .......... .......... 40% 84.7K 94s
  8000K .......... .......... .......... .......... .......... 40% 67.3K 95s
  8050K .......... .......... .......... .......... .......... 40%  517K 94s
  8100K .......... .......... .......... .......... .......... 40% 71.7K 94s
  8150K .......... .......... .......... .......... .......... 41%  164K 93s
  8200K .......... .......... .......... .......... .......... 41%  131K 93s
  8250K .......... .......... .......... .......... .......... 41%  160K 92s
  8300K .......... .......... .......... .......... .......... 41%  179K 92s
  8350K .......... .......... .......... .......... .......... 42%  166K 91s
  8400K .......... .......... .......... .......... .......... 42%  130K 91s
  8450K .......... .......... .......... .......... .......... 42% 61.9K 91s
  8500K .......... .......... .......... .......... .......... 42%  270K 90s
  8550K .......... .......... .......... .......... .......... 43%  157K 90s
  8600K .......... .......... .......... .......... .......... 43%  204K 89s
  8650K .......... .......... .......... .......... .......... 43%  269K 89s
  8700K .......... .......... .......... .......... .......... 43%  247K 88s
  8750K .......... .......... .......... .......... .......... 44%  245K 87s
  8800K .......... .......... .......... .......... .......... 44%  215K 87s
  8850K .......... .......... .......... .......... .......... 44%  204K 86s
  8900K .......... .......... .......... .......... .......... 44%  202K 86s
  8950K .......... .......... .......... .......... .......... 45%  146K 85s
  9000K .......... .......... .......... .......... .......... 45%  125K 85s
  9050K .......... .......... .......... .......... .......... 45% 98.2K 85s
  9100K .......... .......... .......... .......... .......... 45%  127K 84s
  9150K .......... .......... .......... .......... .......... 46%  121K 84s
  9200K .......... .......... .......... .......... .......... 46%  114K 84s
  9250K .......... .......... .......... .......... .......... 46%  204K 83s
  9300K .......... .......... .......... .......... .......... 46%  205K 82s
  9350K .......... .......... .......... .......... .......... 47%  168K 82s
  9400K .......... .......... .......... .......... .......... 47%  161K 81s
  9450K .......... .......... .......... .......... .......... 47%  125K 81s
  9500K .......... .......... .......... .......... .......... 47%  126K 81s
  9550K .......... .......... .......... .......... .......... 48%  187K 80s
  9600K .......... .......... .......... .......... .......... 48%  179K 80s
  9650K .......... .......... .......... .......... .......... 48%  268K 79s
  9700K .......... .......... .......... .......... .......... 48%  185K 79s
  9750K .......... .......... .......... .......... .......... 49%  201K 78s
  9800K .......... .......... .......... .......... .......... 49%  101K 78s
  9850K .......... .......... .......... .......... .......... 49%  254K 77s
  9900K .......... .......... .......... .......... .......... 49%  113K 77s
  9950K .......... .......... .......... .......... .......... 50%  140K 76s
 10000K .......... .......... .......... .......... .......... 50%  146K 76s
 10050K .......... .......... .......... .......... .......... 50%  164K 76s
 10100K .......... .......... .......... .......... .......... 50%  147K 75s
 10150K .......... .......... .......... .......... .......... 51%  108K 75s
 10200K .......... .......... .......... .......... .......... 51%  103K 75s
 10250K .......... .......... .......... .......... .......... 51% 62.1K 75s
 10300K .......... .......... .......... .......... .......... 51% 79.2K 74s
 10350K .......... .......... .......... .......... .......... 52%  118K 74s
 10400K .......... .......... .......... .......... .......... 52%  101K 74s
 10450K .......... .......... .......... .......... .......... 52% 77.6K 74s
 10500K .......... .......... .......... .......... .......... 52%  133K 73s
 10550K .......... .......... .......... .......... .......... 53%  159K 73s
 10600K .......... .......... .......... .......... .......... 53%  146K 72s
 10650K .......... .......... .......... .......... .......... 53%  162K 72s
 10700K .......... .......... .......... .......... .......... 53%  150K 71s
 10750K .......... .......... .......... .......... .......... 54%  112K 71s
 10800K .......... .......... .......... .......... .......... 54% 91.1K 71s
 10850K .......... .......... .......... .......... .......... 54%  129K 71s
 10900K .......... .......... .......... .......... .......... 54% 80.0K 70s
 10950K .......... .......... .......... .......... .......... 55%  193K 70s
 11000K .......... .......... .......... .......... .......... 55% 85.9K 70s
 11050K .......... .......... .......... .......... .......... 55%  151K 69s
 11100K .......... .......... .......... .......... .......... 55%  100K 69s
 11150K .......... .......... .......... .......... .......... 56%  146K 68s
 11200K .......... .......... .......... .......... .......... 56%  145K 68s
 11250K .......... .......... .......... .......... .......... 56%  106K 68s
 11300K .......... .......... .......... .......... .......... 56%  151K 67s
 11350K .......... .......... .......... .......... .......... 57%  385K 67s
 11400K .......... .......... .......... .......... .......... 57%  127K 66s
 11450K .......... .......... .......... .......... .......... 57%  113K 66s
 11500K .......... .......... .......... .......... .......... 57%  108K 66s
 11550K .......... .......... .......... .......... .......... 58% 69.9K 65s
 11600K .......... .......... .......... .......... .......... 58%  144K 65s
 11650K .......... .......... .......... .......... .......... 58%  114K 65s
 11700K .......... .......... .......... .......... .......... 58%  130K 64s
 11750K .......... .......... .......... .......... .......... 59%  176K 64s
 11800K .......... .......... .......... .......... .......... 59%  170K 63s
 11850K .......... .......... .......... .......... .......... 59%  183K 63s
 11900K .......... .......... .......... .......... .......... 59%  137K 63s
 11950K .......... .......... .......... .......... .......... 60%  116K 62s
 12000K .......... .......... .......... .......... .......... 60%  111K 62s
 12050K .......... .......... .......... .......... .......... 60%  127K 61s
 12100K .......... .......... .......... .......... .......... 60%  204K 61s
 12150K .......... .......... .......... .......... .......... 61%  139K 61s
 12200K .......... .......... .......... .......... .......... 61%  111K 60s
 12250K .......... .......... .......... .......... .......... 61%  120K 60s
 12300K .......... .......... .......... .......... .......... 61%  160K 59s
 12350K .......... .......... .......... .......... .......... 62%  127K 59s
 12400K .......... .......... .......... .......... .......... 62%  102K 59s
 12450K .......... .......... .......... .......... .......... 62% 92.0K 58s
 12500K .......... .......... .......... .......... .......... 62% 96.8K 58s
 12550K .......... .......... .......... .......... .......... 63%  178K 58s
 12600K .......... .......... .......... .......... .......... 63%  126K 57s
 12650K .......... .......... .......... .......... .......... 63%  219K 57s
 12700K .......... .......... .......... .......... .......... 63%  233K 56s
 12750K .......... .......... .......... .......... .......... 64%  145K 56s
 12800K .......... .......... .......... .......... .......... 64%  204K 55s
 12850K .......... .......... .......... .......... .......... 64%  169K 55s
 12900K .......... .......... .......... .......... .......... 64%  102K 55s
 12950K .......... .......... .......... .......... .......... 65%  128K 54s
 13000K .......... .......... .......... .......... .......... 65% 68.4K 54s
 13050K .......... .......... .......... .......... .......... 65%  100K 54s
 13100K .......... .......... .......... .......... .......... 65%  160K 53s
 13150K .......... .......... .......... .......... .......... 66%  128K 53s
 13200K .......... .......... .......... .......... .......... 66%  104K 53s
 13250K .......... .......... .......... .......... .......... 66%  102K 52s
 13300K .......... .......... .......... .......... .......... 66%  170K 52s
 13350K .......... .......... .......... .......... .......... 67%  145K 51s
 13400K .......... .......... .......... .......... .......... 67%  144K 51s
 13450K .......... .......... .......... .......... .......... 67%  150K 51s
 13500K .......... .......... .......... .......... .......... 67%  173K 50s
 13550K .......... .......... .......... .......... .......... 68%  119K 50s
 13600K .......... .......... .......... .......... .......... 68%  108K 49s
 13650K .......... .......... .......... .......... .......... 68% 94.2K 49s
 13700K .......... .......... .......... .......... .......... 68%  164K 49s
 13750K .......... .......... .......... .......... .......... 69%  139K 48s
 13800K .......... .......... .......... .......... .......... 69%  129K 48s
 13850K .......... .......... .......... .......... .......... 69%  114K 47s
 13900K .......... .......... .......... .......... .......... 69% 56.8K 47s
 13950K .......... .......... .......... .......... .......... 70%  102K 47s
 14000K .......... .......... .......... .......... .......... 70% 86.0K 47s
 14050K .......... .......... .......... .......... .......... 70%  140K 46s
 14100K .......... .......... .......... .......... .......... 70%  128K 46s
 14150K .......... .......... .......... .......... .......... 71%  169K 45s
 14200K .......... .......... .......... .......... .......... 71%  169K 45s
 14250K .......... .......... .......... .......... .......... 71%  111K 45s
 14300K .......... .......... .......... .......... .......... 71% 69.9K 44s
 14350K .......... .......... .......... .......... .......... 72%  187K 44s
 14400K .......... .......... .......... .......... .......... 72% 86.3K 44s
 14450K .......... .......... .......... .......... .......... 72%  600K 43s
 14500K .......... .......... .......... .......... .......... 72%  158K 43s
 14550K .......... .......... .......... .......... .......... 73%  148K 42s
 14600K .......... .......... .......... .......... .......... 73%  152K 42s
 14650K .......... .......... .......... .......... .......... 73%  120K 41s
 14700K .......... .......... .......... .......... .......... 73%  162K 41s
 14750K .......... .......... .......... .......... .......... 74%  127K 41s
 14800K .......... .......... .......... .......... .......... 74%  109K 40s
 14850K .......... .......... .......... .......... .......... 74%  217K 40s
 14900K .......... .......... .......... .......... .......... 74%  202K 39s
 14950K .......... .......... .......... .......... .......... 75%  140K 39s
 15000K .......... .......... .......... .......... .......... 75% 98.0K 39s
 15050K .......... .......... .......... .......... .......... 75%  117K 38s
 15100K .......... .......... .......... .......... .......... 75%  112K 38s
 15150K .......... .......... .......... .......... .......... 76%  174K 37s
 15200K .......... .......... .......... .......... .......... 76%  145K 37s
 15250K .......... .......... .......... .......... .......... 76%  116K 37s
 15300K .......... .......... .......... .......... .......... 76%  101K 36s
 15350K .......... .......... .......... .......... .......... 77%  170K 36s
 15400K .......... .......... .......... .......... .......... 77%  127K 35s
 15450K .......... .......... .......... .......... .......... 77%  201K 35s
 15500K .......... .......... .......... .......... .......... 77%  148K 35s
 15550K .......... .......... .......... .......... .......... 78%  116K 34s
 15600K .......... .......... .......... .......... .......... 78%  102K 34s
 15650K .......... .......... .......... .......... .......... 78%  155K 34s
 15700K .......... .......... .......... .......... .......... 78%  121K 33s
 15750K .......... .......... .......... .......... .......... 79%  127K 33s
 15800K .......... .......... .......... .......... .......... 79% 90.4K 32s
 15850K .......... .......... .......... .......... .......... 79%  102K 32s
 15900K .......... .......... .......... .......... .......... 79%  170K 32s
 15950K .......... .......... .......... .......... .......... 80%  204K 31s
 16000K .......... .......... .......... .......... .......... 80%  145K 31s
 16050K .......... .......... .......... .......... .......... 80%  141K 30s
 16100K .......... .......... .......... .......... .......... 80%  121K 30s
 16150K .......... .......... .......... .......... .......... 81%  105K 30s
 16200K .......... .......... .......... .......... .......... 81% 83.8K 29s
 16250K .......... .......... .......... .......... .......... 81%  140K 29s
 16300K .......... .......... .......... .......... .......... 81%  127K 29s
 16350K .......... .......... .......... .......... .......... 82%  101K 28s
 16400K .......... .......... .......... .......... .......... 82%  255K 28s
 16450K .......... .......... .......... .......... .......... 82%  176K 27s
 16500K .......... .......... .......... .......... .......... 82%  131K 27s
 16550K .......... .......... .......... .......... .......... 83%  162K 26s
 16600K .......... .......... .......... .......... .......... 83%  120K 26s
 16650K .......... .......... .......... .......... .......... 83% 78.7K 26s
 16700K .......... .......... .......... .......... .......... 83%  184K 25s
 16750K .......... .......... .......... .......... .......... 84%  129K 25s
 16800K .......... .......... .......... .......... .......... 84%  107K 25s
 16850K .......... .......... .......... .......... .......... 84%  128K 24s
 16900K .......... .......... .......... .......... .......... 84%  119K 24s
 16950K .......... .......... .......... .......... .......... 85%  102K 23s
 17000K .......... .......... .......... .......... .......... 85%  123K 23s
 17050K .......... .......... .......... .......... .......... 85%  101K 23s
 17100K .......... .......... .......... .......... .......... 85%  120K 22s
 17150K .......... .......... .......... .......... .......... 86%  161K 22s
 17200K .......... .......... .......... .......... .......... 86%  114K 22s
 17250K .......... .......... .......... .......... .......... 86%  132K 21s
 17300K .......... .......... .......... .......... .......... 86%  127K 21s
 17350K .......... .......... .......... .......... .......... 87%  104K 20s
 17400K .......... .......... .......... .......... .......... 87%  113K 20s
 17450K .......... .......... .......... .......... .......... 87%  129K 20s
 17500K .......... .......... .......... .......... .......... 87%  128K 19s
 17550K .......... .......... .......... .......... .......... 88%  127K 19s
 17600K .......... .......... .......... .......... .......... 88%  135K 18s
 17650K .......... .......... .......... .......... .......... 88% 74.1K 18s
 17700K .......... .......... .......... .......... .......... 88%  180K 18s
 17750K .......... .......... .......... .......... .......... 89%  151K 17s
 17800K .......... .......... .......... .......... .......... 89%  107K 17s
 17850K .......... .......... .......... .......... .......... 89%  145K 16s
 17900K .......... .......... .......... .......... .......... 89%  162K 16s
 17950K .......... .......... .......... .......... .......... 90%  117K 16s
 18000K .......... .......... .......... .......... .......... 90%  113K 15s
 18050K .......... .......... .......... .......... .......... 90%  128K 15s
 18100K .......... .......... .......... .......... .......... 90%  110K 14s
 18150K .......... .......... .......... .......... .......... 91%  180K 14s
 18200K .......... .......... .......... .......... .......... 91%  128K 14s
 18250K .......... .......... .......... .......... .......... 91%  170K 13s
 18300K .......... .......... .......... .......... .......... 91%  149K 13s
 18350K .......... .......... .......... .......... .......... 92%  173K 13s
 18400K .......... .......... .......... .......... .......... 92%  135K 12s
 18450K .......... .......... .......... .......... .......... 92%  175K 12s
 18500K .......... .......... .......... .......... .......... 92%  174K 11s
 18550K .......... .......... .......... .......... .......... 93%  174K 11s
 18600K .......... .......... .......... .......... .......... 93% 84.1K 11s
 18650K .......... .......... .......... .......... .......... 93%  203K 10s
 18700K .......... .......... .......... .......... .......... 93%  258K 10s
 18750K .......... .......... .......... .......... .......... 94%  125K 9s
 18800K .......... .......... .......... .......... .......... 94%  153K 9s
 18850K .......... .......... .......... .......... .......... 94%  180K 9s
 18900K .......... .......... .......... .......... .......... 94%  140K 8s
 18950K .......... .......... .......... .......... .......... 95%  105K 8s
 19000K .......... .......... .......... .......... .......... 95%  139K 7s
 19050K .......... .......... .......... .......... .......... 95%  149K 7s
 19100K .......... .......... .......... .......... .......... 95% 93.0K 7s
 19150K .......... .......... .......... .......... .......... 96%  128K 6s
 19200K .......... .......... .......... .......... .......... 96%  109K 6s
 19250K .......... .......... .......... .......... .......... 96% 72.5K 5s
 19300K .......... .......... .......... .......... .......... 96%  144K 5s
 19350K .......... .......... .......... .......... .......... 97% 61.0K 5s
 19400K .......... .......... .......... .......... .......... 97% 2.80M 4s
 19450K .......... .......... .......... .......... .......... 97%  257K 4s
 19500K .......... .......... .......... .......... .......... 97%  127K 4s
 19550K .......... .......... .......... .......... .......... 98%  169K 3s
 19600K .......... .......... .......... .......... .......... 98%  122K 3s
 19650K .......... .......... .......... .......... .......... 98%  169K 2s
 19700K .......... .......... .......... .......... .......... 98%  228K 2s
 19750K .......... .......... .......... .......... .......... 99%  111K 2s
 19800K .......... .......... .......... .......... .......... 99%  128K 1s
 19850K .......... .......... .......... .......... .......... 99%  177K 1s
 19900K .......... .......... .......... .......... .......... 99%  205K 0s
 19950K .......... .......... .......... .......... ..........100%  193K 0s
 20000K                                                       100% 0.00 =2m35s

2020-07-22 21:57:08 (129 KB/s) - ‘random.1’ saved [20480000/20480000]


real	2m35.563s
user	0m2.508s
sys	0m1.566s
