Serving new connection: a85b2871c3f2082c, version 512 from 10.0.0.1:48120
GET 10.1.0.1:6121/ugfiugizuegiugzeffg
Responding with 404
Info for stream 5 of a85b2871c3f2082c
Path 1: sent 5 retrans 0 lost 0; rcv 2 rtt 0s
Path 0: sent 7 retrans 0 lost 0; rcv 7 rtt 64.518ms
Serving new connection: 4f21816a24cceecf, version 512 from 10.0.0.1:44425
Info for stream 5 of a85b2871c3f2082c
Path 0: sent 7 retrans 0 lost 0; rcv 8 rtt 64.518ms
Path 1: sent 7 retrans 1 lost 0; rcv 4 rtt 52.236ms
Path 3: sent 2 retrans 0 lost 0; rcv 2 rtt 0s
Info for stream 5 of a85b2871c3f2082c
Path 0: sent 7 retrans 0 lost 0; rcv 8 rtt 64.518ms
Path 1: sent 8 retrans 2 lost 0; rcv 4 rtt 52.236ms
Path 3: sent 2 retrans 0 lost 0; rcv 2 rtt 0s
GET 10.1.0.1:6121/random
Responding with 200
Info for stream 5 of a85b2871c3f2082c
Path 0: sent 7 retrans 0 lost 0; rcv 8 rtt 64.518ms
Path 1: sent 8 retrans 3 lost 1; rcv 4 rtt 52.236ms
Path 3: sent 3 retrans 0 lost 0; rcv 2 rtt 0s
Internal error: Too many outstanding non-acked and non-retransmitted packets
Closing session with error: Too many outstanding non-acked and non-retransmitted packets
Info for stream 5 of 4f21816a24cceecf
Path 1: sent 11480 retrans 526 lost 522; rcv 5949 rtt 51.061ms
Path 3: sent 5526 retrans 318 lost 292; rcv 2900 rtt 85.225ms
Path 0: sent 5 retrans 1 lost 0; rcv 5 rtt 160.043104ms
