--2020-07-27 23:33:41--  https://10.1.0.1/random
Connecting to 10.1.0.1:443... connected.
WARNING: cannot verify 10.1.0.1's certificate, issued by ‘/C=BE/ST=LLN/O=Internet Widgits Pty Ltd’:
  Self-signed certificate encountered.
    WARNING: certificate common name ‘’ doesn't match requested host name ‘10.1.0.1’.
HTTP request sent, awaiting response... 200 OK
Length: 20480000 (20M) [application/octet-stream]
Saving to: ‘random.1’

     0K .......... .......... .......... .......... ..........  0%  480K 42s
    50K .......... .......... .......... .......... ..........  0%  260K 59s
   100K .......... .......... .......... .......... ..........  0%  301K 61s
   150K .......... .......... .......... .......... ..........  1%  300K 62s
   200K .......... .......... .......... .......... ..........  1%  595K 56s
   250K .......... .......... .......... .......... ..........  1%  613K 52s
   300K .......... .......... .......... .......... ..........  1%  587K 49s
   350K .......... .......... .......... .......... ..........  2%  299K 51s
   400K .......... .......... .......... .......... ..........  2%  161K 59s
   450K .......... .......... .......... .......... ..........  2%  145K 66s
   500K .......... .......... .......... .......... ..........  2%  126K 74s
   550K .......... .......... .......... .......... ..........  3%  188K 76s
   600K .......... .......... .......... .......... ..........  3%  140K 81s
   650K .......... .......... .......... .......... ..........  3%  129K 86s
   700K .......... .......... .......... .......... ..........  3%  115K 91s
   750K .......... .......... .......... .......... ..........  4%  126K 95s
   800K .......... .......... .......... .......... ..........  4% 80.1K 1m43s
   850K .......... .......... .......... .......... ..........  4%  342K 1m40s
   900K .......... .......... .......... .......... ..........  4% 90.8K 1m46s
   950K .......... .......... .......... .......... ..........  5% 92.3K 1m50s
  1000K .......... .......... .......... .......... ..........  5%  217K 1m49s
  1050K .......... .......... .......... .......... ..........  5%  123K 1m51s
  1100K .......... .......... .......... .......... ..........  5% 74.4K 1m57s
  1150K .......... .......... .......... .......... ..........  6%  139K 1m57s
  1200K .......... .......... .......... .......... ..........  6%  131K 1m58s
  1250K .......... .......... .......... .......... ..........  6%  174K 1m57s
  1300K .......... .......... .......... .......... ..........  6% 90.3K 2m0s
  1350K .......... .......... .......... .......... ..........  7%  611K 1m57s
  1400K .......... .......... .......... .......... ..........  7%  201K 1m55s
  1450K .......... .......... .......... .......... ..........  7%  187K 1m55s
  1500K .......... .......... .......... .......... ..........  7%  145K 1m55s
  1550K .......... .......... .......... .......... ..........  8%  162K 1m54s
  1600K .......... .......... .......... .......... ..........  8% 98.5K 1m56s
  1650K .......... .......... .......... .......... ..........  8% 90.4K 1m59s
  1700K .......... .......... .......... .......... ..........  8%  150K 1m58s
  1750K .......... .......... .......... .......... ..........  9%  133K 1m58s
  1800K .......... .......... .......... .......... ..........  9% 92.9K 2m0s
  1850K .......... .......... .......... .......... ..........  9%  127K 2m1s
  1900K .......... .......... .......... .......... ..........  9%  223K 1m59s
  1950K .......... .......... .......... .......... .......... 10%  229K 1m58s
  2000K .......... .......... .......... .......... .......... 10%  169K 1m57s
  2050K .......... .......... .......... .......... .......... 10%  203K 1m56s
  2100K .......... .......... .......... .......... .......... 10%  156K 1m56s
  2150K .......... .......... .......... .......... .......... 11%  110K 1m57s
  2200K .......... .......... .......... .......... .......... 11%  119K 1m57s
  2250K .......... .......... .......... .......... .......... 11% 94.1K 1m58s
  2300K .......... .......... .......... .......... .......... 11%  150K 1m58s
  2350K .......... .......... .......... .......... .......... 12% 75.3K 2m0s
  2400K .......... .......... .......... .......... .......... 12%  145K 2m0s
  2450K .......... .......... .......... .......... .......... 12%  108K 2m0s
  2500K .......... .......... .......... .......... .......... 12%  163K 2m0s
  2550K .......... .......... .......... .......... .......... 13%  140K 1m59s
  2600K .......... .......... .......... .......... .......... 13% 77.3K 2m1s
  2650K .......... .......... .......... .......... .......... 13%  187K 2m0s
  2700K .......... .......... .......... .......... .......... 13%  120K 2m0s
  2750K .......... .......... .......... .......... .......... 14%  197K 1m59s
  2800K .......... .......... .......... .......... .......... 14%  203K 1m58s
  2850K .......... .......... .......... .......... .......... 14%  127K 1m58s
  2900K .......... .......... .......... .......... .......... 14%  124K 1m58s
  2950K .......... .......... .......... .......... .......... 15%  125K 1m58s
  3000K .......... .......... .......... .......... .......... 15%  148K 1m58s
  3050K .......... .......... .......... .......... .......... 15%  202K 1m57s
  3100K .......... .......... .......... .......... .......... 15%  133K 1m57s
  3150K .......... .......... .......... .......... .......... 16%  125K 1m57s
  3200K .......... .......... .......... .......... .......... 16%  126K 1m57s
  3250K .......... .......... .......... .......... .......... 16% 94.7K 1m57s
  3300K .......... .......... .......... .......... .......... 16%  100K 1m57s
  3350K .......... .......... .......... .......... .......... 17% 69.8K 1m59s
  3400K .......... .......... .......... .......... .......... 17% 94.3K 1m59s
  3450K .......... .......... .......... .......... .......... 17% 97.3K 2m0s
  3500K .......... .......... .......... .......... .......... 17%  175K 1m59s
  3550K .......... .......... .......... .......... .......... 18%  143K 1m59s
  3600K .......... .......... .......... .......... .......... 18%  131K 1m58s
  3650K .......... .......... .......... .......... .......... 18%  132K 1m58s
  3700K .......... .......... .......... .......... .......... 18%  125K 1m58s
  3750K .......... .......... .......... .......... .......... 19%  121K 1m58s
  3800K .......... .......... .......... .......... .......... 19% 90.0K 1m58s
  3850K .......... .......... .......... .......... .......... 19%  166K 1m58s
  3900K .......... .......... .......... .......... .......... 19%  150K 1m57s
  3950K .......... .......... .......... .......... .......... 20%  151K 1m57s
  4000K .......... .......... .......... .......... .......... 20%  149K 1m56s
  4050K .......... .......... .......... .......... .......... 20% 75.5K 1m57s
  4100K .......... .......... .......... .......... .......... 20%  403K 1m56s
  4150K .......... .......... .......... .......... .......... 21% 84.9K 1m56s
  4200K .......... .......... .......... .......... .......... 21%  101K 1m56s
  4250K .......... .......... .......... .......... .......... 21%  129K 1m56s
  4300K .......... .......... .......... .......... .......... 21% 95.6K 1m56s
  4350K .......... .......... .......... .......... .......... 22%  113K 1m56s
  4400K .......... .......... .......... .......... .......... 22%  201K 1m55s
  4450K .......... .......... .......... .......... .......... 22%  159K 1m55s
  4500K .......... .......... .......... .......... .......... 22%  128K 1m54s
  4550K .......... .......... .......... .......... .......... 23%  138K 1m54s
  4600K .......... .......... .......... .......... .......... 23% 95.4K 1m54s
  4650K .......... .......... .......... .......... .......... 23% 65.8K 1m55s
  4700K .......... .......... .......... .......... .......... 23% 1.10M 1m53s
  4750K .......... .......... .......... .......... .......... 24%  170K 1m53s
  4800K .......... .......... .......... .......... .......... 24%  112K 1m53s
  4850K .......... .......... .......... .......... .......... 24%  151K 1m52s
  4900K .......... .......... .......... .......... .......... 24% 96.2K 1m52s
  4950K .......... .......... .......... .......... .......... 25%  201K 1m52s
  5000K .......... .......... .......... .......... .......... 25%  150K 1m51s
  5050K .......... .......... .......... .......... .......... 25%  101K 1m51s
  5100K .......... .......... .......... .......... .......... 25%  363K 1m50s
  5150K .......... .......... .......... .......... .......... 26%  197K 1m49s
  5200K .......... .......... .......... .......... .......... 26% 87.7K 1m49s
  5250K .......... .......... .......... .......... .......... 26%  321K 1m48s
  5300K .......... .......... .......... .......... .......... 26%  181K 1m48s
  5350K .......... .......... .......... .......... .......... 27%  254K 1m47s
  5400K .......... .......... .......... .......... .......... 27%  127K 1m47s
  5450K .......... .......... .......... .......... .......... 27%  203K 1m46s
  5500K .......... .......... .......... .......... .......... 27%  129K 1m46s
  5550K .......... .......... .......... .......... .......... 28%  131K 1m45s
  5600K .......... .......... .......... .......... .......... 28%  151K 1m45s
  5650K .......... .......... .......... .......... .......... 28%  148K 1m45s
  5700K .......... .......... .......... .......... .......... 28% 86.7K 1m45s
  5750K .......... .......... .......... .......... .......... 29%  192K 1m44s
  5800K .......... .......... .......... .......... .......... 29%  103K 1m44s
  5850K .......... .......... .......... .......... .......... 29%  127K 1m44s
  5900K .......... .......... .......... .......... .......... 29%  101K 1m44s
  5950K .......... .......... .......... .......... .......... 30%  154K 1m43s
  6000K .......... .......... .......... .......... .......... 30%  141K 1m43s
  6050K .......... .......... .......... .......... .......... 30%  144K 1m42s
  6100K .......... .......... .......... .......... .......... 30%  144K 1m42s
  6150K .......... .......... .......... .......... .......... 31%  135K 1m42s
  6200K .......... .......... .......... .......... .......... 31% 65.8K 1m42s
  6250K .......... .......... .......... .......... .......... 31%  118K 1m42s
  6300K .......... .......... .......... .......... .......... 31%  148K 1m41s
  6350K .......... .......... .......... .......... .......... 32%  137K 1m41s
  6400K .......... .......... .......... .......... .......... 32%  156K 1m40s
  6450K .......... .......... .......... .......... .......... 32%  164K 1m40s
  6500K .......... .......... .......... .......... .......... 32%  105K 1m40s
  6550K .......... .......... .......... .......... .......... 33%  145K 99s
  6600K .......... .......... .......... .......... .......... 33% 78.3K 1m40s
  6650K .......... .......... .......... .......... .......... 33%  112K 99s
  6700K .......... .......... .......... .......... .......... 33% 91.4K 99s
  6750K .......... .......... .......... .......... .......... 34%  139K 99s
  6800K .......... .......... .......... .......... .......... 34%  120K 99s
  6850K .......... .......... .......... .......... .......... 34%  203K 98s
  6900K .......... .......... .......... .......... .......... 34%  111K 98s
  6950K .......... .......... .......... .......... .......... 35%  218K 97s
  7000K .......... .......... .......... .......... .......... 35%  127K 97s
  7050K .......... .......... .......... .......... .......... 35%  119K 96s
  7100K .......... .......... .......... .......... .......... 35%  299K 96s
  7150K .......... .......... .......... .......... .......... 36%  152K 95s
  7200K .......... .......... .......... .......... .......... 36%  199K 95s
  7250K .......... .......... .......... .......... .......... 36% 84.7K 95s
  7300K .......... .......... .......... .......... .......... 36%  256K 94s
  7350K .......... .......... .......... .......... .......... 37% 86.8K 94s
  7400K .......... .......... .......... .......... .......... 37% 82.8K 94s
  7450K .......... .......... .......... .......... .......... 37%  161K 94s
  7500K .......... .......... .......... .......... .......... 37%  204K 93s
  7550K .......... .......... .......... .......... .......... 38%  121K 93s
  7600K .......... .......... .......... .......... .......... 38%  134K 92s
  7650K .......... .......... .......... .......... .......... 38%  112K 92s
  7700K .......... .......... .......... .......... .......... 38%  587K 91s
  7750K .......... .......... .......... .......... .......... 39%  101K 91s
  7800K .......... .......... .......... .......... .......... 39%  120K 91s
  7850K .......... .......... .......... .......... .......... 39% 67.0K 91s
  7900K .......... .......... .......... .......... .......... 39%  172K 90s
  7950K .......... .......... .......... .......... .......... 40%  172K 90s
  8000K .......... .......... .......... .......... .......... 40%  150K 89s
  8050K .......... .......... .......... .......... .......... 40% 66.4K 90s
  8100K .......... .......... .......... .......... .......... 40% 97.7K 89s
  8150K .......... .......... .......... .......... .......... 41%  102K 89s
  8200K .......... .......... .......... .......... .......... 41%  126K 89s
  8250K .......... .......... .......... .......... .......... 41%  109K 89s
  8300K .......... .......... .......... .......... .......... 41% 83.9K 89s
  8350K .......... .......... .......... .......... .......... 42%  133K 88s
  8400K .......... .......... .......... .......... .......... 42%  150K 88s
  8450K .......... .......... .......... .......... .......... 42%  124K 87s
  8500K .......... .......... .......... .......... .......... 42% 89.0K 87s
  8550K .......... .......... .......... .......... .......... 43%  172K 87s
  8600K .......... .......... .......... .......... .......... 43%  122K 86s
  8650K .......... .......... .......... .......... .......... 43%  132K 86s
  8700K .......... .......... .......... .......... .......... 43%  344K 85s
  8750K .......... .......... .......... .......... .......... 44%  149K 85s
  8800K .......... .......... .......... .......... .......... 44%  141K 84s
  8850K .......... .......... .......... .......... .......... 44%  197K 84s
  8900K .......... .......... .......... .......... .......... 44%  149K 84s
  8950K .......... .......... .......... .......... .......... 45%  146K 83s
  9000K .......... .......... .......... .......... .......... 45%  137K 83s
  9050K .......... .......... .......... .......... .......... 45%  204K 82s
  9100K .......... .......... .......... .......... .......... 45%  170K 82s
  9150K .......... .......... .......... .......... .......... 46% 78.1K 82s
  9200K .......... .......... .......... .......... .......... 46%  127K 81s
  9250K .......... .......... .......... .......... .......... 46% 98.5K 81s
  9300K .......... .......... .......... .......... .......... 46%  120K 81s
  9350K .......... .......... .......... .......... .......... 47%  137K 80s
  9400K .......... .......... .......... .......... .......... 47%  116K 80s
  9450K .......... .......... .......... .......... .......... 47%  145K 80s
  9500K .......... .......... .......... .......... .......... 47%  119K 79s
  9550K .......... .......... .......... .......... .......... 48%  186K 79s
  9600K .......... .......... .......... .......... .......... 48% 88.9K 79s
  9650K .......... .......... .......... .......... .......... 48%  151K 78s
  9700K .......... .......... .......... .......... .......... 48%  134K 78s
  9750K .......... .......... .......... .......... .......... 49%  128K 77s
  9800K .......... .......... .......... .......... .......... 49% 96.0K 77s
  9850K .......... .......... .......... .......... .......... 49%  375K 77s
  9900K .......... .......... .......... .......... .......... 49%  101K 76s
  9950K .......... .......... .......... .......... .......... 50%  204K 76s
 10000K .......... .......... .......... .......... .......... 50%  113K 75s
 10050K .......... .......... .......... .......... .......... 50%  203K 75s
 10100K .......... .......... .......... .......... .......... 50% 94.2K 75s
 10150K .......... .......... .......... .......... .......... 51%  260K 74s
 10200K .......... .......... .......... .......... .......... 51%  138K 74s
 10250K .......... .......... .......... .......... .......... 51%  180K 73s
 10300K .......... .......... .......... .......... .......... 51%  146K 73s
 10350K .......... .......... .......... .......... .......... 52%  198K 72s
 10400K .......... .......... .......... .......... .......... 52%  114K 72s
 10450K .......... .......... .......... .......... .......... 52%  146K 72s
 10500K .......... .......... .......... .......... .......... 52% 99.2K 71s
 10550K .......... .......... .......... .......... .......... 53%  114K 71s
 10600K .......... .......... .......... .......... .......... 53% 93.6K 71s
 10650K .......... .......... .......... .......... .......... 53%  133K 70s
 10700K .......... .......... .......... .......... .......... 53%  200K 70s
 10750K .......... .......... .......... .......... .......... 54%  154K 69s
 10800K .......... .......... .......... .......... .......... 54%  195K 69s
 10850K .......... .......... .......... .......... .......... 54%  150K 69s
 10900K .......... .......... .......... .......... .......... 54%  149K 68s
 10950K .......... .......... .......... .......... .......... 55%  140K 68s
 11000K .......... .......... .......... .......... .......... 55%  171K 67s
 11050K .......... .......... .......... .......... .......... 55%  201K 67s
 11100K .......... .......... .......... .......... .......... 55%  148K 66s
 11150K .......... .......... .......... .......... .......... 56%  145K 66s
 11200K .......... .......... .......... .......... .......... 56% 80.0K 66s
 11250K .......... .......... .......... .......... .......... 56%  120K 66s
 11300K .......... .......... .......... .......... .......... 56%  128K 65s
 11350K .......... .......... .......... .......... .......... 57%  145K 65s
 11400K .......... .......... .......... .......... .......... 57% 75.3K 65s
 11450K .......... .......... .......... .......... .......... 57%  419K 64s
 11500K .......... .......... .......... .......... .......... 57%  143K 64s
 11550K .......... .......... .......... .......... .......... 58%  204K 63s
 11600K .......... .......... .......... .......... .......... 58%  129K 63s
 11650K .......... .......... .......... .......... .......... 58%  165K 62s
 11700K .......... .......... .......... .......... .......... 58%  121K 62s
 11750K .......... .......... .......... .......... .......... 59%  128K 62s
 11800K .......... .......... .......... .......... .......... 59% 75.8K 61s
 11850K .......... .......... .......... .......... .......... 59%  288K 61s
 11900K .......... .......... .......... .......... .......... 59%  133K 61s
 11950K .......... .......... .......... .......... .......... 60%  117K 60s
 12000K .......... .......... .......... .......... .......... 60% 53.6K 60s
 12050K .......... .......... .......... .......... .......... 60%  180K 60s
 12100K .......... .......... .......... .......... .......... 60%  145K 59s
 12150K .......... .......... .......... .......... .......... 61%  145K 59s
 12200K .......... .......... .......... .......... .......... 61%  113K 59s
 12250K .......... .......... .......... .......... .......... 61%  127K 58s
 12300K .......... .......... .......... .......... .......... 61%  170K 58s
 12350K .......... .......... .......... .......... .......... 62%  113K 58s
 12400K .......... .......... .......... .......... .......... 62% 76.8K 57s
 12450K .......... .......... .......... .......... .......... 62%  127K 57s
 12500K .......... .......... .......... .......... .......... 62%  102K 57s
 12550K .......... .......... .......... .......... .......... 63% 79.8K 56s
 12600K .......... .......... .......... .......... .......... 63%  113K 56s
 12650K .......... .......... .......... .......... .......... 63%  170K 56s
 12700K .......... .......... .......... .......... .......... 63%  140K 55s
 12750K .......... .......... .......... .......... .......... 64%  127K 55s
 12800K .......... .......... .......... .......... .......... 64%  102K 55s
 12850K .......... .......... .......... .......... .......... 64%  120K 54s
 12900K .......... .......... .......... .......... .......... 64%  132K 54s
 12950K .......... .......... .......... .......... .......... 65%  180K 53s
 13000K .......... .......... .......... .......... .......... 65%  165K 53s
 13050K .......... .......... .......... .......... .......... 65%  120K 53s
 13100K .......... .......... .......... .......... .......... 65%  234K 52s
 13150K .......... .......... .......... .......... .......... 66%  127K 52s
 13200K .......... .......... .......... .......... .......... 66% 85.6K 51s
 13250K .......... .......... .......... .......... .......... 66%  163K 51s
 13300K .......... .......... .......... .......... .......... 66%  127K 51s
 13350K .......... .......... .......... .......... .......... 67%  131K 50s
 13400K .......... .......... .......... .......... .......... 67%  114K 50s
 13450K .......... .......... .......... .......... .......... 67%  159K 50s
 13500K .......... .......... .......... .......... .......... 67%  120K 49s
 13550K .......... .......... .......... .......... .......... 68%  468K 49s
 13600K .......... .......... .......... .......... .......... 68%  127K 48s
 13650K .......... .......... .......... .......... .......... 68%  152K 48s
 13700K .......... .......... .......... .......... .......... 68%  201K 47s
 13750K .......... .......... .......... .......... .......... 69% 67.1K 47s
 13800K .......... .......... .......... .......... .......... 69%  101K 47s
 13850K .......... .......... .......... .......... .......... 69%  145K 46s
 13900K .......... .......... .......... .......... .......... 69%  145K 46s
 13950K .......... .......... .......... .......... .......... 70%  127K 46s
 14000K .......... .......... .......... .......... .......... 70%  113K 45s
 14050K .......... .......... .......... .......... .......... 70% 91.3K 45s
 14100K .......... .......... .......... .......... .......... 70%  124K 45s
 14150K .......... .......... .......... .......... .......... 71%  120K 44s
 14200K .......... .......... .......... .......... .......... 71%  125K 44s
 14250K .......... .......... .......... .......... .......... 71%  105K 44s
 14300K .......... .......... .......... .......... .......... 71%  117K 43s
 14350K .......... .......... .......... .......... .......... 72%  135K 43s
 14400K .......... .......... .......... .......... .......... 72%  131K 42s
 14450K .......... .......... .......... .......... .......... 72%  127K 42s
 14500K .......... .......... .......... .......... .......... 72%  203K 42s
 14550K .......... .......... .......... .......... .......... 73%  201K 41s
 14600K .......... .......... .......... .......... .......... 73%  128K 41s
 14650K .......... .......... .......... .......... .......... 73%  179K 40s
 14700K .......... .......... .......... .......... .......... 73% 83.7K 40s
 14750K .......... .......... .......... .......... .......... 74% 84.9K 40s
 14800K .......... .......... .......... .......... .......... 74%  208K 39s
 14850K .......... .......... .......... .......... .......... 74%  140K 39s
 14900K .......... .......... .......... .......... .......... 74%  150K 39s
 14950K .......... .......... .......... .......... .......... 75%  178K 38s
 15000K .......... .......... .......... .......... .......... 75%  146K 38s
 15050K .......... .......... .......... .......... .......... 75% 80.6K 37s
 15100K .......... .......... .......... .......... .......... 75%  110K 37s
 15150K .......... .......... .......... .......... .......... 76%  165K 37s
 15200K .......... .......... .......... .......... .......... 76%  139K 36s
 15250K .......... .......... .......... .......... .......... 76%  178K 36s
 15300K .......... .......... .......... .......... .......... 76%  127K 36s
 15350K .......... .......... .......... .......... .......... 77%  113K 35s
 15400K .......... .......... .......... .......... .......... 77% 82.7K 35s
 15450K .......... .......... .......... .......... .......... 77%  185K 34s
 15500K .......... .......... .......... .......... .......... 77%  105K 34s
 15550K .......... .......... .......... .......... .......... 78%  165K 34s
 15600K .......... .......... .......... .......... .......... 78% 89.8K 33s
 15650K .......... .......... .......... .......... .......... 78%  148K 33s
 15700K .......... .......... .......... .......... .......... 78%  115K 33s
 15750K .......... .......... .......... .......... .......... 79%  113K 32s
 15800K .......... .......... .......... .......... .......... 79%  128K 32s
 15850K .......... .......... .......... .......... .......... 79% 62.2K 32s
 15900K .......... .......... .......... .......... .......... 79%  198K 31s
 15950K .......... .......... .......... .......... .......... 80%  115K 31s
 16000K .......... .......... .......... .......... .......... 80%  141K 30s
 16050K .......... .......... .......... .......... .......... 80%  131K 30s
 16100K .......... .......... .......... .......... .......... 80%  145K 30s
 16150K .......... .......... .......... .......... .......... 81%  143K 29s
 16200K .......... .......... .......... .......... .......... 81% 85.1K 29s
 16250K .......... .......... .......... .......... .......... 81%  102K 28s
 16300K .......... .......... .......... .......... .......... 81%  228K 28s
 16350K .......... .......... .......... .......... .......... 82%  151K 28s
 16400K .......... .......... .......... .......... .......... 82%  107K 27s
 16450K .......... .......... .......... .......... .......... 82%  170K 27s
 16500K .......... .......... .......... .......... .......... 82%  203K 26s
 16550K .......... .......... .......... .......... .......... 83%  128K 26s
 16600K .......... .......... .......... .......... .......... 83% 81.8K 26s
 16650K .......... .......... .......... .......... .......... 83%  145K 25s
 16700K .......... .......... .......... .......... .......... 83%  113K 25s
 16750K .......... .......... .......... .......... .......... 84%  121K 25s
 16800K .......... .......... .......... .......... .......... 84%  146K 24s
 16850K .......... .......... .......... .......... .......... 84%  109K 24s
 16900K .......... .......... .......... .......... .......... 84%  276K 23s
 16950K .......... .......... .......... .......... .......... 85%  145K 23s
 17000K .......... .......... .......... .......... .......... 85%  177K 23s
 17050K .......... .......... .......... .......... .......... 85%  145K 22s
 17100K .......... .......... .......... .......... .......... 85% 53.0K 22s
 17150K .......... .......... .......... .......... .......... 86%  435K 22s
 17200K .......... .......... .......... .......... .......... 86%  102K 21s
 17250K .......... .......... .......... .......... .......... 86%  131K 21s
 17300K .......... .......... .......... .......... .......... 86% 89.0K 20s
 17350K .......... .......... .......... .......... .......... 87%  224K 20s
 17400K .......... .......... .......... .......... .......... 87%  125K 20s
 17450K .......... .......... .......... .......... .......... 87% 84.6K 19s
 17500K .......... .......... .......... .......... .......... 87%  127K 19s
 17550K .......... .......... .......... .......... .......... 88% 97.8K 19s
 17600K .......... .......... .......... .......... .......... 88%  121K 18s
 17650K .......... .......... .......... .......... .......... 88%  169K 18s
 17700K .......... .......... .......... .......... .......... 88%  176K 17s
 17750K .......... .......... .......... .......... .......... 89%  149K 17s
 17800K .......... .......... .......... .......... .......... 89% 94.5K 17s
 17850K .......... .......... .......... .......... .......... 89%  151K 16s
 17900K .......... .......... .......... .......... .......... 89%  108K 16s
 17950K .......... .......... .......... .......... .......... 90%  124K 15s
 18000K .......... .......... .......... .......... .......... 90% 92.9K 15s
 18050K .......... .......... .......... .......... .......... 90% 65.6K 15s
 18100K .......... .......... .......... .......... .......... 90%  189K 14s
 18150K .......... .......... .......... .......... .......... 91%  178K 14s
 18200K .......... .......... .......... .......... .......... 91%  170K 14s
 18250K .......... .......... .......... .......... .......... 91%  104K 13s
 18300K .......... .......... .......... .......... .......... 91% 87.6K 13s
 18350K .......... .......... .......... .......... .......... 92%  128K 12s
 18400K .......... .......... .......... .......... .......... 92%  140K 12s
 18450K .......... .......... .......... .......... .......... 92%  107K 12s
 18500K .......... .......... .......... .......... .......... 92%  136K 11s
 18550K .......... .......... .......... .......... .......... 93%  116K 11s
 18600K .......... .......... .......... .......... .......... 93%  102K 10s
 18650K .......... .......... .......... .......... .......... 93% 65.5K 10s
 18700K .......... .......... .......... .......... .......... 93%  171K 10s
 18750K .......... .......... .......... .......... .......... 94%  161K 9s
 18800K .......... .......... .......... .......... .......... 94%  162K 9s
 18850K .......... .......... .......... .......... .......... 94%  170K 9s
 18900K .......... .......... .......... .......... .......... 94%  151K 8s
 18950K .......... .......... .......... .......... .......... 95% 90.8K 8s
 19000K .......... .......... .......... .......... .......... 95%  119K 7s
 19050K .......... .......... .......... .......... .......... 95%  196K 7s
 19100K .......... .......... .......... .......... .......... 95%  118K 7s
 19150K .......... .......... .......... .......... .......... 96%  143K 6s
 19200K .......... .......... .......... .......... .......... 96%  115K 6s
 19250K .......... .......... .......... .......... .......... 96%  100K 5s
 19300K .......... .......... .......... .......... .......... 96%  201K 5s
 19350K .......... .......... .......... .......... .......... 97%  173K 5s
 19400K .......... .......... .......... .......... .......... 97%  102K 4s
 19450K .......... .......... .......... .......... .......... 97%  109K 4s
 19500K .......... .......... .......... .......... .......... 97% 86.1K 3s
 19550K .......... .......... .......... .......... .......... 98%  101K 3s
 19600K .......... .......... .......... .......... .......... 98%  173K 3s
 19650K .......... .......... .......... .......... .......... 98%  203K 2s
 19700K .......... .......... .......... .......... .......... 98%  127K 2s
 19750K .......... .......... .......... .......... .......... 99% 92.7K 2s
 19800K .......... .......... .......... .......... .......... 99%  111K 1s
 19850K .......... .......... .......... .......... .......... 99%  119K 1s
 19900K .......... .......... .......... .......... .......... 99%  162K 0s
 19950K .......... .......... .......... .......... ..........100%  127K 0s
 20000K                                                       100% 0.00 =2m35s

2020-07-27 23:36:17 (129 KB/s) - ‘random.1’ saved [20480000/20480000]


real	2m35.651s
user	0m2.523s
sys	0m1.547s
