--2020-07-22 20:28:03--  https://10.1.0.1/random
Connecting to 10.1.0.1:443... connected.
WARNING: cannot verify 10.1.0.1's certificate, issued by ‘/C=BE/ST=LLN/O=Internet Widgits Pty Ltd’:
  Self-signed certificate encountered.
    WARNING: certificate common name ‘’ doesn't match requested host name ‘10.1.0.1’.
HTTP request sent, awaiting response... 200 OK
Length: 20480000 (20M) [application/octet-stream]
Saving to: ‘random.1’

     0K .......... .......... .......... .......... ..........  0%  369K 54s
    50K .......... .......... .......... .......... ..........  0%  588K 44s
   100K .......... .......... .......... .......... ..........  0%  296K 52s
   150K .......... .......... .......... .......... ..........  1%  597K 47s
   200K .......... .......... .......... .......... ..........  1%  263K 52s
   250K .......... .......... .......... .......... ..........  1%  180K 62s
   300K .......... .......... .......... .......... ..........  1%  179K 69s
   350K .......... .......... .......... .......... ..........  2%  235K 70s
   400K .......... .......... .......... .......... ..........  2%  111K 82s
   450K .......... .......... .......... .......... ..........  2%  201K 83s
   500K .......... .......... .......... .......... ..........  2%  115K 91s
   550K .......... .......... .......... .......... ..........  3%  160K 93s
   600K .......... .......... .......... .......... ..........  3% 78.9K 1m45s
   650K .......... .......... .......... .......... ..........  3% 66.5K 1m58s
   700K .......... .......... .......... .......... ..........  3%  128K 2m0s
   750K .......... .......... .......... .......... ..........  4% 77.5K 2m7s
   800K .......... .......... .......... .......... ..........  4% 92.0K 2m12s
   850K .......... .......... .......... .......... ..........  4%  165K 2m11s
   900K .......... .......... .......... .......... ..........  4% 88.5K 2m15s
   950K .......... .......... .......... .......... ..........  5%  193K 2m13s
  1000K .......... .......... .......... .......... ..........  5% 98.8K 2m15s
  1050K .......... .......... .......... .......... ..........  5%  152K 2m14s
  1100K .......... .......... .......... .......... ..........  5%  127K 2m14s
  1150K .......... .......... .......... .......... ..........  6%  127K 2m15s
  1200K .......... .......... .......... .......... ..........  6% 79.4K 2m18s
  1250K .......... .......... .......... .......... ..........  6% 95.6K 2m20s
  1300K .......... .......... .......... .......... ..........  6% 84.4K 2m23s
  1350K .......... .......... .......... .......... ..........  7%  129K 2m23s
  1400K .......... .......... .......... .......... ..........  7%  109K 2m23s
  1450K .......... .......... .......... .......... ..........  7%  111K 2m24s
  1500K .......... .......... .......... .......... ..........  7% 87.6K 2m25s
  1550K .......... .......... .......... .......... ..........  8%  303K 2m22s
  1600K .......... .......... .......... .......... ..........  8%  150K 2m21s
  1650K .......... .......... .......... .......... ..........  8%  150K 2m20s
  1700K .......... .......... .......... .......... ..........  8%  112K 2m21s
  1750K .......... .......... .......... .......... ..........  9%  155K 2m20s
  1800K .......... .......... .......... .......... ..........  9%  128K 2m19s
  1850K .......... .......... .......... .......... ..........  9%  145K 2m19s
  1900K .......... .......... .......... .......... ..........  9%  126K 2m18s
  1950K .......... .......... .......... .......... .......... 10%  172K 2m17s
  2000K .......... .......... .......... .......... .......... 10%  127K 2m17s
  2050K .......... .......... .......... .......... .......... 10%  127K 2m17s
  2100K .......... .......... .......... .......... .......... 10%  154K 2m16s
  2150K .......... .......... .......... .......... .......... 11%  165K 2m15s
  2200K .......... .......... .......... .......... .......... 11% 83.9K 2m16s
  2250K .......... .......... .......... .......... .......... 11%  101K 2m16s
  2300K .......... .......... .......... .......... .......... 11%  164K 2m15s
  2350K .......... .......... .......... .......... .......... 12%  120K 2m15s
  2400K .......... .......... .......... .......... .......... 12%  131K 2m15s
  2450K .......... .......... .......... .......... .......... 12%  172K 2m14s
  2500K .......... .......... .......... .......... .......... 12%  129K 2m14s
  2550K .......... .......... .......... .......... .......... 13%  114K 2m14s
  2600K .......... .......... .......... .......... .......... 13%  118K 2m13s
  2650K .......... .......... .......... .......... .......... 13%  127K 2m13s
  2700K .......... .......... .......... .......... .......... 13%  103K 2m13s
  2750K .......... .......... .......... .......... .......... 14%  113K 2m13s
  2800K .......... .......... .......... .......... .......... 14%  111K 2m13s
  2850K .......... .......... .......... .......... .......... 14%  150K 2m13s
  2900K .......... .......... .......... .......... .......... 14%  121K 2m12s
  2950K .......... .......... .......... .......... .......... 15%  104K 2m12s
  3000K .......... .......... .......... .......... .......... 15%  200K 2m11s
  3050K .......... .......... .......... .......... .......... 15%  101K 2m12s
  3100K .......... .......... .......... .......... .......... 15%  121K 2m11s
  3150K .......... .......... .......... .......... .......... 16%  108K 2m11s
  3200K .......... .......... .......... .......... .......... 16%  110K 2m11s
  3250K .......... .......... .......... .......... .......... 16%  165K 2m10s
  3300K .......... .......... .......... .......... .......... 16% 86.1K 2m11s
  3350K .......... .......... .......... .......... .......... 17%  108K 2m11s
  3400K .......... .......... .......... .......... .......... 17%  228K 2m10s
  3450K .......... .......... .......... .......... .......... 17% 96.8K 2m10s
  3500K .......... .......... .......... .......... .......... 17% 55.2K 2m12s
  3550K .......... .......... .......... .......... .......... 18%  150K 2m11s
  3600K .......... .......... .......... .......... .......... 18%  120K 2m11s
  3650K .......... .......... .......... .......... .......... 18%  376K 2m9s
  3700K .......... .......... .......... .......... .......... 18%  146K 2m9s
  3750K .......... .......... .......... .......... .......... 19% 94.9K 2m9s
  3800K .......... .......... .......... .......... .......... 19%  115K 2m8s
  3850K .......... .......... .......... .......... .......... 19%  124K 2m8s
  3900K .......... .......... .......... .......... .......... 19% 74.8K 2m9s
  3950K .......... .......... .......... .......... .......... 20%  113K 2m9s
  4000K .......... .......... .......... .......... .......... 20%  111K 2m8s
  4050K .......... .......... .......... .......... .......... 20%  133K 2m8s
  4100K .......... .......... .......... .......... .......... 20%  129K 2m7s
  4150K .......... .......... .......... .......... .......... 21%  149K 2m7s
  4200K .......... .......... .......... .......... .......... 21%  139K 2m6s
  4250K .......... .......... .......... .......... .......... 21%  189K 2m5s
  4300K .......... .......... .......... .......... .......... 21%  132K 2m5s
  4350K .......... .......... .......... .......... .......... 22%  133K 2m4s
  4400K .......... .......... .......... .......... .......... 22%  105K 2m4s
  4450K .......... .......... .......... .......... .......... 22%  115K 2m4s
  4500K .......... .......... .......... .......... .......... 22%  198K 2m3s
  4550K .......... .......... .......... .......... .......... 23% 91.5K 2m3s
  4600K .......... .......... .......... .......... .......... 23% 74.0K 2m4s
  4650K .......... .......... .......... .......... .......... 23%  305K 2m2s
  4700K .......... .......... .......... .......... .......... 23%  100K 2m2s
  4750K .......... .......... .......... .......... .......... 24%  225K 2m1s
  4800K .......... .......... .......... .......... .......... 24% 78.2K 2m2s
  4850K .......... .......... .......... .......... .......... 24% 8.45M 2m0s
  4900K .......... .......... .......... .......... .......... 24%  211K 1m59s
  4950K .......... .......... .......... .......... .......... 25%  129K 1m59s
  5000K .......... .......... .......... .......... .......... 25% 64.6K 2m0s
  5050K .......... .......... .......... .......... .......... 25%  147K 1m59s
  5100K .......... .......... .......... .......... .......... 25% 77.0K 1m59s
  5150K .......... .......... .......... .......... .......... 26%  116K 1m59s
  5200K .......... .......... .......... .......... .......... 26%  131K 1m59s
  5250K .......... .......... .......... .......... .......... 26%  103K 1m58s
  5300K .......... .......... .......... .......... .......... 26% 72.2K 1m59s
  5350K .......... .......... .......... .......... .......... 27%  127K 1m58s
  5400K .......... .......... .......... .......... .......... 27%  101K 1m58s
  5450K .......... .......... .......... .......... .......... 27%  102K 1m58s
  5500K .......... .......... .......... .......... .......... 27% 64.6K 1m59s
  5550K .......... .......... .......... .......... .......... 28%  136K 1m58s
  5600K .......... .......... .......... .......... .......... 28%  116K 1m58s
  5650K .......... .......... .......... .......... .......... 28%  133K 1m57s
  5700K .......... .......... .......... .......... .......... 28%  120K 1m57s
  5750K .......... .......... .......... .......... .......... 29%  148K 1m56s
  5800K .......... .......... .......... .......... .......... 29%  145K 1m56s
  5850K .......... .......... .......... .......... .......... 29% 91.5K 1m56s
  5900K .......... .......... .......... .......... .......... 29%  264K 1m55s
  5950K .......... .......... .......... .......... .......... 30%  148K 1m54s
  6000K .......... .......... .......... .......... .......... 30%  113K 1m54s
  6050K .......... .......... .......... .......... .......... 30%  204K 1m53s
  6100K .......... .......... .......... .......... .......... 30%  203K 1m52s
  6150K .......... .......... .......... .......... .......... 31%  169K 1m52s
  6200K .......... .......... .......... .......... .......... 31%  139K 1m51s
  6250K .......... .......... .......... .......... .......... 31%  128K 1m51s
  6300K .......... .......... .......... .......... .......... 31% 85.9K 1m51s
  6350K .......... .......... .......... .......... .......... 32%  113K 1m50s
  6400K .......... .......... .......... .......... .......... 32%  145K 1m50s
  6450K .......... .......... .......... .......... .......... 32%  102K 1m49s
  6500K .......... .......... .......... .......... .......... 32%  146K 1m49s
  6550K .......... .......... .......... .......... .......... 33%  130K 1m48s
  6600K .......... .......... .......... .......... .......... 33%  102K 1m48s
  6650K .......... .......... .......... .......... .......... 33%  152K 1m48s
  6700K .......... .......... .......... .......... .......... 33% 90.4K 1m48s
  6750K .......... .......... .......... .......... .......... 34%  121K 1m47s
  6800K .......... .......... .......... .......... .......... 34%  201K 1m46s
  6850K .......... .......... .......... .......... .......... 34%  121K 1m46s
  6900K .......... .......... .......... .......... .......... 34%  109K 1m46s
  6950K .......... .......... .......... .......... .......... 35%  151K 1m45s
  7000K .......... .......... .......... .......... .......... 35%  131K 1m45s
  7050K .......... .......... .......... .......... .......... 35%  145K 1m44s
  7100K .......... .......... .......... .......... .......... 35%  131K 1m44s
  7150K .......... .......... .......... .......... .......... 36%  116K 1m43s
  7200K .......... .......... .......... .......... .......... 36%  102K 1m43s
  7250K .......... .......... .......... .......... .......... 36%  145K 1m43s
  7300K .......... .......... .......... .......... .......... 36%  146K 1m42s
  7350K .......... .......... .......... .......... .......... 37%  146K 1m42s
  7400K .......... .......... .......... .......... .......... 37%  103K 1m41s
  7450K .......... .......... .......... .......... .......... 37%  100K 1m41s
  7500K .......... .......... .......... .......... .......... 37%  164K 1m41s
  7550K .......... .......... .......... .......... .......... 38%  127K 1m40s
  7600K .......... .......... .......... .......... .......... 38%  138K 1m40s
  7650K .......... .......... .......... .......... .......... 38%  181K 99s
  7700K .......... .......... .......... .......... .......... 38%  164K 99s
  7750K .......... .......... .......... .......... .......... 39%  267K 98s
  7800K .......... .......... .......... .......... .......... 39%  203K 97s
  7850K .......... .......... .......... .......... .......... 39%  252K 96s
  7900K .......... .......... .......... .......... .......... 39%  198K 96s
  7950K .......... .......... .......... .......... .......... 40%  209K 95s
  8000K .......... .......... .......... .......... .......... 40%  126K 95s
  8050K .......... .......... .......... .......... .......... 40%  141K 94s
  8100K .......... .......... .......... .......... .......... 40%  116K 94s
  8150K .......... .......... .......... .......... .......... 41%  104K 94s
  8200K .......... .......... .......... .......... .......... 41% 96.7K 94s
  8250K .......... .......... .......... .......... .......... 41%  151K 93s
  8300K .......... .......... .......... .......... .......... 41%  242K 92s
  8350K .......... .......... .......... .......... .......... 42%  240K 92s
  8400K .......... .......... .......... .......... .......... 42%  171K 91s
  8450K .......... .......... .......... .......... .......... 42%  205K 91s
  8500K .......... .......... .......... .......... .......... 42%  170K 90s
  8550K .......... .......... .......... .......... .......... 43%  132K 90s
  8600K .......... .......... .......... .......... .......... 43% 92.8K 89s
  8650K .......... .......... .......... .......... .......... 43%  110K 89s
  8700K .......... .......... .......... .......... .......... 43% 99.1K 89s
  8750K .......... .......... .......... .......... .......... 44% 72.2K 89s
  8800K .......... .......... .......... .......... .......... 44%  149K 88s
  8850K .......... .......... .......... .......... .......... 44%  115K 88s
  8900K .......... .......... .......... .......... .......... 44%  170K 87s
  8950K .......... .......... .......... .......... .......... 45%  191K 87s
  9000K .......... .......... .......... .......... .......... 45%  127K 87s
  9050K .......... .......... .......... .......... .......... 45%  120K 86s
  9100K .......... .......... .......... .......... .......... 45%  152K 86s
  9150K .......... .......... .......... .......... .......... 46% 90.7K 85s
  9200K .......... .......... .......... .......... .......... 46% 71.8K 85s
  9250K .......... .......... .......... .......... .......... 46%  108K 85s
  9300K .......... .......... .......... .......... .......... 46%  231K 85s
  9350K .......... .......... .......... .......... .......... 47%  203K 84s
  9400K .......... .......... .......... .......... .......... 47%  126K 84s
  9450K .......... .......... .......... .......... .......... 47%  346K 83s
  9500K .......... .......... .......... .......... .......... 47%  161K 82s
  9550K .......... .......... .......... .......... .......... 48%  132K 82s
  9600K .......... .......... .......... .......... .......... 48%  151K 82s
  9650K .......... .......... .......... .......... .......... 48%  254K 81s
  9700K .......... .......... .......... .......... .......... 48%  184K 80s
  9750K .......... .......... .......... .......... .......... 49%  107K 80s
  9800K .......... .......... .......... .......... .......... 49%  146K 80s
  9850K .......... .......... .......... .......... .......... 49%  132K 79s
  9900K .......... .......... .......... .......... .......... 49%  162K 79s
  9950K .......... .......... .......... .......... .......... 50% 67.7K 79s
 10000K .......... .......... .......... .......... .......... 50%  118K 78s
 10050K .......... .......... .......... .......... .......... 50%  112K 78s
 10100K .......... .......... .......... .......... .......... 50%  145K 78s
 10150K .......... .......... .......... .......... .......... 51%  127K 77s
 10200K .......... .......... .......... .......... .......... 51%  117K 77s
 10250K .......... .......... .......... .......... .......... 51%  201K 76s
 10300K .......... .......... .......... .......... .......... 51%  104K 76s
 10350K .......... .......... .......... .......... .......... 52%  101K 76s
 10400K .......... .......... .......... .......... .......... 52% 88.1K 75s
 10450K .......... .......... .......... .......... .......... 52%  169K 75s
 10500K .......... .......... .......... .......... .......... 52%  142K 75s
 10550K .......... .......... .......... .......... .......... 53%  175K 74s
 10600K .......... .......... .......... .......... .......... 53%  101K 74s
 10650K .......... .......... .......... .......... .......... 53% 78.6K 74s
 10700K .......... .......... .......... .......... .......... 53%  758K 73s
 10750K .......... .......... .......... .......... .......... 54%  116K 72s
 10800K .......... .......... .......... .......... .......... 54%  171K 72s
 10850K .......... .......... .......... .......... .......... 54%  197K 71s
 10900K .......... .......... .......... .......... .......... 54%  215K 71s
 10950K .......... .......... .......... .......... .......... 55%  135K 71s
 11000K .......... .......... .......... .......... .......... 55%  119K 70s
 11050K .......... .......... .......... .......... .......... 55% 99.8K 70s
 11100K .......... .......... .......... .......... .......... 55%  301K 69s
 11150K .......... .......... .......... .......... .......... 56%  151K 69s
 11200K .......... .......... .......... .......... .......... 56%  146K 68s
 11250K .......... .......... .......... .......... .......... 56%  167K 68s
 11300K .......... .......... .......... .......... .......... 56%  171K 68s
 11350K .......... .......... .......... .......... .......... 57%  113K 67s
 11400K .......... .......... .......... .......... .......... 57% 92.4K 67s
 11450K .......... .......... .......... .......... .......... 57%  175K 66s
 11500K .......... .......... .......... .......... .......... 57% 88.6K 66s
 11550K .......... .......... .......... .......... .......... 58%  143K 66s
 11600K .......... .......... .......... .......... .......... 58%  120K 65s
 11650K .......... .......... .......... .......... .......... 58%  135K 65s
 11700K .......... .......... .......... .......... .......... 58%  105K 65s
 11750K .......... .......... .......... .......... .......... 59%  223K 64s
 11800K .......... .......... .......... .......... .......... 59%  145K 64s
 11850K .......... .......... .......... .......... .......... 59%  204K 63s
 11900K .......... .......... .......... .......... .......... 59%  124K 63s
 11950K .......... .......... .......... .......... .......... 60%  113K 62s
 12000K .......... .......... .......... .......... .......... 60% 68.7K 62s
 12050K .......... .......... .......... .......... .......... 60%  126K 62s
 12100K .......... .......... .......... .......... .......... 60%  102K 62s
 12150K .......... .......... .......... .......... .......... 61%  273K 61s
 12200K .......... .......... .......... .......... .......... 61%  158K 61s
 12250K .......... .......... .......... .......... .......... 61%  148K 60s
 12300K .......... .......... .......... .......... .......... 61% 91.6K 60s
 12350K .......... .......... .......... .......... .......... 62%  109K 60s
 12400K .......... .......... .......... .......... .......... 62% 66.1K 59s
 12450K .......... .......... .......... .......... .......... 62% 68.8K 59s
 12500K .......... .......... .......... .......... .......... 62%  163K 59s
 12550K .......... .......... .......... .......... .......... 63%  141K 58s
 12600K .......... .......... .......... .......... .......... 63%  167K 58s
 12650K .......... .......... .......... .......... .......... 63%  262K 57s
 12700K .......... .......... .......... .......... .......... 63%  119K 57s
 12750K .......... .......... .......... .......... .......... 64%  204K 57s
 12800K .......... .......... .......... .......... .......... 64%  143K 56s
 12850K .......... .......... .......... .......... .......... 64%  173K 56s
 12900K .......... .......... .......... .......... .......... 64%  127K 55s
 12950K .......... .......... .......... .......... .......... 65%  128K 55s
 13000K .......... .......... .......... .......... .......... 65%  102K 55s
 13050K .......... .......... .......... .......... .......... 65%  191K 54s
 13100K .......... .......... .......... .......... .......... 65% 88.3K 54s
 13150K .......... .......... .......... .......... .......... 66%  169K 53s
 13200K .......... .......... .......... .......... .......... 66%  113K 53s
 13250K .......... .......... .......... .......... .......... 66%  127K 53s
 13300K .......... .......... .......... .......... .......... 66%  201K 52s
 13350K .......... .......... .......... .......... .......... 67%  207K 52s
 13400K .......... .......... .......... .......... .......... 67%  114K 51s
 13450K .......... .......... .......... .......... .......... 67%  169K 51s
 13500K .......... .......... .......... .......... .......... 67% 65.8K 51s
 13550K .......... .......... .......... .......... .......... 68%  146K 50s
 13600K .......... .......... .......... .......... .......... 68%  161K 50s
 13650K .......... .......... .......... .......... .......... 68%  151K 49s
 13700K .......... .......... .......... .......... .......... 68% 94.3K 49s
 13750K .......... .......... .......... .......... .......... 69%  167K 49s
 13800K .......... .......... .......... .......... .......... 69%  148K 48s
 13850K .......... .......... .......... .......... .......... 69%  113K 48s
 13900K .......... .......... .......... .......... .......... 69%  101K 47s
 13950K .......... .......... .......... .......... .......... 70%  104K 47s
 14000K .......... .......... .......... .......... .......... 70% 94.0K 47s
 14050K .......... .......... .......... .......... .......... 70%  151K 46s
 14100K .......... .......... .......... .......... .......... 70%  129K 46s
 14150K .......... .......... .......... .......... .......... 71%  116K 46s
 14200K .......... .......... .......... .......... .......... 71%  142K 45s
 14250K .......... .......... .......... .......... .......... 71%  171K 45s
 14300K .......... .......... .......... .......... .......... 71%  167K 44s
 14350K .......... .......... .......... .......... .......... 72%  151K 44s
 14400K .......... .......... .......... .......... .......... 72%  125K 43s
 14450K .......... .......... .......... .......... .......... 72%  267K 43s
 14500K .......... .......... .......... .......... .......... 72%  149K 43s
 14550K .......... .......... .......... .......... .......... 73% 99.4K 42s
 14600K .......... .......... .......... .......... .......... 73%  116K 42s
 14650K .......... .......... .......... .......... .......... 73% 75.2K 42s
 14700K .......... .......... .......... .......... .......... 73%  276K 41s
 14750K .......... .......... .......... .......... .......... 74%  125K 41s
 14800K .......... .......... .......... .......... .......... 74%  201K 40s
 14850K .......... .......... .......... .......... .......... 74%  266K 40s
 14900K .......... .......... .......... .......... .......... 74%  204K 39s
 14950K .......... .......... .......... .......... .......... 75%  254K 39s
 15000K .......... .......... .......... .......... .......... 75%  145K 39s
 15050K .......... .......... .......... .......... .......... 75%  202K 38s
 15100K .......... .......... .......... .......... .......... 75%  254K 38s
 15150K .......... .......... .......... .......... .......... 76%  176K 37s
 15200K .......... .......... .......... .......... .......... 76%  113K 37s
 15250K .......... .......... .......... .......... .......... 76%  203K 36s
 15300K .......... .......... .......... .......... .......... 76%  147K 36s
 15350K .......... .......... .......... .......... .......... 77%  200K 36s
 15400K .......... .......... .......... .......... .......... 77%  125K 35s
 15450K .......... .......... .......... .......... .......... 77%  179K 35s
 15500K .......... .......... .......... .......... .......... 77%  116K 34s
 15550K .......... .......... .......... .......... .......... 78% 73.0K 34s
 15600K .......... .......... .......... .......... .......... 78% 97.4K 34s
 15650K .......... .......... .......... .......... .......... 78%  343K 33s
 15700K .......... .......... .......... .......... .......... 78%  169K 33s
 15750K .......... .......... .......... .......... .......... 79% 90.0K 33s
 15800K .......... .......... .......... .......... .......... 79%  180K 32s
 15850K .......... .......... .......... .......... .......... 79%  201K 32s
 15900K .......... .......... .......... .......... .......... 79% 89.8K 31s
 15950K .......... .......... .......... .......... .......... 80%  341K 31s
 16000K .......... .......... .......... .......... .......... 80% 66.2K 31s
 16050K .......... .......... .......... .......... .......... 80%  188K 30s
 16100K .......... .......... .......... .......... .......... 80% 75.1K 30s
 16150K .......... .......... .......... .......... .......... 81% 2.65M 29s
 16200K .......... .......... .......... .......... .......... 81%  152K 29s
 16250K .......... .......... .......... .......... .......... 81%  178K 29s
 16300K .......... .......... .......... .......... .......... 81%  128K 28s
 16350K .......... .......... .......... .......... .......... 82%  146K 28s
 16400K .......... .......... .......... .......... .......... 82% 88.0K 27s
 16450K .......... .......... .......... .......... .......... 82% 90.0K 27s
 16500K .......... .......... .......... .......... .......... 82%  116K 27s
 16550K .......... .......... .......... .......... .......... 83%  145K 26s
 16600K .......... .......... .......... .......... .......... 83%  128K 26s
 16650K .......... .......... .......... .......... .......... 83%  145K 26s
 16700K .......... .......... .......... .......... .......... 83%  124K 25s
 16750K .......... .......... .......... .......... .......... 84%  183K 25s
 16800K .......... .......... .......... .......... .......... 84% 84.0K 24s
 16850K .......... .......... .......... .......... .......... 84%  237K 24s
 16900K .......... .......... .......... .......... .......... 84%  150K 24s
 16950K .......... .......... .......... .......... .......... 85%  253K 23s
 17000K .......... .......... .......... .......... .......... 85% 92.4K 23s
 17050K .......... .......... .......... .......... .......... 85% 3.68M 22s
 17100K .......... .......... .......... .......... .......... 85%  158K 22s
 17150K .......... .......... .......... .......... .......... 86%  128K 22s
 17200K .......... .......... .......... .......... .......... 86% 83.3K 21s
 17250K .......... .......... .......... .......... .......... 86%  306K 21s
 17300K .......... .......... .......... .......... .......... 86%  184K 20s
 17350K .......... .......... .......... .......... .......... 87%  164K 20s
 17400K .......... .......... .......... .......... .......... 87% 78.2K 20s
 17450K .......... .......... .......... .......... .......... 87%  339K 19s
 17500K .......... .......... .......... .......... .......... 87%  130K 19s
 17550K .......... .......... .......... .......... .......... 88%  309K 18s
 17600K .......... .......... .......... .......... .......... 88%  119K 18s
 17650K .......... .......... .......... .......... .......... 88%  109K 18s
 17700K .......... .......... .......... .......... .......... 88%  127K 17s
 17750K .......... .......... .......... .......... .......... 89%  122K 17s
 17800K .......... .......... .......... .......... .......... 89%  114K 17s
 17850K .......... .......... .......... .......... .......... 89% 80.2K 16s
 17900K .......... .......... .......... .......... .......... 89%  139K 16s
 17950K .......... .......... .......... .......... .......... 90%  133K 15s
 18000K .......... .......... .......... .......... .......... 90% 84.7K 15s
 18050K .......... .......... .......... .......... .......... 90%  121K 15s
 18100K .......... .......... .......... .......... .......... 90% 81.5K 14s
 18150K .......... .......... .......... .......... .......... 91%  170K 14s
 18200K .......... .......... .......... .......... .......... 91% 65.5K 14s
 18250K .......... .......... .......... .......... .......... 91%  149K 13s
 18300K .......... .......... .......... .......... .......... 91%  154K 13s
 18350K .......... .......... .......... .......... .......... 92%  120K 12s
 18400K .......... .......... .......... .......... .......... 92%  101K 12s
 18450K .......... .......... .......... .......... .......... 92%  161K 12s
 18500K .......... .......... .......... .......... .......... 92%  127K 11s
 18550K .......... .......... .......... .......... .......... 93%  200K 11s
 18600K .......... .......... .......... .......... .......... 93%  149K 10s
 18650K .......... .......... .......... .......... .......... 93%  136K 10s
 18700K .......... .......... .......... .......... .......... 93%  184K 10s
 18750K .......... .......... .......... .......... .......... 94%  143K 9s
 18800K .......... .......... .......... .......... .......... 94%  204K 9s
 18850K .......... .......... .......... .......... .......... 94%  132K 8s
 18900K .......... .......... .......... .......... .......... 94%  243K 8s
 18950K .......... .......... .......... .......... .......... 95%  161K 8s
 19000K .......... .......... .......... .......... .......... 95% 85.7K 7s
 19050K .......... .......... .......... .......... .......... 95%  164K 7s
 19100K .......... .......... .......... .......... .......... 95%  200K 7s
 19150K .......... .......... .......... .......... .......... 96% 74.3K 6s
 19200K .......... .......... .......... .......... .......... 96% 92.0K 6s
 19250K .......... .......... .......... .......... .......... 96%  519K 5s
 19300K .......... .......... .......... .......... .......... 96%  130K 5s
 19350K .......... .......... .......... .......... .......... 97%  197K 5s
 19400K .......... .......... .......... .......... .......... 97% 84.7K 4s
 19450K .......... .......... .......... .......... .......... 97%  304K 4s
 19500K .......... .......... .......... .......... .......... 97%  130K 3s
 19550K .......... .......... .......... .......... .......... 98%  138K 3s
 19600K .......... .......... .......... .......... .......... 98% 67.5K 3s
 19650K .......... .......... .......... .......... .......... 98%  117K 2s
 19700K .......... .......... .......... .......... .......... 98%  203K 2s
 19750K .......... .......... .......... .......... .......... 99%  169K 2s
 19800K .......... .......... .......... .......... .......... 99%  170K 1s
 19850K .......... .......... .......... .......... .......... 99%  128K 1s
 19900K .......... .......... .......... .......... .......... 99%  170K 0s
 19950K .......... .......... .......... .......... ..........100% 85.6K 0s
 20000K                                                       100% 0.00 =2m34s

2020-07-22 20:30:38 (130 KB/s) - ‘random.1’ saved [20480000/20480000]


real	2m34.606s
user	0m2.515s
sys	0m1.602s
