PING 10.1.0.1 (10.1.0.1) from 10.0.0.1 : 56(84) bytes of data.
64 bytes from 10.1.0.1: icmp_seq=1 ttl=63 time=110 ms
64 bytes from 10.1.0.1: icmp_seq=2 ttl=63 time=52.3 ms
64 bytes from 10.1.0.1: icmp_seq=3 ttl=63 time=49.2 ms
64 bytes from 10.1.0.1: icmp_seq=4 ttl=63 time=48.8 ms
64 bytes from 10.1.0.1: icmp_seq=5 ttl=63 time=48.8 ms

--- 10.1.0.1 ping statistics ---
5 packets transmitted, 5 received, 0% packet loss, time 4005ms
rtt min/avg/max/mdev = 48.858/62.013/110.747/24.402 ms
PING 10.1.0.1 (10.1.0.1) from 10.0.1.1 : 56(84) bytes of data.
64 bytes from 10.1.0.1: icmp_seq=1 ttl=63 time=178 ms
64 bytes from 10.1.0.1: icmp_seq=2 ttl=63 time=86.0 ms
64 bytes from 10.1.0.1: icmp_seq=3 ttl=63 time=83.3 ms
64 bytes from 10.1.0.1: icmp_seq=4 ttl=63 time=82.8 ms
64 bytes from 10.1.0.1: icmp_seq=5 ttl=63 time=82.8 ms

--- 10.1.0.1 ping statistics ---
5 packets transmitted, 5 received, 0% packet loss, time 4005ms
rtt min/avg/max/mdev = 82.812/102.677/178.304/37.832 ms
