2020/07/22 18:56:07 GET https://10.1.0.1:6121/random
2020/07/22 18:56:07 Starting new connection to 10.1.0.1 (0.0.0.0:58257 -> 10.1.0.1:6121), connectionID d1fc613e5a523b35, version 512
2020/07/22 18:56:07 Queueing packet 0x4 for later decryption
2020/07/22 18:57:51 Info for stream 5 of d1fc613e5a523b35
2020/07/22 18:57:51 Path 0: sent 5 retrans 0 lost 0; rcv 5
2020/07/22 18:57:51 Path 1: sent 6280 retrans 44 lost 44; rcv 10884
2020/07/22 18:57:51 Path 3: sent 3081 retrans 1 lost 0; rcv 5283
2020/07/22 18:57:51 1m43.798777753s
