Serving new connection: 6636d73e41fdc0e, version 512 from 10.0.0.1:49662
GET 10.1.0.1:6121/ugfiugizuegiugzeffg
Responding with 404
Info for stream 5 of 6636d73e41fdc0e
Path 0: sent 12 retrans 0 lost 0; rcv 8 rtt 61.657ms
Serving new connection: 3fc30adf97531eb6, version 512 from 10.0.0.1:38933
GET 10.1.0.1:6121/random
Responding with 200
Closing connection 6636d73e41fdc0e
Info for stream 5 of 3fc30adf97531eb6
Path 0: sent 17132 retrans 887 lost 885; rcv 8656 rtt 50.996ms
Info for stream 5 of 3fc30adf97531eb6
Path 0: sent 17134 retrans 888 lost 885; rcv 8658 rtt 51.467ms
Info for stream 5 of 3fc30adf97531eb6
Path 0: sent 17135 retrans 889 lost 885; rcv 8658 rtt 51.467ms
Info for stream 5 of 3fc30adf97531eb6
Path 0: sent 17136 retrans 890 lost 886; rcv 8658 rtt 51.467ms
Info for stream 5 of 3fc30adf97531eb6
Path 0: sent 17138 retrans 892 lost 888; rcv 8658 rtt 51.467ms
Info for stream 5 of 3fc30adf97531eb6
Path 0: sent 17139 retrans 893 lost 889; rcv 8658 rtt 51.467ms
