--2020-07-22 15:32:48--  https://10.1.0.1/random
Connecting to 10.1.0.1:443... connected.
WARNING: cannot verify 10.1.0.1's certificate, issued by ‘/C=BE/ST=LLN/O=Internet Widgits Pty Ltd’:
  Self-signed certificate encountered.
    WARNING: certificate common name ‘’ doesn't match requested host name ‘10.1.0.1’.
HTTP request sent, awaiting response... 200 OK
Length: 20480000 (20M) [application/octet-stream]
Saving to: ‘random.1’

     0K .......... .......... .......... .......... ..........  0%  224K 89s
    50K .......... .......... .......... .......... ..........  0%  607K 61s
   100K .......... .......... .......... .......... ..........  0%  413K 56s
   150K .......... .......... .......... .......... ..........  1%  137K 78s
   200K .......... .......... .......... .......... ..........  1%  193K 83s
   250K .......... .......... .......... .......... ..........  1% 94.6K 1m44s
   300K .......... .......... .......... .......... ..........  1%  114K 1m53s
   350K .......... .......... .......... .......... ..........  2%  105K 2m2s
   400K .......... .......... .......... .......... ..........  2% 92.4K 2m12s
   450K .......... .......... .......... .......... ..........  2%  139K 2m12s
   500K .......... .......... .......... .......... ..........  2%  201K 2m9s
   550K .......... .......... .......... .......... ..........  3%  182K 2m7s
   600K .......... .......... .......... .......... ..........  3%  102K 2m11s
   650K .......... .......... .......... .......... ..........  3%  152K 2m11s
   700K .......... .......... .......... .......... ..........  3%  125K 2m12s
   750K .......... .......... .......... .......... ..........  4%  134K 2m12s
   800K .......... .......... .......... .......... ..........  4% 88.3K 2m17s
   850K .......... .......... .......... .......... ..........  4%  121K 2m18s
   900K .......... .......... .......... .......... ..........  4% 71.3K 2m24s
   950K .......... .......... .......... .......... ..........  5%  307K 2m20s
  1000K .......... .......... .......... .......... ..........  5%  114K 2m21s
  1050K .......... .......... .......... .......... ..........  5%  167K 2m19s
  1100K .......... .......... .......... .......... ..........  5%  113K 2m20s
  1150K .......... .......... .......... .......... ..........  6%  111K 2m21s
  1200K .......... .......... .......... .......... ..........  6%  116K 2m21s
  1250K .......... .......... .......... .......... ..........  6%  126K 2m21s
  1300K .......... .......... .......... .......... ..........  6%  203K 2m19s
  1350K .......... .......... .......... .......... ..........  7%  259K 2m16s
  1400K .......... .......... .......... .......... ..........  7%  130K 2m16s
  1450K .......... .......... .......... .......... ..........  7%  244K 2m14s
  1500K .......... .......... .......... .......... ..........  7% 98.6K 2m15s
  1550K .......... .......... .......... .......... ..........  8%  148K 2m14s
  1600K .......... .......... .......... .......... ..........  8%  169K 2m13s
  1650K .......... .......... .......... .......... ..........  8%  130K 2m13s
  1700K .......... .......... .......... .......... ..........  8%  145K 2m13s
  1750K .......... .......... .......... .......... ..........  9%  112K 2m13s
  1800K .......... .......... .......... .......... ..........  9%  113K 2m13s
  1850K .......... .......... .......... .......... ..........  9% 74.5K 2m16s
  1900K .......... .......... .......... .......... ..........  9%  160K 2m15s
  1950K .......... .......... .......... .......... .......... 10%  113K 2m15s
  2000K .......... .......... .......... .......... .......... 10%  120K 2m15s
  2050K .......... .......... .......... .......... .......... 10%  294K 2m13s
  2100K .......... .......... .......... .......... .......... 10%  199K 2m12s
  2150K .......... .......... .......... .......... .......... 11%  173K 2m11s
  2200K .......... .......... .......... .......... .......... 11%  102K 2m11s
  2250K .......... .......... .......... .......... .......... 11%  170K 2m10s
  2300K .......... .......... .......... .......... .......... 11%  145K 2m10s
  2350K .......... .......... .......... .......... .......... 12%  169K 2m9s
  2400K .......... .......... .......... .......... .......... 12%  123K 2m9s
  2450K .......... .......... .......... .......... .......... 12%  120K 2m9s
  2500K .......... .......... .......... .......... .......... 12%  106K 2m9s
  2550K .......... .......... .......... .......... .......... 13%  305K 2m7s
  2600K .......... .......... .......... .......... .......... 13%  149K 2m7s
  2650K .......... .......... .......... .......... .......... 13%  134K 2m7s
  2700K .......... .......... .......... .......... .......... 13%  118K 2m7s
  2750K .......... .......... .......... .......... .......... 14%  121K 2m6s
  2800K .......... .......... .......... .......... .......... 14%  281K 2m5s
  2850K .......... .......... .......... .......... .......... 14% 76.8K 2m6s
  2900K .......... .......... .......... .......... .......... 14%  170K 2m5s
  2950K .......... .......... .......... .......... .......... 15%  120K 2m5s
  3000K .......... .......... .......... .......... .......... 15%  151K 2m5s
  3050K .......... .......... .......... .......... .......... 15%  213K 2m4s
  3100K .......... .......... .......... .......... .......... 15%  203K 2m3s
  3150K .......... .......... .......... .......... .......... 16%  131K 2m2s
  3200K .......... .......... .......... .......... .......... 16% 82.3K 2m3s
  3250K .......... .......... .......... .......... .......... 16%  175K 2m3s
  3300K .......... .......... .......... .......... .......... 16% 85.2K 2m3s
  3350K .......... .......... .......... .......... .......... 17% 75.8K 2m4s
  3400K .......... .......... .......... .......... .......... 17% 86.1K 2m5s
  3450K .......... .......... .......... .......... .......... 17%  118K 2m5s
  3500K .......... .......... .......... .......... .......... 17% 94.7K 2m5s
  3550K .......... .......... .......... .......... .......... 18%  200K 2m4s
  3600K .......... .......... .......... .......... .......... 18%  114K 2m4s
  3650K .......... .......... .......... .......... .......... 18%  118K 2m4s
  3700K .......... .......... .......... .......... .......... 18%  140K 2m3s
  3750K .......... .......... .......... .......... .......... 19%  215K 2m2s
  3800K .......... .......... .......... .......... .......... 19% 84.1K 2m3s
  3850K .......... .......... .......... .......... .......... 19%  307K 2m2s
  3900K .......... .......... .......... .......... .......... 19%  108K 2m2s
  3950K .......... .......... .......... .......... .......... 20%  111K 2m1s
  4000K .......... .......... .......... .......... .......... 20% 79.3K 2m2s
  4050K .......... .......... .......... .......... .......... 20%  106K 2m2s
  4100K .......... .......... .......... .......... .......... 20%  602K 2m0s
  4150K .......... .......... .......... .......... .......... 21%  135K 2m0s
  4200K .......... .......... .......... .......... .......... 21%  116K 2m0s
  4250K .......... .......... .......... .......... .......... 21%  127K 2m0s
  4300K .......... .......... .......... .......... .......... 21%  145K 1m59s
  4350K .......... .......... .......... .......... .......... 22%  143K 1m59s
  4400K .......... .......... .......... .......... .......... 22%  113K 1m58s
  4450K .......... .......... .......... .......... .......... 22%  205K 1m58s
  4500K .......... .......... .......... .......... .......... 22%  201K 1m57s
  4550K .......... .......... .......... .......... .......... 23% 75.6K 1m57s
  4600K .......... .......... .......... .......... .......... 23% 92.2K 1m57s
  4650K .......... .......... .......... .......... .......... 23%  203K 1m57s
  4700K .......... .......... .......... .......... .......... 23%  106K 1m57s
  4750K .......... .......... .......... .......... .......... 24%  128K 1m56s
  4800K .......... .......... .......... .......... .......... 24% 77.9K 1m57s
  4850K .......... .......... .......... .......... .......... 24%  143K 1m56s
  4900K .......... .......... .......... .......... .......... 24% 99.5K 1m56s
  4950K .......... .......... .......... .......... .......... 25%  182K 1m55s
  5000K .......... .......... .......... .......... .......... 25% 96.4K 1m55s
  5050K .......... .......... .......... .......... .......... 25%  135K 1m55s
  5100K .......... .......... .......... .......... .......... 25%  169K 1m54s
  5150K .......... .......... .......... .......... .......... 26%  151K 1m54s
  5200K .......... .......... .......... .......... .......... 26% 82.0K 1m54s
  5250K .......... .......... .......... .......... .......... 26% 78.4K 1m54s
  5300K .......... .......... .......... .......... .......... 26% 76.5K 1m55s
  5350K .......... .......... .......... .......... .......... 27%  349K 1m54s
  5400K .......... .......... .......... .......... .......... 27%  148K 1m53s
  5450K .......... .......... .......... .......... .......... 27%  174K 1m52s
  5500K .......... .......... .......... .......... .......... 27%  165K 1m52s
  5550K .......... .......... .......... .......... .......... 28%  170K 1m51s
  5600K .......... .......... .......... .......... .......... 28%  127K 1m51s
  5650K .......... .......... .......... .......... .......... 28%  201K 1m50s
  5700K .......... .......... .......... .......... .......... 28% 95.5K 1m50s
  5750K .......... .......... .......... .......... .......... 29%  220K 1m49s
  5800K .......... .......... .......... .......... .......... 29%  140K 1m49s
  5850K .......... .......... .......... .......... .......... 29%  135K 1m48s
  5900K .......... .......... .......... .......... .......... 29% 64.3K 1m49s
  5950K .......... .......... .......... .......... .......... 30% 83.5K 1m49s
  6000K .......... .......... .......... .......... .......... 30%  124K 1m49s
  6050K .......... .......... .......... .......... .......... 30%  129K 1m48s
  6100K .......... .......... .......... .......... .......... 30%  131K 1m48s
  6150K .......... .......... .......... .......... .......... 31% 75.9K 1m48s
  6200K .......... .......... .......... .......... .......... 31% 7.55M 1m47s
  6250K .......... .......... .......... .......... .......... 31%  149K 1m46s
  6300K .......... .......... .......... .......... .......... 31%  257K 1m46s
  6350K .......... .......... .......... .......... .......... 32%  215K 1m45s
  6400K .......... .......... .......... .......... .......... 32%  113K 1m45s
  6450K .......... .......... .......... .......... .......... 32%  127K 1m44s
  6500K .......... .......... .......... .......... .......... 32%  127K 1m44s
  6550K .......... .......... .......... .......... .......... 33% 84.7K 1m44s
  6600K .......... .......... .......... .......... .......... 33%  115K 1m44s
  6650K .......... .......... .......... .......... .......... 33%  158K 1m43s
  6700K .......... .......... .......... .......... .......... 33%  141K 1m43s
  6750K .......... .......... .......... .......... .......... 34%  111K 1m42s
  6800K .......... .......... .......... .......... .......... 34%  166K 1m42s
  6850K .......... .......... .......... .......... .......... 34%  122K 1m41s
  6900K .......... .......... .......... .......... .......... 34% 86.3K 1m41s
  6950K .......... .......... .......... .......... .......... 35%  140K 1m41s
  7000K .......... .......... .......... .......... .......... 35% 91.8K 1m41s
  7050K .......... .......... .......... .......... .......... 35%  122K 1m40s
  7100K .......... .......... .......... .......... .......... 35%  126K 1m40s
  7150K .......... .......... .......... .......... .......... 36%  151K 1m40s
  7200K .......... .......... .......... .......... .......... 36% 62.0K 1m40s
  7250K .......... .......... .......... .......... .......... 36%  128K 1m40s
  7300K .......... .......... .......... .......... .......... 36%  145K 99s
  7350K .......... .......... .......... .......... .......... 37%  111K 99s
  7400K .......... .......... .......... .......... .......... 37%  113K 98s
  7450K .......... .......... .......... .......... .......... 37% 99.4K 98s
  7500K .......... .......... .......... .......... .......... 37%  127K 98s
  7550K .......... .......... .......... .......... .......... 38%  170K 97s
  7600K .......... .......... .......... .......... .......... 38% 77.8K 97s
  7650K .......... .......... .......... .......... .......... 38%  139K 97s
  7700K .......... .......... .......... .......... .......... 38%  137K 96s
  7750K .......... .......... .......... .......... .......... 39%  142K 96s
  7800K .......... .......... .......... .......... .......... 39%  149K 96s
  7850K .......... .......... .......... .......... .......... 39% 86.4K 95s
  7900K .......... .......... .......... .......... .......... 39%  202K 95s
  7950K .......... .......... .......... .......... .......... 40%  165K 94s
  8000K .......... .......... .......... .......... .......... 40%  102K 94s
  8050K .......... .......... .......... .......... .......... 40% 92.4K 94s
  8100K .......... .......... .......... .......... .......... 40%  189K 93s
  8150K .......... .......... .......... .......... .......... 41%  181K 93s
  8200K .......... .......... .......... .......... .......... 41%  146K 92s
  8250K .......... .......... .......... .......... .......... 41%  170K 92s
  8300K .......... .......... .......... .......... .......... 41%  116K 91s
  8350K .......... .......... .......... .......... .......... 42%  192K 91s
  8400K .......... .......... .......... .......... .......... 42%  102K 91s
  8450K .......... .......... .......... .......... .......... 42%  143K 90s
  8500K .......... .......... .......... .......... .......... 42%  522K 89s
  8550K .......... .......... .......... .......... .......... 43%  151K 89s
  8600K .......... .......... .......... .......... .......... 43% 91.6K 89s
  8650K .......... .......... .......... .......... .......... 43%  350K 88s
  8700K .......... .......... .......... .......... .......... 43%  115K 88s
  8750K .......... .......... .......... .......... .......... 44% 82.6K 87s
  8800K .......... .......... .......... .......... .......... 44%  167K 87s
  8850K .......... .......... .......... .......... .......... 44%  181K 86s
  8900K .......... .......... .......... .......... .......... 44%  145K 86s
  8950K .......... .......... .......... .......... .......... 45%  204K 85s
  9000K .......... .......... .......... .......... .......... 45%  123K 85s
  9050K .......... .......... .......... .......... .......... 45%  151K 85s
  9100K .......... .......... .......... .......... .......... 45%  120K 84s
  9150K .......... .......... .......... .......... .......... 46%  138K 84s
  9200K .......... .......... .......... .......... .......... 46% 92.8K 84s
  9250K .......... .......... .......... .......... .......... 46%  145K 83s
  9300K .......... .......... .......... .......... .......... 46%  113K 83s
  9350K .......... .......... .......... .......... .......... 47%  275K 82s
  9400K .......... .......... .......... .......... .......... 47%  158K 82s
  9450K .......... .......... .......... .......... .......... 47%  121K 81s
  9500K .......... .......... .......... .......... .......... 47%  100K 81s
  9550K .......... .......... .......... .......... .......... 48%  168K 81s
  9600K .......... .......... .......... .......... .......... 48%  110K 80s
  9650K .......... .......... .......... .......... .......... 48%  130K 80s
  9700K .......... .......... .......... .......... .......... 48%  204K 79s
  9750K .......... .......... .......... .......... .......... 49%  145K 79s
  9800K .......... .......... .......... .......... .......... 49%  102K 79s
  9850K .......... .......... .......... .......... .......... 49%  145K 78s
  9900K .......... .......... .......... .......... .......... 49%  204K 78s
  9950K .......... .......... .......... .......... .......... 50%  125K 77s
 10000K .......... .......... .......... .......... .......... 50%  173K 77s
 10050K .......... .......... .......... .......... .......... 50%  127K 76s
 10100K .......... .......... .......... .......... .......... 50%  165K 76s
 10150K .......... .......... .......... .......... .......... 51%  201K 76s
 10200K .......... .......... .......... .......... .......... 51%  172K 75s
 10250K .......... .......... .......... .......... .......... 51%  200K 75s
 10300K .......... .......... .......... .......... .......... 51%  200K 74s
 10350K .......... .......... .......... .......... .......... 52%  105K 74s
 10400K .......... .......... .......... .......... .......... 52%  102K 73s
 10450K .......... .......... .......... .......... .......... 52%  255K 73s
 10500K .......... .......... .......... .......... .......... 52%  113K 73s
 10550K .......... .......... .......... .......... .......... 53%  115K 72s
 10600K .......... .......... .......... .......... .......... 53%  100K 72s
 10650K .......... .......... .......... .......... .......... 53% 93.6K 72s
 10700K .......... .......... .......... .......... .......... 53%  128K 71s
 10750K .......... .......... .......... .......... .......... 54% 83.1K 71s
 10800K .......... .......... .......... .......... .......... 54% 96.7K 71s
 10850K .......... .......... .......... .......... .......... 54%  123K 70s
 10900K .......... .......... .......... .......... .......... 54%  130K 70s
 10950K .......... .......... .......... .......... .......... 55% 77.4K 70s
 11000K .......... .......... .......... .......... .......... 55%  150K 69s
 11050K .......... .......... .......... .......... .......... 55%  172K 69s
 11100K .......... .......... .......... .......... .......... 55%  127K 69s
 11150K .......... .......... .......... .......... .......... 56%  160K 68s
 11200K .......... .......... .......... .......... .......... 56%  153K 68s
 11250K .......... .......... .......... .......... .......... 56%  119K 67s
 11300K .......... .......... .......... .......... .......... 56%  293K 67s
 11350K .......... .......... .......... .......... .......... 57%  148K 66s
 11400K .......... .......... .......... .......... .......... 57%  174K 66s
 11450K .......... .......... .......... .......... .......... 57%  183K 65s
 11500K .......... .......... .......... .......... .......... 57%  163K 65s
 11550K .......... .......... .......... .......... .......... 58%  104K 65s
 11600K .......... .......... .......... .......... .......... 58% 84.5K 64s
 11650K .......... .......... .......... .......... .......... 58% 79.2K 64s
 11700K .......... .......... .......... .......... .......... 58%  114K 64s
 11750K .......... .......... .......... .......... .......... 59% 95.1K 64s
 11800K .......... .......... .......... .......... .......... 59%  100K 63s
 11850K .......... .......... .......... .......... .......... 59%  116K 63s
 11900K .......... .......... .......... .......... .......... 59%  145K 63s
 11950K .......... .......... .......... .......... .......... 60%  306K 62s
 12000K .......... .......... .......... .......... .......... 60%  114K 62s
 12050K .......... .......... .......... .......... .......... 60%  128K 61s
 12100K .......... .......... .......... .......... .......... 60%  112K 61s
 12150K .......... .......... .......... .......... .......... 61%  108K 61s
 12200K .......... .......... .......... .......... .......... 61% 98.1K 60s
 12250K .......... .......... .......... .......... .......... 61%  100K 60s
 12300K .......... .......... .......... .......... .......... 61%  172K 59s
 12350K .......... .......... .......... .......... .......... 62% 86.9K 59s
 12400K .......... .......... .......... .......... .......... 62% 80.1K 59s
 12450K .......... .......... .......... .......... .......... 62%  112K 59s
 12500K .......... .......... .......... .......... .......... 62%  127K 58s
 12550K .......... .......... .......... .......... .......... 63% 86.5K 58s
 12600K .......... .......... .......... .......... .......... 63%  220K 57s
 12650K .......... .......... .......... .......... .......... 63%  138K 57s
 12700K .......... .......... .......... .......... .......... 63%  145K 57s
 12750K .......... .......... .......... .......... .......... 64%  113K 56s
 12800K .......... .......... .......... .......... .......... 64%  172K 56s
 12850K .......... .......... .......... .......... .......... 64%  145K 55s
 12900K .......... .......... .......... .......... .......... 64%  145K 55s
 12950K .......... .......... .......... .......... .......... 65%  105K 55s
 13000K .......... .......... .......... .......... .......... 65%  139K 54s
 13050K .......... .......... .......... .......... .......... 65%  132K 54s
 13100K .......... .......... .......... .......... .......... 65% 99.0K 53s
 13150K .......... .......... .......... .......... .......... 66%  121K 53s
 13200K .......... .......... .......... .......... .......... 66%  135K 53s
 13250K .......... .......... .......... .......... .......... 66%  113K 52s
 13300K .......... .......... .......... .......... .......... 66%  143K 52s
 13350K .......... .......... .......... .......... .......... 67%  151K 52s
 13400K .......... .......... .......... .......... .......... 67% 72.8K 51s
 13450K .......... .......... .......... .......... .......... 67%  181K 51s
 13500K .......... .......... .......... .......... .......... 67%  140K 50s
 13550K .......... .......... .......... .......... .......... 68%  132K 50s
 13600K .......... .......... .......... .......... .......... 68%  135K 50s
 13650K .......... .......... .......... .......... .......... 68%  223K 49s
 13700K .......... .......... .......... .......... .......... 68%  204K 49s
 13750K .......... .......... .......... .......... .......... 69%  215K 48s
 13800K .......... .......... .......... .......... .......... 69%  149K 48s
 13850K .......... .......... .......... .......... .......... 69%  197K 47s
 13900K .......... .......... .......... .......... .......... 69%  163K 47s
 13950K .......... .......... .......... .......... .......... 70%  161K 47s
 14000K .......... .......... .......... .......... .......... 70%  172K 46s
 14050K .......... .......... .......... .......... .......... 70%  132K 46s
 14100K .......... .......... .......... .......... .......... 70%  305K 45s
 14150K .......... .......... .......... .......... .......... 71% 68.3K 45s
 14200K .......... .......... .......... .......... .......... 71%  907K 44s
 14250K .......... .......... .......... .......... .......... 71%  115K 44s
 14300K .......... .......... .......... .......... .......... 71%  142K 44s
 14350K .......... .......... .......... .......... .......... 72%  208K 43s
 14400K .......... .......... .......... .......... .......... 72%  114K 43s
 14450K .......... .......... .......... .......... .......... 72%  145K 42s
 14500K .......... .......... .......... .......... .......... 72%  201K 42s
 14550K .......... .......... .......... .......... .......... 73% 93.4K 42s
 14600K .......... .......... .......... .......... .......... 73%  100K 41s
 14650K .......... .......... .......... .......... .......... 73%  564K 41s
 14700K .......... .......... .......... .......... .......... 73%  143K 40s
 14750K .......... .......... .......... .......... .......... 74%  111K 40s
 14800K .......... .......... .......... .......... .......... 74% 61.8K 40s
 14850K .......... .......... .......... .......... .......... 74%  193K 39s
 14900K .......... .......... .......... .......... .......... 74%  180K 39s
 14950K .......... .......... .......... .......... .......... 75%  236K 39s
 15000K .......... .......... .......... .......... .......... 75%  170K 38s
 15050K .......... .......... .......... .......... .......... 75%  113K 38s
 15100K .......... .......... .......... .......... .......... 75%  168K 37s
 15150K .......... .......... .......... .......... .......... 76%  151K 37s
 15200K .......... .......... .......... .......... .......... 76% 99.9K 37s
 15250K .......... .......... .......... .......... .......... 76%  189K 36s
 15300K .......... .......... .......... .......... .......... 76%  132K 36s
 15350K .......... .......... .......... .......... .......... 77%  102K 35s
 15400K .......... .......... .......... .......... .......... 77% 47.1K 35s
 15450K .......... .......... .......... .......... .......... 77% 8.10M 35s
 15500K .......... .......... .......... .......... .......... 77% 78.7K 34s
 15550K .......... .......... .......... .......... .......... 78%  276K 34s
 15600K .......... .......... .......... .......... .......... 78%  134K 34s
 15650K .......... .......... .......... .......... .......... 78%  136K 33s
 15700K .......... .......... .......... .......... .......... 78%  174K 33s
 15750K .......... .......... .......... .......... .......... 79%  131K 32s
 15800K .......... .......... .......... .......... .......... 79% 78.3K 32s
 15850K .......... .......... .......... .......... .......... 79% 81.4K 32s
 15900K .......... .......... .......... .......... .......... 79%  115K 31s
 15950K .......... .......... .......... .......... .......... 80%  201K 31s
 16000K .......... .......... .......... .......... .......... 80%  151K 31s
 16050K .......... .......... .......... .......... .......... 80%  189K 30s
 16100K .......... .......... .......... .......... .......... 80%  170K 30s
 16150K .......... .......... .......... .......... .......... 81%  149K 29s
 16200K .......... .......... .......... .......... .......... 81%  108K 29s
 16250K .......... .......... .......... .......... .......... 81%  260K 29s
 16300K .......... .......... .......... .......... .......... 81%  165K 28s
 16350K .......... .......... .......... .......... .......... 82%  114K 28s
 16400K .......... .......... .......... .......... .......... 82%  170K 27s
 16450K .......... .......... .......... .......... .......... 82% 76.3K 27s
 16500K .......... .......... .......... .......... .......... 82%  141K 27s
 16550K .......... .......... .......... .......... .......... 83%  101K 26s
 16600K .......... .......... .......... .......... .......... 83%  146K 26s
 16650K .......... .......... .......... .......... .......... 83%  255K 25s
 16700K .......... .......... .......... .......... .......... 83%  170K 25s
 16750K .......... .......... .......... .......... .......... 84%  113K 25s
 16800K .......... .......... .......... .......... .......... 84%  139K 24s
 16850K .......... .......... .......... .......... .......... 84%  133K 24s
 16900K .......... .......... .......... .......... .......... 84%  201K 24s
 16950K .......... .......... .......... .......... .......... 85%  115K 23s
 17000K .......... .......... .......... .......... .......... 85%  114K 23s
 17050K .......... .......... .......... .......... .......... 85%  150K 22s
 17100K .......... .......... .......... .......... .......... 85%  201K 22s
 17150K .......... .......... .......... .......... .......... 86% 77.1K 22s
 17200K .......... .......... .......... .......... .......... 86%  366K 21s
 17250K .......... .......... .......... .......... .......... 86%  214K 21s
 17300K .......... .......... .......... .......... .......... 86%  132K 20s
 17350K .......... .......... .......... .......... .......... 87%  441K 20s
 17400K .......... .......... .......... .......... .......... 87%  129K 20s
 17450K .......... .......... .......... .......... .......... 87%  126K 19s
 17500K .......... .......... .......... .......... .......... 87% 98.9K 19s
 17550K .......... .......... .......... .......... .......... 88%  128K 18s
 17600K .......... .......... .......... .......... .......... 88%  201K 18s
 17650K .......... .......... .......... .......... .......... 88%  188K 18s
 17700K .......... .......... .......... .......... .......... 88%  120K 17s
 17750K .......... .......... .......... .......... .......... 89%  127K 17s
 17800K .......... .......... .......... .......... .......... 89% 86.0K 17s
 17850K .......... .......... .......... .......... .......... 89%  207K 16s
 17900K .......... .......... .......... .......... .......... 89%  142K 16s
 17950K .......... .......... .......... .......... .......... 90%  109K 15s
 18000K .......... .......... .......... .......... .......... 90%  180K 15s
 18050K .......... .......... .......... .......... .......... 90%  143K 15s
 18100K .......... .......... .......... .......... .......... 90%  347K 14s
 18150K .......... .......... .......... .......... .......... 91%  142K 14s
 18200K .......... .......... .......... .......... .......... 91%  116K 13s
 18250K .......... .......... .......... .......... .......... 91%  109K 13s
 18300K .......... .......... .......... .......... .......... 91% 79.2K 13s
 18350K .......... .......... .......... .......... .......... 92%  149K 12s
 18400K .......... .......... .......... .......... .......... 92%  197K 12s
 18450K .......... .......... .......... .......... .......... 92%  168K 11s
 18500K .......... .......... .......... .......... .......... 92%  170K 11s
 18550K .......... .......... .......... .......... .......... 93% 91.9K 11s
 18600K .......... .......... .......... .......... .......... 93%  142K 10s
 18650K .......... .......... .......... .......... .......... 93% 93.1K 10s
 18700K .......... .......... .......... .......... .......... 93%  220K 10s
 18750K .......... .......... .......... .......... .......... 94%  110K 9s
 18800K .......... .......... .......... .......... .......... 94%  102K 9s
 18850K .......... .......... .......... .......... .......... 94%  119K 8s
 18900K .......... .......... .......... .......... .......... 94% 86.3K 8s
 18950K .......... .......... .......... .......... .......... 95% 50.1K 8s
 19000K .......... .......... .......... .......... .......... 95% 63.0K 7s
 19050K .......... .......... .......... .......... .......... 95%  170K 7s
 19100K .......... .......... .......... .......... .......... 95%  141K 7s
 19150K .......... .......... .......... .......... .......... 96%  120K 6s
 19200K .......... .......... .......... .......... .......... 96%  191K 6s
 19250K .......... .......... .......... .......... .......... 96%  125K 5s
 19300K .......... .......... .......... .......... .......... 96%  151K 5s
 19350K .......... .......... .......... .......... .......... 97%  213K 5s
 19400K .......... .......... .......... .......... .......... 97%  134K 4s
 19450K .......... .......... .......... .......... .......... 97%  200K 4s
 19500K .......... .......... .......... .......... .......... 97%  197K 3s
 19550K .......... .......... .......... .......... .......... 98%  203K 3s
 19600K .......... .......... .......... .......... .......... 98% 92.3K 3s
 19650K .......... .......... .......... .......... .......... 98%  174K 2s
 19700K .......... .......... .......... .......... .......... 98%  101K 2s
 19750K .......... .......... .......... .......... .......... 99%  152K 2s
 19800K .......... .......... .......... .......... .......... 99% 92.3K 1s
 19850K .......... .......... .......... .......... .......... 99%  185K 1s
 19900K .......... .......... .......... .......... .......... 99%  120K 0s
 19950K .......... .......... .......... .......... ..........100% 80.0K 0s
 20000K                                                       100% 0.00 =2m34s

2020-07-22 15:35:22 (130 KB/s) - ‘random.1’ saved [20480000/20480000]


real	2m34.666s
user	0m2.520s
sys	0m1.548s
