PING 10.1.0.1 (10.1.0.1) from 10.0.0.1 : 56(84) bytes of data.
64 bytes from 10.1.0.1: icmp_seq=1 ttl=63 time=112 ms
64 bytes from 10.1.0.1: icmp_seq=2 ttl=63 time=52.3 ms
64 bytes from 10.1.0.1: icmp_seq=3 ttl=63 time=49.4 ms
64 bytes from 10.1.0.1: icmp_seq=4 ttl=63 time=48.7 ms
64 bytes from 10.1.0.1: icmp_seq=5 ttl=63 time=48.4 ms

--- 10.1.0.1 ping statistics ---
5 packets transmitted, 5 received, 0% packet loss, time 4006ms
rtt min/avg/max/mdev = 48.448/62.299/112.475/25.126 ms
PING 10.1.0.1 (10.1.0.1) from 10.0.1.1 : 56(84) bytes of data.
64 bytes from 10.1.0.1: icmp_seq=1 ttl=63 time=178 ms
64 bytes from 10.1.0.1: icmp_seq=2 ttl=63 time=86.1 ms
64 bytes from 10.1.0.1: icmp_seq=3 ttl=63 time=83.1 ms
64 bytes from 10.1.0.1: icmp_seq=4 ttl=63 time=82.6 ms
64 bytes from 10.1.0.1: icmp_seq=5 ttl=63 time=82.9 ms

--- 10.1.0.1 ping statistics ---
5 packets transmitted, 5 received, 0% packet loss, time 4007ms
rtt min/avg/max/mdev = 82.643/102.646/178.381/37.889 ms
