2020/07/28 11:39:47 GET https://10.1.0.1:6121/random
2020/07/28 11:39:47 Starting new connection to 10.1.0.1 (0.0.0.0:54589 -> 10.1.0.1:6121), connectionID afb22305aadae5d0, version 512
2020/07/28 11:39:47 Queueing packet 0x4 for later decryption
2020/07/28 11:41:25 Info for stream 5 of afb22305aadae5d0
2020/07/28 11:41:25 Path 0: sent 9481 retrans 79 lost 79; rcv 16399
2020/07/28 11:41:25 1m37.971509568s
