2020/07/27 11:45:59 GET https://10.1.0.1:6121/random
2020/07/27 11:45:59 Starting new connection to 10.1.0.1 (0.0.0.0:60542 -> 10.1.0.1:6121), connectionID b5cd4827d2696d7a, version 512
2020/07/27 11:45:59 Queueing packet 0x4 for later decryption
2020/07/27 11:47:43 Info for stream 5 of b5cd4827d2696d7a
2020/07/27 11:47:43 Path 0: sent 5 retrans 0 lost 0; rcv 5
2020/07/27 11:47:43 Path 1: sent 6264 retrans 49 lost 48; rcv 10863
2020/07/27 11:47:43 Path 3: sent 3086 retrans 1 lost 0; rcv 5290
2020/07/27 11:47:43 1m43.920717348s
