--2020-07-27 18:25:52--  https://10.1.0.1/random
Connecting to 10.1.0.1:443... connected.
WARNING: cannot verify 10.1.0.1's certificate, issued by ‘/C=BE/ST=LLN/O=Internet Widgits Pty Ltd’:
  Self-signed certificate encountered.
    WARNING: certificate common name ‘’ doesn't match requested host name ‘10.1.0.1’.
HTTP request sent, awaiting response... 200 OK
Length: 20480000 (20M) [application/octet-stream]
Saving to: ‘random.1’

     0K .......... .......... .......... .......... ..........  0%  225K 89s
    50K .......... .......... .......... .......... ..........  0%  603K 61s
   100K .......... .......... .......... .......... ..........  0%  198K 74s
   150K .......... .......... .......... .......... ..........  1%  230K 77s
   200K .......... .......... .......... .......... ..........  1%  122K 94s
   250K .......... .......... .......... .......... ..........  1%  120K 1m45s
   300K .......... .......... .......... .......... ..........  1%  170K 1m46s
   350K .......... .......... .......... .......... ..........  2%  111K 1m55s
   400K .......... .......... .......... .......... ..........  2%  102K 2m3s
   450K .......... .......... .......... .......... ..........  2%  271K 1m58s
   500K .......... .......... .......... .......... ..........  2%  235K 1m54s
   550K .......... .......... .......... .......... ..........  3%  184K 1m53s
   600K .......... .......... .......... .......... ..........  3%  139K 1m55s
   650K .......... .......... .......... .......... ..........  3%  115K 1m59s
   700K .......... .......... .......... .......... ..........  3% 92.9K 2m4s
   750K .......... .......... .......... .......... ..........  4% 92.7K 2m9s
   800K .......... .......... .......... .......... ..........  4% 72.1K 2m17s
   850K .......... .......... .......... .......... ..........  4%  197K 2m14s
   900K .......... .......... .......... .......... ..........  4%  101K 2m17s
   950K .......... .......... .......... .......... ..........  5%  128K 2m17s
  1000K .......... .......... .......... .......... ..........  5%  117K 2m18s
  1050K .......... .......... .......... .......... ..........  5%  145K 2m17s
  1100K .......... .......... .......... .......... ..........  5%  166K 2m16s
  1150K .......... .......... .......... .......... ..........  6%  149K 2m15s
  1200K .......... .......... .......... .......... ..........  6%  127K 2m15s
  1250K .......... .......... .......... .......... ..........  6%  203K 2m13s
  1300K .......... .......... .......... .......... ..........  6%  101K 2m15s
  1350K .......... .......... .......... .......... ..........  7%  120K 2m15s
  1400K .......... .......... .......... .......... ..........  7%  106K 2m16s
  1450K .......... .......... .......... .......... ..........  7%  111K 2m17s
  1500K .......... .......... .......... .......... ..........  7%  151K 2m16s
  1550K .......... .......... .......... .......... ..........  8%  134K 2m16s
  1600K .......... .......... .......... .......... ..........  8%  144K 2m15s
  1650K .......... .......... .......... .......... ..........  8%  194K 2m13s
  1700K .......... .......... .......... .......... ..........  8%  203K 2m12s
  1750K .......... .......... .......... .......... ..........  9%  177K 2m11s
  1800K .......... .......... .......... .......... ..........  9%  123K 2m11s
  1850K .......... .......... .......... .......... ..........  9%  128K 2m11s
  1900K .......... .......... .......... .......... ..........  9% 92.3K 2m12s
  1950K .......... .......... .......... .......... .......... 10%  307K 2m10s
  2000K .......... .......... .......... .......... .......... 10%  178K 2m9s
  2050K .......... .......... .......... .......... .......... 10%  216K 2m7s
  2100K .......... .......... .......... .......... .......... 10%  158K 2m7s
  2150K .......... .......... .......... .......... .......... 11%  205K 2m5s
  2200K .......... .......... .......... .......... .......... 11%  127K 2m5s
  2250K .......... .......... .......... .......... .......... 11%  146K 2m5s
  2300K .......... .......... .......... .......... .......... 11%  145K 2m5s
  2350K .......... .......... .......... .......... .......... 12% 65.0K 2m7s
  2400K .......... .......... .......... .......... .......... 12%  191K 2m6s
  2450K .......... .......... .......... .......... .......... 12%  145K 2m6s
  2500K .......... .......... .......... .......... .......... 12%  113K 2m6s
  2550K .......... .......... .......... .......... .......... 13% 91.9K 2m7s
  2600K .......... .......... .......... .......... .......... 13%  101K 2m7s
  2650K .......... .......... .......... .......... .......... 13%  129K 2m7s
  2700K .......... .......... .......... .......... .......... 13% 84.3K 2m8s
  2750K .......... .......... .......... .......... .......... 14%  109K 2m8s
  2800K .......... .......... .......... .......... .......... 14% 95.9K 2m9s
  2850K .......... .......... .......... .......... .......... 14%  137K 2m8s
  2900K .......... .......... .......... .......... .......... 14%  180K 2m7s
  2950K .......... .......... .......... .......... .......... 15%  143K 2m7s
  3000K .......... .......... .......... .......... .......... 15%  110K 2m7s
  3050K .......... .......... .......... .......... .......... 15%  152K 2m6s
  3100K .......... .......... .......... .......... .......... 15%  105K 2m7s
  3150K .......... .......... .......... .......... .......... 16%  167K 2m6s
  3200K .......... .......... .......... .......... .......... 16%  147K 2m5s
  3250K .......... .......... .......... .......... .......... 16%  132K 2m5s
  3300K .......... .......... .......... .......... .......... 16%  109K 2m5s
  3350K .......... .......... .......... .......... .......... 17% 92.4K 2m5s
  3400K .......... .......... .......... .......... .......... 17%  113K 2m5s
  3450K .......... .......... .......... .......... .......... 17%  120K 2m5s
  3500K .......... .......... .......... .......... .......... 17%  152K 2m4s
  3550K .......... .......... .......... .......... .......... 18%  113K 2m4s
  3600K .......... .......... .......... .......... .......... 18%  112K 2m4s
  3650K .......... .......... .......... .......... .......... 18%  120K 2m4s
  3700K .......... .......... .......... .......... .......... 18%  100K 2m4s
  3750K .......... .......... .......... .......... .......... 19%  140K 2m4s
  3800K .......... .......... .......... .......... .......... 19%  119K 2m3s
  3850K .......... .......... .......... .......... .......... 19%  121K 2m3s
  3900K .......... .......... .......... .......... .......... 19%  120K 2m3s
  3950K .......... .......... .......... .......... .......... 20%  155K 2m2s
  4000K .......... .......... .......... .......... .......... 20% 74.3K 2m3s
  4050K .......... .......... .......... .......... .......... 20% 78.7K 2m4s
  4100K .......... .......... .......... .......... .......... 20%  311K 2m2s
  4150K .......... .......... .......... .......... .......... 21%  112K 2m2s
  4200K .......... .......... .......... .......... .......... 21%  115K 2m2s
  4250K .......... .......... .......... .......... .......... 21%  155K 2m1s
  4300K .......... .......... .......... .......... .......... 21% 93.4K 2m2s
  4350K .......... .......... .......... .......... .......... 22%  286K 2m0s
  4400K .......... .......... .......... .......... .......... 22%  127K 2m0s
  4450K .......... .......... .......... .......... .......... 22%  185K 1m59s
  4500K .......... .......... .......... .......... .......... 22%  151K 1m59s
  4550K .......... .......... .......... .......... .......... 23% 85.8K 1m59s
  4600K .......... .......... .......... .......... .......... 23%  271K 1m58s
  4650K .......... .......... .......... .......... .......... 23%  200K 1m57s
  4700K .......... .......... .......... .......... .......... 23% 87.7K 1m57s
  4750K .......... .......... .......... .......... .......... 24%  169K 1m57s
  4800K .......... .......... .......... .......... .......... 24%  114K 1m56s
  4850K .......... .......... .......... .......... .......... 24%  145K 1m56s
  4900K .......... .......... .......... .......... .......... 24%  104K 1m56s
  4950K .......... .......... .......... .......... .......... 25%  105K 1m56s
  5000K .......... .......... .......... .......... .......... 25%  128K 1m55s
  5050K .......... .......... .......... .......... .......... 25%  133K 1m55s
  5100K .......... .......... .......... .......... .......... 25%  104K 1m55s
  5150K .......... .......... .......... .......... .......... 26%  169K 1m54s
  5200K .......... .......... .......... .......... .......... 26% 86.6K 1m54s
  5250K .......... .......... .......... .......... .......... 26%  162K 1m54s
  5300K .......... .......... .......... .......... .......... 26%  100K 1m54s
  5350K .......... .......... .......... .......... .......... 27%  136K 1m53s
  5400K .......... .......... .......... .......... .......... 27% 92.2K 1m53s
  5450K .......... .......... .......... .......... .......... 27% 78.0K 1m54s
  5500K .......... .......... .......... .......... .......... 27%  512K 1m52s
  5550K .......... .......... .......... .......... .......... 28% 99.2K 1m52s
  5600K .......... .......... .......... .......... .......... 28% 94.7K 1m52s
  5650K .......... .......... .......... .......... .......... 28%  260K 1m51s
  5700K .......... .......... .......... .......... .......... 28%  203K 1m51s
  5750K .......... .......... .......... .......... .......... 29%  103K 1m50s
  5800K .......... .......... .......... .......... .......... 29% 96.8K 1m50s
  5850K .......... .......... .......... .......... .......... 29%  104K 1m50s
  5900K .......... .......... .......... .......... .......... 29%  207K 1m49s
  5950K .......... .......... .......... .......... .......... 30%  150K 1m49s
  6000K .......... .......... .......... .......... .......... 30%  185K 1m48s
  6050K .......... .......... .......... .......... .......... 30%  159K 1m48s
  6100K .......... .......... .......... .......... .......... 30%  151K 1m47s
  6150K .......... .......... .......... .......... .......... 31%  174K 1m47s
  6200K .......... .......... .......... .......... .......... 31%  101K 1m46s
  6250K .......... .......... .......... .......... .......... 31%  127K 1m46s
  6300K .......... .......... .......... .......... .......... 31% 53.8K 1m47s
  6350K .......... .......... .......... .......... .......... 32%  511K 1m46s
  6400K .......... .......... .......... .......... .......... 32%  170K 1m45s
  6450K .......... .......... .......... .......... .......... 32%  110K 1m45s
  6500K .......... .......... .......... .......... .......... 32%  152K 1m45s
  6550K .......... .......... .......... .......... .......... 33%  152K 1m44s
  6600K .......... .......... .......... .......... .......... 33% 99.1K 1m44s
  6650K .......... .......... .......... .......... .......... 33%  387K 1m43s
  6700K .......... .......... .......... .......... .......... 33%  172K 1m42s
  6750K .......... .......... .......... .......... .......... 34%  203K 1m42s
  6800K .......... .......... .......... .......... .......... 34%  145K 1m41s
  6850K .......... .......... .......... .......... .......... 34% 98.9K 1m41s
  6900K .......... .......... .......... .......... .......... 34% 99.9K 1m41s
  6950K .......... .......... .......... .......... .......... 35%  151K 1m40s
  7000K .......... .......... .......... .......... .......... 35%  147K 1m40s
  7050K .......... .......... .......... .......... .......... 35%  164K 99s
  7100K .......... .......... .......... .......... .......... 35%  115K 99s
  7150K .......... .......... .......... .......... .......... 36%  105K 99s
  7200K .......... .......... .......... .......... .......... 36%  202K 98s
  7250K .......... .......... .......... .......... .......... 36%  105K 98s
  7300K .......... .......... .......... .......... .......... 36%  127K 98s
  7350K .......... .......... .......... .......... .......... 37%  169K 97s
  7400K .......... .......... .......... .......... .......... 37%  170K 97s
  7450K .......... .......... .......... .......... .......... 37%  116K 96s
  7500K .......... .......... .......... .......... .......... 37%  190K 96s
  7550K .......... .......... .......... .......... .......... 38%  169K 95s
  7600K .......... .......... .......... .......... .......... 38% 69.6K 95s
  7650K .......... .......... .......... .......... .......... 38%  231K 95s
  7700K .......... .......... .......... .......... .......... 38%  126K 94s
  7750K .......... .......... .......... .......... .......... 39%  133K 94s
  7800K .......... .......... .......... .......... .......... 39%  153K 93s
  7850K .......... .......... .......... .......... .......... 39%  181K 93s
  7900K .......... .......... .......... .......... .......... 39%  298K 92s
  7950K .......... .......... .......... .......... .......... 40%  179K 92s
  8000K .......... .......... .......... .......... .......... 40%  107K 91s
  8050K .......... .......... .......... .......... .......... 40% 89.4K 91s
  8100K .......... .......... .......... .......... .......... 40%  129K 91s
  8150K .......... .......... .......... .......... .......... 41%  133K 90s
  8200K .......... .......... .......... .......... .......... 41%  203K 90s
  8250K .......... .......... .......... .......... .......... 41%  230K 89s
  8300K .......... .......... .......... .......... .......... 41%  252K 89s
  8350K .......... .......... .......... .......... .......... 42%  256K 88s
  8400K .......... .......... .......... .......... .......... 42%  144K 88s
  8450K .......... .......... .......... .......... .......... 42%  199K 87s
  8500K .......... .......... .......... .......... .......... 42%  150K 87s
  8550K .......... .......... .......... .......... .......... 43%  146K 86s
  8600K .......... .......... .......... .......... .......... 43% 67.9K 86s
  8650K .......... .......... .......... .......... .......... 43%  146K 86s
  8700K .......... .......... .......... .......... .......... 43%  145K 85s
  8750K .......... .......... .......... .......... .......... 44%  127K 85s
  8800K .......... .......... .......... .......... .......... 44%  146K 85s
  8850K .......... .......... .......... .......... .......... 44%  119K 84s
  8900K .......... .......... .......... .......... .......... 44%  170K 84s
  8950K .......... .......... .......... .......... .......... 45% 97.6K 84s
  9000K .......... .......... .......... .......... .......... 45%  151K 83s
  9050K .......... .......... .......... .......... .......... 45%  120K 83s
  9100K .......... .......... .......... .......... .......... 45%  169K 82s
  9150K .......... .......... .......... .......... .......... 46%  131K 82s
  9200K .......... .......... .......... .......... .......... 46%  116K 82s
  9250K .......... .......... .......... .......... .......... 46% 98.1K 81s
  9300K .......... .......... .......... .......... .......... 46%  439K 81s
  9350K .......... .......... .......... .......... .......... 47%  203K 80s
  9400K .......... .......... .......... .......... .......... 47%  126K 80s
  9450K .......... .......... .......... .......... .......... 47% 73.8K 80s
  9500K .......... .......... .......... .......... .......... 47%  201K 79s
  9550K .......... .......... .......... .......... .......... 48%  120K 79s
  9600K .......... .......... .......... .......... .......... 48%  110K 79s
  9650K .......... .......... .......... .......... .......... 48%  145K 78s
  9700K .......... .......... .......... .......... .......... 48%  170K 78s
  9750K .......... .......... .......... .......... .......... 49%  146K 77s
  9800K .......... .......... .......... .......... .......... 49%  108K 77s
  9850K .......... .......... .......... .......... .......... 49%  105K 77s
  9900K .......... .......... .......... .......... .......... 49%  157K 76s
  9950K .......... .......... .......... .......... .......... 50%  221K 76s
 10000K .......... .......... .......... .......... .......... 50%  141K 75s
 10050K .......... .......... .......... .......... .......... 50%  134K 75s
 10100K .......... .......... .......... .......... .......... 50% 81.8K 75s
 10150K .......... .......... .......... .......... .......... 51%  376K 74s
 10200K .......... .......... .......... .......... .......... 51%  145K 74s
 10250K .......... .......... .......... .......... .......... 51%  101K 74s
 10300K .......... .......... .......... .......... .......... 51%  131K 73s
 10350K .......... .......... .......... .......... .......... 52%  138K 73s
 10400K .......... .......... .......... .......... .......... 52% 67.5K 73s
 10450K .......... .......... .......... .......... .......... 52% 74.0K 73s
 10500K .......... .......... .......... .......... .......... 52%  151K 72s
 10550K .......... .......... .......... .......... .......... 53%  151K 72s
 10600K .......... .......... .......... .......... .......... 53%  100K 71s
 10650K .......... .......... .......... .......... .......... 53%  178K 71s
 10700K .......... .......... .......... .......... .......... 53%  139K 71s
 10750K .......... .......... .......... .......... .......... 54%  178K 70s
 10800K .......... .......... .......... .......... .......... 54%  113K 70s
 10850K .......... .......... .......... .......... .......... 54% 81.9K 70s
 10900K .......... .......... .......... .......... .......... 54%  145K 69s
 10950K .......... .......... .......... .......... .......... 55%  125K 69s
 11000K .......... .......... .......... .......... .......... 55%  121K 68s
 11050K .......... .......... .......... .......... .......... 55%  121K 68s
 11100K .......... .......... .......... .......... .......... 55%  151K 68s
 11150K .......... .......... .......... .......... .......... 56%  120K 67s
 11200K .......... .......... .......... .......... .......... 56%  201K 67s
 11250K .......... .......... .......... .......... .......... 56%  201K 66s
 11300K .......... .......... .......... .......... .......... 56%  149K 66s
 11350K .......... .......... .......... .......... .......... 57%  149K 66s
 11400K .......... .......... .......... .......... .......... 57%  115K 65s
 11450K .......... .......... .......... .......... .......... 57%  126K 65s
 11500K .......... .......... .......... .......... .......... 57%  168K 64s
 11550K .......... .......... .......... .......... .......... 58%  102K 64s
 11600K .......... .......... .......... .......... .......... 58%  108K 64s
 11650K .......... .......... .......... .......... .......... 58%  139K 63s
 11700K .......... .......... .......... .......... .......... 58%  104K 63s
 11750K .......... .......... .......... .......... .......... 59%  245K 63s
 11800K .......... .......... .......... .......... .......... 59%  110K 62s
 11850K .......... .......... .......... .......... .......... 59%  113K 62s
 11900K .......... .......... .......... .......... .......... 59% 66.1K 62s
 11950K .......... .......... .......... .......... .......... 60%  202K 61s
 12000K .......... .......... .......... .......... .......... 60%  120K 61s
 12050K .......... .......... .......... .......... .......... 60%  136K 61s
 12100K .......... .......... .......... .......... .......... 60% 86.2K 60s
 12150K .......... .......... .......... .......... .......... 61%  173K 60s
 12200K .......... .......... .......... .......... .......... 61%  101K 60s
 12250K .......... .......... .......... .......... .......... 61%  217K 59s
 12300K .......... .......... .......... .......... .......... 61%  113K 59s
 12350K .......... .......... .......... .......... .......... 62%  152K 58s
 12400K .......... .......... .......... .......... .......... 62%  120K 58s
 12450K .......... .......... .......... .......... .......... 62%  126K 58s
 12500K .......... .......... .......... .......... .......... 62%  175K 57s
 12550K .......... .......... .......... .......... .......... 63%  132K 57s
 12600K .......... .......... .......... .......... .......... 63%  170K 56s
 12650K .......... .......... .......... .......... .......... 63%  127K 56s
 12700K .......... .......... .......... .......... .......... 63%  125K 56s
 12750K .......... .......... .......... .......... .......... 64%  201K 55s
 12800K .......... .......... .......... .......... .......... 64%  127K 55s
 12850K .......... .......... .......... .......... .......... 64%  105K 54s
 12900K .......... .......... .......... .......... .......... 64%  148K 54s
 12950K .......... .......... .......... .......... .......... 65%  116K 54s
 13000K .......... .......... .......... .......... .......... 65% 90.0K 53s
 13050K .......... .......... .......... .......... .......... 65%  340K 53s
 13100K .......... .......... .......... .......... .......... 65%  109K 52s
 13150K .......... .......... .......... .......... .......... 66%  298K 52s
 13200K .......... .......... .......... .......... .......... 66%  150K 52s
 13250K .......... .......... .......... .......... .......... 66%  537K 51s
 13300K .......... .......... .......... .......... .......... 66%  212K 51s
 13350K .......... .......... .......... .......... .......... 67%  228K 50s
 13400K .......... .......... .......... .......... .......... 67%  204K 50s
 13450K .......... .......... .......... .......... .......... 67%  232K 49s
 13500K .......... .......... .......... .......... .......... 67%  175K 49s
 13550K .......... .......... .......... .......... .......... 68%  197K 48s
 13600K .......... .......... .......... .......... .......... 68%  113K 48s
 13650K .......... .......... .......... .......... .......... 68%  116K 48s
 13700K .......... .......... .......... .......... .......... 68%  161K 47s
 13750K .......... .......... .......... .......... .......... 69% 86.6K 47s
 13800K .......... .......... .......... .......... .......... 69%  128K 47s
 13850K .......... .......... .......... .......... .......... 69% 85.0K 46s
 13900K .......... .......... .......... .......... .......... 69%  155K 46s
 13950K .......... .......... .......... .......... .......... 70%  128K 46s
 14000K .......... .......... .......... .......... .......... 70% 84.2K 45s
 14050K .......... .......... .......... .......... .......... 70%  521K 45s
 14100K .......... .......... .......... .......... .......... 70%  157K 44s
 14150K .......... .......... .......... .......... .......... 71%  160K 44s
 14200K .......... .......... .......... .......... .......... 71%  143K 44s
 14250K .......... .......... .......... .......... .......... 71%  145K 43s
 14300K .......... .......... .......... .......... .......... 71%  116K 43s
 14350K .......... .......... .......... .......... .......... 72%  250K 42s
 14400K .......... .......... .......... .......... .......... 72%  114K 42s
 14450K .......... .......... .......... .......... .......... 72%  128K 42s
 14500K .......... .......... .......... .......... .......... 72%  187K 41s
 14550K .......... .......... .......... .......... .......... 73%  132K 41s
 14600K .......... .......... .......... .......... .......... 73%  153K 40s
 14650K .......... .......... .......... .......... .......... 73%  118K 40s
 14700K .......... .......... .......... .......... .......... 73%  233K 40s
 14750K .......... .......... .......... .......... .......... 74%  113K 39s
 14800K .......... .......... .......... .......... .......... 74%  256K 39s
 14850K .......... .......... .......... .......... .......... 74%  108K 38s
 14900K .......... .......... .......... .......... .......... 74% 99.4K 38s
 14950K .......... .......... .......... .......... .......... 75%  201K 38s
 15000K .......... .......... .......... .......... .......... 75% 78.6K 37s
 15050K .......... .......... .......... .......... .......... 75% 73.6K 37s
 15100K .......... .......... .......... .......... .......... 75%  144K 37s
 15150K .......... .......... .......... .......... .......... 76%  113K 36s
 15200K .......... .......... .......... .......... .......... 76% 70.1K 36s
 15250K .......... .......... .......... .......... .......... 76%  198K 36s
 15300K .......... .......... .......... .......... .......... 76%  108K 35s
 15350K .......... .......... .......... .......... .......... 77%  102K 35s
 15400K .......... .......... .......... .......... .......... 77%  145K 35s
 15450K .......... .......... .......... .......... .......... 77%  146K 34s
 15500K .......... .......... .......... .......... .......... 77% 97.6K 34s
 15550K .......... .......... .......... .......... .......... 78% 72.7K 34s
 15600K .......... .......... .......... .......... .......... 78%  244K 33s
 15650K .......... .......... .......... .......... .......... 78%  204K 33s
 15700K .......... .......... .......... .......... .......... 78%  248K 32s
 15750K .......... .......... .......... .......... .......... 79%  213K 32s
 15800K .......... .......... .......... .......... .......... 79%  154K 31s
 15850K .......... .......... .......... .......... .......... 79%  153K 31s
 15900K .......... .......... .......... .......... .......... 79%  119K 31s
 15950K .......... .......... .......... .......... .......... 80%  100K 30s
 16000K .......... .......... .......... .......... .......... 80%  107K 30s
 16050K .......... .......... .......... .......... .......... 80%  128K 30s
 16100K .......... .......... .......... .......... .......... 80%  169K 29s
 16150K .......... .......... .......... .......... .......... 81%  112K 29s
 16200K .......... .......... .......... .......... .......... 81%  256K 28s
 16250K .......... .......... .......... .......... .......... 81%  164K 28s
 16300K .......... .......... .......... .......... .......... 81%  145K 28s
 16350K .......... .......... .......... .......... .......... 82%  127K 27s
 16400K .......... .......... .......... .......... .......... 82%  155K 27s
 16450K .......... .......... .......... .......... .......... 82%  203K 26s
 16500K .......... .......... .......... .......... .......... 82%  127K 26s
 16550K .......... .......... .......... .......... .......... 83%  137K 26s
 16600K .......... .......... .......... .......... .......... 83%  110K 25s
 16650K .......... .......... .......... .......... .......... 83% 74.9K 25s
 16700K .......... .......... .......... .......... .......... 83%  114K 25s
 16750K .......... .......... .......... .......... .......... 84%  175K 24s
 16800K .......... .......... .......... .......... .......... 84%  205K 24s
 16850K .......... .......... .......... .......... .......... 84%  108K 24s
 16900K .......... .......... .......... .......... .......... 84%  203K 23s
 16950K .......... .......... .......... .......... .......... 85% 71.2K 23s
 17000K .......... .......... .......... .......... .......... 85%  102K 22s
 17050K .......... .......... .......... .......... .......... 85%  165K 22s
 17100K .......... .......... .......... .......... .......... 85%  134K 22s
 17150K .......... .......... .......... .......... .......... 86%  191K 21s
 17200K .......... .......... .......... .......... .......... 86%  124K 21s
 17250K .......... .......... .......... .......... .......... 86%  150K 20s
 17300K .......... .......... .......... .......... .......... 86%  201K 20s
 17350K .......... .......... .......... .......... .......... 87%  145K 20s
 17400K .......... .......... .......... .......... .......... 87%  171K 19s
 17450K .......... .......... .......... .......... .......... 87%  244K 19s
 17500K .......... .......... .......... .......... .......... 87%  199K 19s
 17550K .......... .......... .......... .......... .......... 88%  181K 18s
 17600K .......... .......... .......... .......... .......... 88%  107K 18s
 17650K .......... .......... .......... .......... .......... 88%  174K 17s
 17700K .......... .......... .......... .......... .......... 88% 96.8K 17s
 17750K .......... .......... .......... .......... .......... 89%  155K 17s
 17800K .......... .......... .......... .......... .......... 89%  109K 16s
 17850K .......... .......... .......... .......... .......... 89% 66.7K 16s
 17900K .......... .......... .......... .......... .......... 89%  255K 16s
 17950K .......... .......... .......... .......... .......... 90%  204K 15s
 18000K .......... .......... .......... .......... .......... 90%  128K 15s
 18050K .......... .......... .......... .......... .......... 90% 91.8K 14s
 18100K .......... .......... .......... .......... .......... 90%  172K 14s
 18150K .......... .......... .......... .......... .......... 91% 72.4K 14s
 18200K .......... .......... .......... .......... .......... 91%  264K 13s
 18250K .......... .......... .......... .......... .......... 91%  114K 13s
 18300K .......... .......... .......... .......... .......... 91%  137K 13s
 18350K .......... .......... .......... .......... .......... 92%  203K 12s
 18400K .......... .......... .......... .......... .......... 92%  139K 12s
 18450K .......... .......... .......... .......... .......... 92%  130K 11s
 18500K .......... .......... .......... .......... .......... 92% 76.9K 11s
 18550K .......... .......... .......... .......... .......... 93% 86.0K 11s
 18600K .......... .......... .......... .......... .......... 93%  114K 10s
 18650K .......... .......... .......... .......... .......... 93%  127K 10s
 18700K .......... .......... .......... .......... .......... 93% 77.8K 10s
 18750K .......... .......... .......... .......... .......... 94%  133K 9s
 18800K .......... .......... .......... .......... .......... 94%  117K 9s
 18850K .......... .......... .......... .......... .......... 94%  127K 8s
 18900K .......... .......... .......... .......... .......... 94% 82.2K 8s
 18950K .......... .......... .......... .......... .......... 95% 68.6K 8s
 19000K .......... .......... .......... .......... .......... 95%  141K 7s
 19050K .......... .......... .......... .......... .......... 95%  146K 7s
 19100K .......... .......... .......... .......... .......... 95%  201K 6s
 19150K .......... .......... .......... .......... .......... 96%  151K 6s
 19200K .......... .......... .......... .......... .......... 96%  141K 6s
 19250K .......... .......... .......... .......... .......... 96%  143K 5s
 19300K .......... .......... .......... .......... .......... 96%  206K 5s
 19350K .......... .......... .......... .......... .......... 97%  179K 5s
 19400K .......... .......... .......... .......... .......... 97%  127K 4s
 19450K .......... .......... .......... .......... .......... 97%  146K 4s
 19500K .......... .......... .......... .......... .......... 97%  178K 3s
 19550K .......... .......... .......... .......... .......... 98%  173K 3s
 19600K .......... .......... .......... .......... .......... 98%  124K 3s
 19650K .......... .......... .......... .......... .......... 98% 83.1K 2s
 19700K .......... .......... .......... .......... .......... 98%  202K 2s
 19750K .......... .......... .......... .......... .......... 99%  104K 2s
 19800K .......... .......... .......... .......... .......... 99%  126K 1s
 19850K .......... .......... .......... .......... .......... 99%  170K 1s
 19900K .......... .......... .......... .......... .......... 99%  151K 0s
 19950K .......... .......... .......... .......... ..........100%  169K 0s
 20000K                                                       100% 0.00 =2m32s

2020-07-27 18:28:25 (131 KB/s) - ‘random.1’ saved [20480000/20480000]


real	2m33.426s
user	0m2.526s
sys	0m1.557s
