Serving new connection: 50251770087f674e, version 512 from 10.0.0.1:38633
GET 10.1.0.1:6121/ugfiugizuegiugzeffg
Responding with 404
Info for stream 5 of 50251770087f674e
Path 0: sent 14 retrans 2 lost 0; rcv 8 rtt 64.474ms
Serving new connection: c6a5e66fdb114c26, version 512 from 10.0.0.1:40364
Info for stream 5 of 50251770087f674e
Path 0: sent 16 retrans 3 lost 0; rcv 11 rtt 60.819ms
GET 10.1.0.1:6121/random
Info for stream 5 of 50251770087f674e
Path 0: sent 17 retrans 4 lost 0; rcv 11 rtt 60.819ms
Responding with 200
Info for stream 5 of 50251770087f674e
Path 0: sent 18 retrans 5 lost 1; rcv 11 rtt 60.819ms
Info for stream 5 of 50251770087f674e
Path 0: sent 20 retrans 7 lost 3; rcv 11 rtt 60.819ms
Info for stream 5 of 50251770087f674e
Path 0: sent 21 retrans 8 lost 4; rcv 11 rtt 60.819ms
Info for stream 5 of 50251770087f674e
Path 0: sent 23 retrans 10 lost 6; rcv 11 rtt 60.819ms
Info for stream 5 of 50251770087f674e
Path 0: sent 24 retrans 11 lost 7; rcv 11 rtt 60.819ms
Info for stream 5 of 50251770087f674e
Path 0: sent 26 retrans 13 lost 9; rcv 11 rtt 60.819ms
Info for stream 5 of 50251770087f674e
Path 0: sent 27 retrans 14 lost 10; rcv 11 rtt 60.819ms
Closing connection 50251770087f674e
Info for stream 5 of c6a5e66fdb114c26
Path 0: sent 17302 retrans 842 lost 840; rcv 9034 rtt 50.498ms
Info for stream 5 of c6a5e66fdb114c26
Path 0: sent 17303 retrans 843 lost 840; rcv 9037 rtt 50.836ms
Info for stream 5 of c6a5e66fdb114c26
Path 0: sent 17304 retrans 844 lost 840; rcv 9037 rtt 50.836ms
Info for stream 5 of c6a5e66fdb114c26
Path 0: sent 17305 retrans 845 lost 841; rcv 9037 rtt 50.836ms
Info for stream 5 of c6a5e66fdb114c26
Path 0: sent 17307 retrans 847 lost 843; rcv 9037 rtt 50.836ms
Info for stream 5 of c6a5e66fdb114c26
Path 0: sent 17308 retrans 848 lost 844; rcv 9037 rtt 50.836ms
