2020/07/29 01:02:14 GET https://10.1.0.1:6121/random
2020/07/29 01:02:14 Starting new connection to 10.1.0.1 (0.0.0.0:48230 -> 10.1.0.1:6121), connectionID 65a4eff9d137b40, version 512
2020/07/29 01:02:14 Queueing packet 0x3 for later decryption
2020/07/29 01:04:00 Info for stream 5 of 65a4eff9d137b40
2020/07/29 01:04:00 Path 0: sent 4 retrans 0 lost 0; rcv 4
2020/07/29 01:04:00 Path 1: sent 6445 retrans 41 lost 40; rcv 11142
2020/07/29 01:04:00 Path 3: sent 2957 retrans 2 lost 0; rcv 5050
2020/07/29 01:04:00 1m46.014538507s
