--2020-07-28 03:11:30--  https://10.1.0.1/random
Connecting to 10.1.0.1:443... connected.
WARNING: cannot verify 10.1.0.1's certificate, issued by ‘/C=BE/ST=LLN/O=Internet Widgits Pty Ltd’:
  Self-signed certificate encountered.
    WARNING: certificate common name ‘’ doesn't match requested host name ‘10.1.0.1’.
HTTP request sent, awaiting response... 200 OK
Length: 20480000 (20M) [application/octet-stream]
Saving to: ‘random.1’

     0K .......... .......... .......... .......... ..........  0%  332K 60s
    50K .......... .......... .......... .......... ..........  0%  343K 59s
   100K .......... .......... .......... .......... ..........  0%  253K 65s
   150K .......... .......... .......... .......... ..........  1%  113K 93s
   200K .......... .......... .......... .......... ..........  1%  150K 1m40s
   250K .......... .......... .......... .......... ..........  1%  102K 1m55s
   300K .......... .......... .......... .......... ..........  1%  113K 2m3s
   350K .......... .......... .......... .......... ..........  2%  102K 2m12s
   400K .......... .......... .......... .......... ..........  2% 68.0K 2m29s
   450K .......... .......... .......... .......... ..........  2%  127K 2m29s
   500K .......... .......... .......... .......... ..........  2%  111K 2m31s
   550K .......... .......... .......... .......... ..........  3% 86.3K 2m37s
   600K .......... .......... .......... .......... ..........  3%  124K 2m36s
   650K .......... .......... .......... .......... ..........  3%  170K 2m33s
   700K .......... .......... .......... .......... ..........  3%  131K 2m32s
   750K .......... .......... .......... .......... ..........  4%  170K 2m29s
   800K .......... .......... .......... .......... ..........  4%  170K 2m27s
   850K .......... .......... .......... .......... ..........  4%  170K 2m25s
   900K .......... .......... .......... .......... ..........  4% 92.6K 2m27s
   950K .......... .......... .......... .......... ..........  5%  113K 2m28s
  1000K .......... .......... .......... .......... ..........  5%  145K 2m27s
  1050K .......... .......... .......... .......... ..........  5%  202K 2m24s
  1100K .......... .......... .......... .......... ..........  5%  170K 2m22s
  1150K .......... .......... .......... .......... ..........  6%  203K 2m20s
  1200K .......... .......... .......... .......... ..........  6%  128K 2m20s
  1250K .......... .......... .......... .......... ..........  6%  151K 2m19s
  1300K .......... .......... .......... .......... ..........  6%  140K 2m18s
  1350K .......... .......... .......... .......... ..........  7% 92.8K 2m20s
  1400K .......... .......... .......... .......... ..........  7%  116K 2m20s
  1450K .......... .......... .......... .......... ..........  7%  146K 2m20s
  1500K .......... .......... .......... .......... ..........  7%  163K 2m18s
  1550K .......... .......... .......... .......... ..........  8%  169K 2m17s
  1600K .......... .......... .......... .......... ..........  8%  170K 2m16s
  1650K .......... .......... .......... .......... ..........  8%  169K 2m15s
  1700K .......... .......... .......... .......... ..........  8%  203K 2m13s
  1750K .......... .......... .......... .......... ..........  9%  143K 2m12s
  1800K .......... .......... .......... .......... ..........  9%  128K 2m12s
  1850K .......... .......... .......... .......... ..........  9%  170K 2m11s
  1900K .......... .......... .......... .......... ..........  9%  202K 2m10s
  1950K .......... .......... .......... .......... .......... 10%  203K 2m9s
  2000K .......... .......... .......... .......... .......... 10%  253K 2m7s
  2050K .......... .......... .......... .......... .......... 10%  335K 2m5s
  2100K .......... .......... .......... .......... .......... 10%  145K 2m4s
  2150K .......... .......... .......... .......... .......... 11% 78.4K 2m6s
  2200K .......... .......... .......... .......... .......... 11% 68.8K 2m9s
  2250K .......... .......... .......... .......... .......... 11%  147K 2m8s
  2300K .......... .......... .......... .......... .......... 11%  163K 2m8s
  2350K .......... .......... .......... .......... .......... 12%  152K 2m7s
  2400K .......... .......... .......... .......... .......... 12%  140K 2m7s
  2450K .......... .......... .......... .......... .......... 12%  204K 2m5s
  2500K .......... .......... .......... .......... .......... 12%  203K 2m4s
  2550K .......... .......... .......... .......... .......... 13%  203K 2m3s
  2600K .......... .......... .......... .......... .......... 13%  127K 2m3s
  2650K .......... .......... .......... .......... .......... 13%  203K 2m2s
  2700K .......... .......... .......... .......... .......... 13%  254K 2m1s
  2750K .......... .......... .......... .......... .......... 14%  252K 1m59s
  2800K .......... .......... .......... .......... .......... 14%  128K 1m59s
  2850K .......... .......... .......... .......... .......... 14%  113K 2m0s
  2900K .......... .......... .......... .......... .......... 14% 92.8K 2m0s
  2950K .......... .......... .......... .......... .......... 15%  113K 2m0s
  3000K .......... .......... .......... .......... .......... 15% 84.3K 2m1s
  3050K .......... .......... .......... .......... .......... 15% 91.7K 2m2s
  3100K .......... .......... .......... .......... .......... 15% 37.3K 2m7s
  3150K .......... .......... .......... .......... .......... 16%  145K 2m6s
  3200K .......... .......... .......... .......... .......... 16%  146K 2m6s
  3250K .......... .......... .......... .......... .......... 16%  102K 2m6s
  3300K .......... .......... .......... .......... .......... 16%  127K 2m6s
  3350K .......... .......... .......... .......... .......... 17%  169K 2m5s
  3400K .......... .......... .......... .......... .......... 17%  127K 2m5s
  3450K .......... .......... .......... .......... .......... 17%  150K 2m4s
  3500K .......... .......... .......... .......... .......... 17%  170K 2m3s
  3550K .......... .......... .......... .......... .......... 18%  204K 2m2s
  3600K .......... .......... .......... .......... .......... 18%  242K 2m1s
  3650K .......... .......... .......... .......... .......... 18%  177K 2m1s
  3700K .......... .......... .......... .......... .......... 18%  162K 2m0s
  3750K .......... .......... .......... .......... .......... 19%  114K 2m0s
  3800K .......... .......... .......... .......... .......... 19%  145K 1m59s
  3850K .......... .......... .......... .......... .......... 19%  252K 1m58s
  3900K .......... .......... .......... .......... .......... 19%  204K 1m57s
  3950K .......... .......... .......... .......... .......... 20%  171K 1m57s
  4000K .......... .......... .......... .......... .......... 20%  113K 1m57s
  4050K .......... .......... .......... .......... .......... 20%  146K 1m56s
  4100K .......... .......... .......... .......... .......... 20%  145K 1m56s
  4150K .......... .......... .......... .......... .......... 21%  116K 1m56s
  4200K .......... .......... .......... .......... .......... 21%  127K 1m55s
  4250K .......... .......... .......... .......... .......... 21% 92.7K 1m56s
  4300K .......... .......... .......... .......... .......... 21% 92.6K 1m56s
  4350K .......... .......... .......... .......... .......... 22%  127K 1m56s
  4400K .......... .......... .......... .......... .......... 22% 94.7K 1m56s
  4450K .......... .......... .......... .......... .......... 22%  167K 1m55s
  4500K .......... .......... .......... .......... .......... 22%  100K 1m55s
  4550K .......... .......... .......... .......... .......... 23%  100K 1m55s
  4600K .......... .......... .......... .......... .......... 23%  102K 1m55s
  4650K .......... .......... .......... .......... .......... 23% 67.5K 1m56s
  4700K .......... .......... .......... .......... .......... 23%  127K 1m56s
  4750K .......... .......... .......... .......... .......... 24%  101K 1m56s
  4800K .......... .......... .......... .......... .......... 24% 84.5K 1m56s
  4850K .......... .......... .......... .......... .......... 24%  169K 1m55s
  4900K .......... .......... .......... .......... .......... 24%  146K 1m55s
  4950K .......... .......... .......... .......... .......... 25%  127K 1m55s
  5000K .......... .......... .......... .......... .......... 25%  113K 1m54s
  5050K .......... .......... .......... .......... .......... 25%  113K 1m54s
  5100K .......... .......... .......... .......... .......... 25%  145K 1m54s
  5150K .......... .......... .......... .......... .......... 26%  169K 1m53s
  5200K .......... .......... .......... .......... .......... 26%  145K 1m53s
  5250K .......... .......... .......... .......... .......... 26%  178K 1m52s
  5300K .......... .......... .......... .......... .......... 26%  127K 1m52s
  5350K .......... .......... .......... .......... .......... 27%  110K 1m51s
  5400K .......... .......... .......... .......... .......... 27%  102K 1m51s
  5450K .......... .......... .......... .......... .......... 27%  150K 1m51s
  5500K .......... .......... .......... .......... .......... 27%  145K 1m50s
  5550K .......... .......... .......... .......... .......... 28% 67.7K 1m51s
  5600K .......... .......... .......... .......... .......... 28% 64.6K 1m51s
  5650K .......... .......... .......... .......... .......... 28%  146K 1m51s
  5700K .......... .......... .......... .......... .......... 28%  141K 1m50s
  5750K .......... .......... .......... .......... .......... 29%  113K 1m50s
  5800K .......... .......... .......... .......... .......... 29% 46.3K 1m51s
  5850K .......... .......... .......... .......... .......... 29%  131K 1m51s
  5900K .......... .......... .......... .......... .......... 29%  164K 1m50s
  5950K .......... .......... .......... .......... .......... 30%  204K 1m50s
  6000K .......... .......... .......... .......... .......... 30%  145K 1m49s
  6050K .......... .......... .......... .......... .......... 30%  150K 1m49s
  6100K .......... .......... .......... .......... .......... 30%  146K 1m48s
  6150K .......... .......... .......... .......... .......... 31%  145K 1m48s
  6200K .......... .......... .......... .......... .......... 31%  102K 1m48s
  6250K .......... .......... .......... .......... .......... 31% 56.0K 1m48s
  6300K .......... .......... .......... .......... .......... 31% 86.3K 1m48s
  6350K .......... .......... .......... .......... .......... 32%  105K 1m48s
  6400K .......... .......... .......... .......... .......... 32%  114K 1m48s
  6450K .......... .......... .......... .......... .......... 32%  140K 1m47s
  6500K .......... .......... .......... .......... .......... 32%  150K 1m47s
  6550K .......... .......... .......... .......... .......... 33%  128K 1m46s
  6600K .......... .......... .......... .......... .......... 33% 73.0K 1m46s
  6650K .......... .......... .......... .......... .......... 33%  145K 1m46s
  6700K .......... .......... .......... .......... .......... 33%  170K 1m45s
  6750K .......... .......... .......... .......... .......... 34%  127K 1m45s
  6800K .......... .......... .......... .......... .......... 34%  145K 1m44s
  6850K .......... .......... .......... .......... .......... 34%  127K 1m44s
  6900K .......... .......... .......... .......... .......... 34%  130K 1m44s
  6950K .......... .......... .......... .......... .......... 35%  112K 1m43s
  7000K .......... .......... .......... .......... .......... 35%  169K 1m43s
  7050K .......... .......... .......... .......... .......... 35%  170K 1m42s
  7100K .......... .......... .......... .......... .......... 35%  131K 1m42s
  7150K .......... .......... .......... .......... .......... 36%  203K 1m41s
  7200K .......... .......... .......... .......... .......... 36% 92.6K 1m41s
  7250K .......... .......... .......... .......... .......... 36%  106K 1m41s
  7300K .......... .......... .......... .......... .......... 36%  243K 1m40s
  7350K .......... .......... .......... .......... .......... 37%  175K 99s
  7400K .......... .......... .......... .......... .......... 37%  168K 99s
  7450K .......... .......... .......... .......... .......... 37%  145K 98s
  7500K .......... .......... .......... .......... .......... 37%  146K 98s
  7550K .......... .......... .......... .......... .......... 38%  145K 97s
  7600K .......... .......... .......... .......... .......... 38% 72.8K 97s
  7650K .......... .......... .......... .......... .......... 38% 85.1K 97s
  7700K .......... .......... .......... .......... .......... 38%  113K 97s
  7750K .......... .......... .......... .......... .......... 39%  145K 97s
  7800K .......... .......... .......... .......... .......... 39%  113K 96s
  7850K .......... .......... .......... .......... .......... 39%  113K 96s
  7900K .......... .......... .......... .......... .......... 39% 59.4K 96s
  7950K .......... .......... .......... .......... .......... 40%  127K 96s
  8000K .......... .......... .......... .......... .......... 40% 85.0K 96s
  8050K .......... .......... .......... .......... .......... 40% 64.2K 96s
  8100K .......... .......... .......... .......... .......... 40%  116K 95s
  8150K .......... .......... .......... .......... .......... 41%  127K 95s
  8200K .......... .......... .......... .......... .......... 41%  144K 95s
  8250K .......... .......... .......... .......... .......... 41%  172K 94s
  8300K .......... .......... .......... .......... .......... 41%  127K 94s
  8350K .......... .......... .......... .......... .......... 42%  145K 93s
  8400K .......... .......... .......... .......... .......... 42%  131K 93s
  8450K .......... .......... .......... .......... .......... 42%  128K 92s
  8500K .......... .......... .......... .......... .......... 42%  131K 92s
  8550K .......... .......... .......... .......... .......... 43%  126K 91s
  8600K .......... .......... .......... .......... .......... 43% 92.7K 91s
  8650K .......... .......... .......... .......... .......... 43%  150K 91s
  8700K .......... .......... .......... .......... .......... 43%  126K 90s
  8750K .......... .......... .......... .......... .......... 44% 85.0K 90s
  8800K .......... .......... .......... .......... .......... 44%  131K 90s
  8850K .......... .......... .......... .......... .......... 44%  128K 89s
  8900K .......... .......... .......... .......... .......... 44% 72.6K 89s
  8950K .......... .......... .......... .......... .......... 45% 87.9K 89s
  9000K .......... .......... .......... .......... .......... 45% 78.5K 89s
  9050K .......... .......... .......... .......... .......... 45%  169K 88s
  9100K .......... .......... .......... .......... .......... 45%  145K 88s
  9150K .......... .......... .......... .......... .......... 46% 92.9K 88s
  9200K .......... .......... .......... .......... .......... 46%  102K 87s
  9250K .......... .......... .......... .......... .......... 46%  169K 87s
  9300K .......... .......... .......... .......... .......... 46%  128K 86s
  9350K .......... .......... .......... .......... .......... 47% 90.8K 86s
  9400K .......... .......... .......... .......... .......... 47% 94.7K 86s
  9450K .......... .......... .......... .......... .......... 47%  127K 85s
  9500K .......... .......... .......... .......... .......... 47%  150K 85s
  9550K .......... .......... .......... .......... .......... 48% 84.8K 85s
  9600K .......... .......... .......... .......... .......... 48%  113K 84s
  9650K .......... .......... .......... .......... .......... 48%  113K 84s
  9700K .......... .......... .......... .......... .......... 48%  115K 84s
  9750K .......... .......... .......... .......... .......... 49%  146K 83s
  9800K .......... .......... .......... .......... .......... 49%  145K 83s
  9850K .......... .......... .......... .......... .......... 49%  111K 82s
  9900K .......... .......... .......... .......... .......... 49% 68.5K 82s
  9950K .......... .......... .......... .......... .......... 50% 67.9K 82s
 10000K .......... .......... .......... .......... .......... 50% 94.6K 82s
 10050K .......... .......... .......... .......... .......... 50%  102K 82s
 10100K .......... .......... .......... .......... .......... 50%  102K 81s
 10150K .......... .......... .......... .......... .......... 51% 67.9K 81s
 10200K .......... .......... .......... .......... .......... 51% 84.9K 81s
 10250K .......... .......... .......... .......... .......... 51%  102K 81s
 10300K .......... .......... .......... .......... .......... 51%  102K 80s
 10350K .......... .......... .......... .......... .......... 52%  113K 80s
 10400K .......... .......... .......... .......... .......... 52% 59.6K 80s
 10450K .......... .......... .......... .......... .......... 52%  145K 79s
 10500K .......... .......... .......... .......... .......... 52%  170K 79s
 10550K .......... .......... .......... .......... .......... 53%  116K 78s
 10600K .......... .......... .......... .......... .......... 53%  145K 78s
 10650K .......... .......... .......... .......... .......... 53%  197K 77s
 10700K .......... .......... .......... .......... .......... 53%  203K 77s
 10750K .......... .......... .......... .......... .......... 54%  203K 76s
 10800K .......... .......... .......... .......... .......... 54%  203K 76s
 10850K .......... .......... .......... .......... .......... 54%  253K 75s
 10900K .......... .......... .......... .......... .......... 54%  170K 75s
 10950K .......... .......... .......... .......... .......... 55%  105K 74s
 11000K .......... .......... .......... .......... .......... 55% 63.8K 74s
 11050K .......... .......... .......... .......... .......... 55%  145K 74s
 11100K .......... .......... .......... .......... .......... 55%  204K 73s
 11150K .......... .......... .......... .......... .......... 56%  204K 72s
 11200K .......... .......... .......... .......... .......... 56%  127K 72s
 11250K .......... .......... .......... .......... .......... 56%  127K 72s
 11300K .......... .......... .......... .......... .......... 56%  169K 71s
 11350K .......... .......... .......... .......... .......... 57%  171K 71s
 11400K .......... .......... .......... .......... .......... 57%  202K 70s
 11450K .......... .......... .......... .......... .......... 57%  254K 70s
 11500K .......... .......... .......... .......... .......... 57%  127K 69s
 11550K .......... .......... .......... .......... .......... 58%  170K 69s
 11600K .......... .......... .......... .......... .......... 58%  204K 68s
 11650K .......... .......... .......... .......... .......... 58%  145K 68s
 11700K .......... .......... .......... .......... .......... 58% 78.4K 67s
 11750K .......... .......... .......... .......... .......... 59% 85.1K 67s
 11800K .......... .......... .......... .......... .......... 59% 78.0K 67s
 11850K .......... .......... .......... .......... .......... 59%  145K 66s
 11900K .......... .......... .......... .......... .......... 59%  255K 66s
 11950K .......... .......... .......... .......... .......... 60%  254K 65s
 12000K .......... .......... .......... .......... .......... 60%  254K 65s
 12050K .......... .......... .......... .......... .......... 60%  203K 64s
 12100K .......... .......... .......... .......... .......... 60%  214K 64s
 12150K .......... .......... .......... .......... .......... 61%  238K 63s
 12200K .......... .......... .......... .......... .......... 61%  145K 63s
 12250K .......... .......... .......... .......... .......... 61%  146K 62s
 12300K .......... .......... .......... .......... .......... 61% 46.0K 62s
 12350K .......... .......... .......... .......... .......... 62%  104K 62s
 12400K .......... .......... .......... .......... .......... 62% 68.0K 62s
 12450K .......... .......... .......... .......... .......... 62% 67.1K 62s
 12500K .......... .......... .......... .......... .......... 62%  127K 61s
 12550K .......... .......... .......... .......... .......... 63%  146K 61s
 12600K .......... .......... .......... .......... .......... 63%  128K 60s
 12650K .......... .......... .......... .......... .......... 63% 78.3K 60s
 12700K .......... .......... .......... .......... .......... 63% 78.4K 60s
 12750K .......... .......... .......... .......... .......... 64%  113K 59s
 12800K .......... .......... .......... .......... .......... 64%  105K 59s
 12850K .......... .......... .......... .......... .......... 64%  141K 58s
 12900K .......... .......... .......... .......... .......... 64%  127K 58s
 12950K .......... .......... .......... .......... .......... 65%  177K 58s
 13000K .......... .......... .......... .......... .......... 65%  140K 57s
 13050K .......... .......... .......... .......... .......... 65%  215K 57s
 13100K .......... .......... .......... .......... .......... 65%  252K 56s
 13150K .......... .......... .......... .......... .......... 66%  255K 56s
 13200K .......... .......... .......... .......... .......... 66%  169K 55s
 13250K .......... .......... .......... .......... .......... 66%  202K 55s
 13300K .......... .......... .......... .......... .......... 66%  147K 54s
 13350K .......... .......... .......... .......... .......... 67%  145K 54s
 13400K .......... .......... .......... .......... .......... 67% 53.5K 54s
 13450K .......... .......... .......... .......... .......... 67%  145K 53s
 13500K .......... .......... .......... .......... .......... 67%  169K 53s
 13550K .......... .......... .......... .......... .......... 68%  145K 52s
 13600K .......... .......... .......... .......... .......... 68%  171K 52s
 13650K .......... .......... .......... .......... .......... 68%  254K 51s
 13700K .......... .......... .......... .......... .......... 68%  144K 51s
 13750K .......... .......... .......... .......... .......... 69%  127K 50s
 13800K .......... .......... .......... .......... .......... 69%  113K 50s
 13850K .......... .......... .......... .......... .......... 69%  203K 50s
 13900K .......... .......... .......... .......... .......... 69%  170K 49s
 13950K .......... .......... .......... .......... .......... 70%  113K 49s
 14000K .......... .......... .......... .......... .......... 70%  127K 48s
 14050K .......... .......... .......... .......... .......... 70%  131K 48s
 14100K .......... .......... .......... .......... .......... 70%  127K 48s
 14150K .......... .......... .......... .......... .......... 71%  128K 47s
 14200K .......... .......... .......... .......... .......... 71% 63.6K 47s
 14250K .......... .......... .......... .......... .......... 71%  102K 46s
 14300K .......... .......... .......... .......... .......... 71%  113K 46s
 14350K .......... .......... .......... .......... .......... 72% 68.9K 46s
 14400K .......... .......... .......... .......... .......... 72%  101K 45s
 14450K .......... .......... .......... .......... .......... 72%  131K 45s
 14500K .......... .......... .......... .......... .......... 72%  203K 45s
 14550K .......... .......... .......... .......... .......... 73%  128K 44s
 14600K .......... .......... .......... .......... .......... 73%  145K 44s
 14650K .......... .......... .......... .......... .......... 73%  169K 43s
 14700K .......... .......... .......... .......... .......... 73%  169K 43s
 14750K .......... .......... .......... .......... .......... 74%  114K 42s
 14800K .......... .......... .......... .......... .......... 74%  117K 42s
 14850K .......... .......... .......... .......... .......... 74%  177K 42s
 14900K .......... .......... .......... .......... .......... 74% 59.7K 41s
 14950K .......... .......... .......... .......... .......... 75%  123K 41s
 15000K .......... .......... .......... .......... .......... 75%  104K 40s
 15050K .......... .......... .......... .......... .......... 75%  128K 40s
 15100K .......... .......... .......... .......... .......... 75%  203K 40s
 15150K .......... .......... .......... .......... .......... 76%  170K 39s
 15200K .......... .......... .......... .......... .......... 76%  126K 39s
 15250K .......... .......... .......... .......... .......... 76%  180K 38s
 15300K .......... .......... .......... .......... .......... 76%  145K 38s
 15350K .......... .......... .......... .......... .......... 77%  170K 37s
 15400K .......... .......... .......... .......... .......... 77%  128K 37s
 15450K .......... .......... .......... .......... .......... 77%  102K 37s
 15500K .......... .......... .......... .......... .......... 77%  128K 36s
 15550K .......... .......... .......... .......... .......... 78%  177K 36s
 15600K .......... .......... .......... .......... .......... 78% 83.4K 35s
 15650K .......... .......... .......... .......... .......... 78%  170K 35s
 15700K .......... .......... .......... .......... .......... 78%  170K 35s
 15750K .......... .......... .......... .......... .......... 79%  113K 34s
 15800K .......... .......... .......... .......... .......... 79% 78.3K 34s
 15850K .......... .......... .......... .......... .......... 79%  102K 33s
 15900K .......... .......... .......... .......... .......... 79%  102K 33s
 15950K .......... .......... .......... .......... .......... 80% 78.4K 33s
 16000K .......... .......... .......... .......... .......... 80% 85.0K 32s
 16050K .......... .......... .......... .......... .......... 80%  101K 32s
 16100K .......... .......... .......... .......... .......... 80%  113K 32s
 16150K .......... .......... .......... .......... .......... 81%  151K 31s
 16200K .......... .......... .......... .......... .......... 81%  124K 31s
 16250K .......... .......... .......... .......... .......... 81% 78.5K 30s
 16300K .......... .......... .......... .......... .......... 81% 64.4K 30s
 16350K .......... .......... .......... .......... .......... 82% 48.8K 30s
 16400K .......... .......... .......... .......... .......... 82%  124K 29s
 16450K .......... .......... .......... .......... .......... 82%  130K 29s
 16500K .......... .......... .......... .......... .......... 82%  141K 28s
 16550K .......... .......... .......... .......... .......... 83%  203K 28s
 16600K .......... .......... .......... .......... .......... 83%  145K 28s
 16650K .......... .......... .......... .......... .......... 83%  113K 27s
 16700K .......... .......... .......... .......... .......... 83%  254K 27s
 16750K .......... .......... .......... .......... .......... 84%  169K 26s
 16800K .......... .......... .......... .......... .......... 84%  113K 26s
 16850K .......... .......... .......... .......... .......... 84%  145K 25s
 16900K .......... .......... .......... .......... .......... 84%  126K 25s
 16950K .......... .......... .......... .......... .......... 85%  128K 25s
 17000K .......... .......... .......... .......... .......... 85%  127K 24s
 17050K .......... .......... .......... .......... .......... 85%  127K 24s
 17100K .......... .......... .......... .......... .......... 85% 68.0K 23s
 17150K .......... .......... .......... .......... .......... 86% 72.7K 23s
 17200K .......... .......... .......... .......... .......... 86% 64.8K 23s
 17250K .......... .......... .......... .......... .......... 86% 92.8K 22s
 17300K .......... .......... .......... .......... .......... 86%  127K 22s
 17350K .......... .......... .......... .......... .......... 87%  104K 22s
 17400K .......... .......... .......... .......... .......... 87%  125K 21s
 17450K .......... .......... .......... .......... .......... 87% 56.3K 21s
 17500K .......... .......... .......... .......... .......... 87%  114K 20s
 17550K .......... .......... .......... .......... .......... 88%  146K 20s
 17600K .......... .......... .......... .......... .......... 88%  177K 19s
 17650K .......... .......... .......... .......... .......... 88%  253K 19s
 17700K .......... .......... .......... .......... .......... 88%  253K 19s
 17750K .......... .......... .......... .......... .......... 89%  172K 18s
 17800K .......... .......... .......... .......... .......... 89%  130K 18s
 17850K .......... .......... .......... .......... .......... 89%  145K 17s
 17900K .......... .......... .......... .......... .......... 89%  102K 17s
 17950K .......... .......... .......... .......... .......... 90%  114K 17s
 18000K .......... .......... .......... .......... .......... 90%  131K 16s
 18050K .......... .......... .......... .......... .......... 90%  163K 16s
 18100K .......... .......... .......... .......... .......... 90%  254K 15s
 18150K .......... .......... .......... .......... .......... 91%  253K 15s
 18200K .......... .......... .......... .......... .......... 91%  127K 14s
 18250K .......... .......... .......... .......... .......... 91%  102K 14s
 18300K .......... .......... .......... .......... .......... 91%  131K 14s
 18350K .......... .......... .......... .......... .......... 92%  129K 13s
 18400K .......... .......... .......... .......... .......... 92%  202K 13s
 18450K .......... .......... .......... .......... .......... 92%  193K 12s
 18500K .......... .......... .......... .......... .......... 92%  251K 12s
 18550K .......... .......... .......... .......... .......... 93%  254K 11s
 18600K .......... .......... .......... .......... .......... 93% 92.9K 11s
 18650K .......... .......... .......... .......... .......... 93%  102K 11s
 18700K .......... .......... .......... .......... .......... 93%  113K 10s
 18750K .......... .......... .......... .......... .......... 94% 72.9K 10s
 18800K .......... .......... .......... .......... .......... 94%  102K 9s
 18850K .......... .......... .......... .......... .......... 94%  114K 9s
 18900K .......... .......... .......... .......... .......... 94%  102K 9s
 18950K .......... .......... .......... .......... .......... 95%  145K 8s
 19000K .......... .......... .......... .......... .......... 95%  113K 8s
 19050K .......... .......... .......... .......... .......... 95%  169K 7s
 19100K .......... .......... .......... .......... .......... 95%  197K 7s
 19150K .......... .......... .......... .......... .......... 96%  169K 7s
 19200K .......... .......... .......... .......... .......... 96%  145K 6s
 19250K .......... .......... .......... .......... .......... 96%  113K 6s
 19300K .......... .......... .......... .......... .......... 96% 93.0K 5s
 19350K .......... .......... .......... .......... .......... 97%  104K 5s
 19400K .......... .......... .......... .......... .......... 97%  113K 5s
 19450K .......... .......... .......... .......... .......... 97%  168K 4s
 19500K .......... .......... .......... .......... .......... 97%  127K 4s
 19550K .......... .......... .......... .......... .......... 98%  113K 3s
 19600K .......... .......... .......... .......... .......... 98% 93.5K 3s
 19650K .......... .......... .......... .......... .......... 98%  113K 2s
 19700K .......... .......... .......... .......... .......... 98%  113K 2s
 19750K .......... .......... .......... .......... .......... 99%  116K 2s
 19800K .......... .......... .......... .......... .......... 99%  102K 1s
 19850K .......... .......... .......... .......... .......... 99%  127K 1s
 19900K .......... .......... .......... .......... .......... 99% 63.5K 0s
 19950K .......... .......... .......... .......... ..........100% 92.4K 0s
 20000K                                                       100% 0.00 =2m45s

2020-07-28 03:14:16 (121 KB/s) - ‘random.1’ saved [20480000/20480000]


real	2m46.319s
user	0m2.547s
sys	0m1.191s
