--2020-07-23 01:08:11--  https://10.1.0.1/random
Connecting to 10.1.0.1:443... connected.
WARNING: cannot verify 10.1.0.1's certificate, issued by ‘/C=BE/ST=LLN/O=Internet Widgits Pty Ltd’:
  Self-signed certificate encountered.
    WARNING: certificate common name ‘’ doesn't match requested host name ‘10.1.0.1’.
HTTP request sent, awaiting response... 200 OK
Length: 20480000 (20M) [application/octet-stream]
Saving to: ‘random.1’

     0K .......... .......... .......... .......... ..........  0%  332K 60s
    50K .......... .......... .......... .......... ..........  0%  337K 60s
   100K .......... .......... .......... .......... ..........  0%  255K 66s
   150K .......... .......... .......... .......... ..........  1%  170K 78s
   200K .......... .......... .......... .......... ..........  1% 92.7K 1m45s
   250K .......... .......... .......... .......... ..........  1%  113K 1m56s
   300K .......... .......... .......... .......... ..........  1% 86.2K 2m12s
   350K .......... .......... .......... .......... ..........  2%  116K 2m16s
   400K .......... .......... .......... .......... ..........  2%  110K 2m21s
   450K .......... .......... .......... .......... ..........  2%  146K 2m20s
   500K .......... .......... .......... .......... ..........  2%  113K 2m22s
   550K .......... .......... .......... .......... ..........  3%  170K 2m19s
   600K .......... .......... .......... .......... ..........  3%  145K 2m19s
   650K .......... .......... .......... .......... ..........  3%  254K 2m14s
   700K .......... .......... .......... .......... ..........  3%  145K 2m13s
   750K .......... .......... .......... .......... ..........  4%  202K 2m11s
   800K .......... .......... .......... .......... ..........  4% 94.0K 2m15s
   850K .......... .......... .......... .......... ..........  4%  102K 2m17s
   900K .......... .......... .......... .......... ..........  4%  102K 2m20s
   950K .......... .......... .......... .......... ..........  5%  102K 2m22s
  1000K .......... .......... .......... .......... ..........  5% 92.5K 2m24s
  1050K .......... .......... .......... .......... ..........  5%  128K 2m24s
  1100K .......... .......... .......... .......... ..........  5%  113K 2m25s
  1150K .......... .......... .......... .......... ..........  6%  127K 2m24s
  1200K .......... .......... .......... .......... ..........  6%  127K 2m24s
  1250K .......... .......... .......... .......... ..........  6%  255K 2m21s
  1300K .......... .......... .......... .......... ..........  6%  253K 2m18s
  1350K .......... .......... .......... .......... ..........  7%  204K 2m16s
  1400K .......... .......... .......... .......... ..........  7%  145K 2m16s
  1450K .......... .......... .......... .......... ..........  7% 85.1K 2m18s
  1500K .......... .......... .......... .......... ..........  7%  115K 2m18s
  1550K .......... .......... .......... .......... ..........  8%  111K 2m19s
  1600K .......... .......... .......... .......... ..........  8%  170K 2m17s
  1650K .......... .......... .......... .......... ..........  8%  145K 2m17s
  1700K .......... .......... .......... .......... ..........  8%  145K 2m16s
  1750K .......... .......... .......... .......... ..........  9% 86.7K 2m18s
  1800K .......... .......... .......... .......... ..........  9%  128K 2m18s
  1850K .......... .......... .......... .......... ..........  9%  127K 2m17s
  1900K .......... .......... .......... .......... ..........  9%  169K 2m16s
  1950K .......... .......... .......... .......... .......... 10%  203K 2m15s
  2000K .......... .......... .......... .......... .......... 10% 92.6K 2m16s
  2050K .......... .......... .......... .......... .......... 10%  113K 2m16s
  2100K .......... .......... .......... .......... .......... 10%  145K 2m15s
  2150K .......... .......... .......... .......... .......... 11%  131K 2m15s
  2200K .......... .......... .......... .......... .......... 11%  195K 2m13s
  2250K .......... .......... .......... .......... .......... 11%  204K 2m12s
  2300K .......... .......... .......... .......... .......... 11%  169K 2m11s
  2350K .......... .......... .......... .......... .......... 12%  146K 2m11s
  2400K .......... .......... .......... .......... .......... 12% 92.4K 2m11s
  2450K .......... .......... .......... .......... .......... 12%  102K 2m12s
  2500K .......... .......... .......... .......... .......... 12%  127K 2m12s
  2550K .......... .......... .......... .......... .......... 13%  145K 2m11s
  2600K .......... .......... .......... .......... .......... 13% 95.0K 2m12s
  2650K .......... .......... .......... .......... .......... 13% 50.8K 2m15s
  2700K .......... .......... .......... .......... .......... 13% 92.7K 2m16s
  2750K .......... .......... .......... .......... .......... 14% 78.5K 2m17s
  2800K .......... .......... .......... .......... .......... 14%  116K 2m17s
  2850K .......... .......... .......... .......... .......... 14%  127K 2m16s
  2900K .......... .......... .......... .......... .......... 14%  145K 2m15s
  2950K .......... .......... .......... .......... .......... 15%  113K 2m15s
  3000K .......... .......... .......... .......... .......... 15%  113K 2m15s
  3050K .......... .......... .......... .......... .......... 15%  113K 2m15s
  3100K .......... .......... .......... .......... .......... 15% 84.9K 2m16s
  3150K .......... .......... .......... .......... .......... 16%  102K 2m16s
  3200K .......... .......... .......... .......... .......... 16%  127K 2m15s
  3250K .......... .......... .......... .......... .......... 16%  199K 2m14s
  3300K .......... .......... .......... .......... .......... 16%  202K 2m13s
  3350K .......... .......... .......... .......... .......... 17%  113K 2m13s
  3400K .......... .......... .......... .......... .......... 17%  102K 2m13s
  3450K .......... .......... .......... .......... .......... 17%  169K 2m12s
  3500K .......... .......... .......... .......... .......... 17%  217K 2m11s
  3550K .......... .......... .......... .......... .......... 18%  203K 2m10s
  3600K .......... .......... .......... .......... .......... 18%  191K 2m9s
  3650K .......... .......... .......... .......... .......... 18%  254K 2m7s
  3700K .......... .......... .......... .......... .......... 18%  202K 2m6s
  3750K .......... .......... .......... .......... .......... 19%  203K 2m5s
  3800K .......... .......... .......... .......... .......... 19%  127K 2m5s
  3850K .......... .......... .......... .......... .......... 19%  127K 2m5s
  3900K .......... .......... .......... .......... .......... 19%  127K 2m4s
  3950K .......... .......... .......... .......... .......... 20%  175K 2m3s
  4000K .......... .......... .......... .......... .......... 20%  196K 2m2s
  4050K .......... .......... .......... .......... .......... 20%  203K 2m2s
  4100K .......... .......... .......... .......... .......... 20%  169K 2m1s
  4150K .......... .......... .......... .......... .......... 21%  205K 2m0s
  4200K .......... .......... .......... .......... .......... 21%  145K 1m59s
  4250K .......... .......... .......... .......... .......... 21%  127K 1m59s
  4300K .......... .......... .......... .......... .......... 21%  146K 1m59s
  4350K .......... .......... .......... .......... .......... 22%  170K 1m58s
  4400K .......... .......... .......... .......... .......... 22%  102K 1m58s
  4450K .......... .......... .......... .......... .......... 22%  127K 1m58s
  4500K .......... .......... .......... .......... .......... 22%  114K 1m57s
  4550K .......... .......... .......... .......... .......... 23%  102K 1m57s
  4600K .......... .......... .......... .......... .......... 23% 94.5K 1m58s
  4650K .......... .......... .......... .......... .......... 23%  204K 1m57s
  4700K .......... .......... .......... .......... .......... 23%  175K 1m56s
  4750K .......... .......... .......... .......... .......... 24%  114K 1m56s
  4800K .......... .......... .......... .......... .......... 24% 92.5K 1m56s
  4850K .......... .......... .......... .......... .......... 24%  128K 1m56s
  4900K .......... .......... .......... .......... .......... 24%  128K 1m55s
  4950K .......... .......... .......... .......... .......... 25%  127K 1m55s
  5000K .......... .......... .......... .......... .......... 25% 92.5K 1m55s
  5050K .......... .......... .......... .......... .......... 25%  169K 1m54s
  5100K .......... .......... .......... .......... .......... 25%  127K 1m54s
  5150K .......... .......... .......... .......... .......... 26%  169K 1m53s
  5200K .......... .......... .......... .......... .......... 26%  102K 1m53s
  5250K .......... .......... .......... .......... .......... 26%  170K 1m53s
  5300K .......... .......... .......... .......... .......... 26%  178K 1m52s
  5350K .......... .......... .......... .......... .......... 27%  169K 1m51s
  5400K .......... .......... .......... .......... .......... 27%  101K 1m51s
  5450K .......... .......... .......... .......... .......... 27%  104K 1m51s
  5500K .......... .......... .......... .......... .......... 27%  124K 1m51s
  5550K .......... .......... .......... .......... .......... 28%  144K 1m50s
  5600K .......... .......... .......... .......... .......... 28%  169K 1m50s
  5650K .......... .......... .......... .......... .......... 28%  170K 1m49s
  5700K .......... .......... .......... .......... .......... 28%  145K 1m49s
  5750K .......... .......... .......... .......... .......... 29%  102K 1m49s
  5800K .......... .......... .......... .......... .......... 29%  102K 1m48s
  5850K .......... .......... .......... .......... .......... 29%  150K 1m48s
  5900K .......... .......... .......... .......... .......... 29%  165K 1m47s
  5950K .......... .......... .......... .......... .......... 30%  116K 1m47s
  6000K .......... .......... .......... .......... .......... 30%  146K 1m47s
  6050K .......... .......... .......... .......... .......... 30%  145K 1m46s
  6100K .......... .......... .......... .......... .......... 30%  142K 1m46s
  6150K .......... .......... .......... .......... .......... 31%  169K 1m45s
  6200K .......... .......... .......... .......... .......... 31%  113K 1m45s
  6250K .......... .......... .......... .......... .......... 31%  113K 1m45s
  6300K .......... .......... .......... .......... .......... 31%  169K 1m44s
  6350K .......... .......... .......... .......... .......... 32%  102K 1m44s
  6400K .......... .......... .......... .......... .......... 32%  116K 1m44s
  6450K .......... .......... .......... .......... .......... 32%  202K 1m43s
  6500K .......... .......... .......... .......... .......... 32%  203K 1m42s
  6550K .......... .......... .......... .......... .......... 33%  204K 1m42s
  6600K .......... .......... .......... .......... .......... 33%  145K 1m41s
  6650K .......... .......... .......... .......... .......... 33%  252K 1m40s
  6700K .......... .......... .......... .......... .......... 33%  203K 1m40s
  6750K .......... .......... .......... .......... .......... 34%  254K 99s
  6800K .......... .......... .......... .......... .......... 34%  145K 99s
  6850K .......... .......... .......... .......... .......... 34%  113K 98s
  6900K .......... .......... .......... .......... .......... 34%  102K 98s
  6950K .......... .......... .......... .......... .......... 35% 29.6K 1m40s
  7000K .......... .......... .......... .......... .......... 35%  113K 1m40s
  7050K .......... .......... .......... .......... .......... 35% 64.5K 1m40s
  7100K .......... .......... .......... .......... .......... 35%  127K 1m40s
  7150K .......... .......... .......... .......... .......... 36% 77.4K 1m40s
  7200K .......... .......... .......... .......... .......... 36% 50.7K 1m41s
  7250K .......... .......... .......... .......... .......... 36%  131K 1m40s
  7300K .......... .......... .......... .......... .......... 36%  172K 1m40s
  7350K .......... .......... .......... .......... .......... 37%  204K 99s
  7400K .......... .......... .......... .......... .......... 37%  241K 98s
  7450K .......... .......... .......... .......... .......... 37%  213K 98s
  7500K .......... .......... .......... .......... .......... 37%  177K 97s
  7550K .......... .......... .......... .......... .......... 38%  145K 97s
  7600K .......... .......... .......... .......... .......... 38%  145K 96s
  7650K .......... .......... .......... .......... .......... 38%  253K 96s
  7700K .......... .......... .......... .......... .......... 38%  254K 95s
  7750K .......... .......... .......... .......... .......... 39%  255K 94s
  7800K .......... .......... .......... .......... .......... 39%  203K 94s
  7850K .......... .......... .......... .......... .......... 39%  213K 93s
  7900K .......... .......... .......... .......... .......... 39%  240K 92s
  7950K .......... .......... .......... .......... .......... 40%  255K 92s
  8000K .......... .......... .......... .......... .......... 40%  203K 91s
  8050K .......... .......... .......... .......... .......... 40%  169K 91s
  8100K .......... .......... .......... .......... .......... 40%  203K 90s
  8150K .......... .......... .......... .......... .......... 41%  113K 90s
  8200K .......... .......... .......... .......... .......... 41% 78.3K 90s
  8250K .......... .......... .......... .......... .......... 41% 92.8K 89s
  8300K .......... .......... .......... .......... .......... 41%  169K 89s
  8350K .......... .......... .......... .......... .......... 42%  202K 88s
  8400K .......... .......... .......... .......... .......... 42%  169K 88s
  8450K .......... .......... .......... .......... .......... 42%  203K 87s
  8500K .......... .......... .......... .......... .......... 42%  170K 87s
  8550K .......... .......... .......... .......... .......... 43%  127K 86s
  8600K .......... .......... .......... .......... .......... 43%  113K 86s
  8650K .......... .......... .......... .......... .......... 43%  127K 86s
  8700K .......... .......... .......... .......... .......... 43%  204K 85s
  8750K .......... .......... .......... .......... .......... 44%  253K 85s
  8800K .......... .......... .......... .......... .......... 44%  145K 84s
  8850K .......... .......... .......... .......... .......... 44%  169K 84s
  8900K .......... .......... .......... .......... .......... 44% 92.9K 84s
  8950K .......... .......... .......... .......... .......... 45%  113K 83s
  9000K .......... .......... .......... .......... .......... 45%  113K 83s
  9050K .......... .......... .......... .......... .......... 45%  213K 82s
  9100K .......... .......... .......... .......... .......... 45%  195K 82s
  9150K .......... .......... .......... .......... .......... 46%  113K 82s
  9200K .......... .......... .......... .......... .......... 46%  104K 81s
  9250K .......... .......... .......... .......... .......... 46%  113K 81s
  9300K .......... .......... .......... .......... .......... 46%  204K 81s
  9350K .......... .......... .......... .......... .......... 47%  203K 80s
  9400K .......... .......... .......... .......... .......... 47%  127K 80s
  9450K .......... .......... .......... .......... .......... 47% 92.4K 79s
  9500K .......... .......... .......... .......... .......... 47%  113K 79s
  9550K .......... .......... .......... .......... .......... 48% 49.0K 79s
  9600K .......... .......... .......... .......... .......... 48% 84.7K 79s
  9650K .......... .......... .......... .......... .......... 48%  146K 79s
  9700K .......... .......... .......... .......... .......... 48%  127K 78s
  9750K .......... .......... .......... .......... .......... 49%  113K 78s
  9800K .......... .......... .......... .......... .......... 49%  151K 78s
  9850K .......... .......... .......... .......... .......... 49%  238K 77s
  9900K .......... .......... .......... .......... .......... 49%  256K 77s
  9950K .......... .......... .......... .......... .......... 50%  252K 76s
 10000K .......... .......... .......... .......... .......... 50%  176K 76s
 10050K .......... .......... .......... .......... .......... 50%  315K 75s
 10100K .......... .......... .......... .......... .......... 50%  254K 74s
 10150K .......... .......... .......... .......... .......... 51%  254K 74s
 10200K .......... .......... .......... .......... .......... 51%  152K 73s
 10250K .......... .......... .......... .......... .......... 51%  192K 73s
 10300K .......... .......... .......... .......... .......... 51%  203K 72s
 10350K .......... .......... .......... .......... .......... 52%  255K 72s
 10400K .......... .......... .......... .......... .......... 52% 92.4K 72s
 10450K .......... .......... .......... .......... .......... 52%  130K 71s
 10500K .......... .......... .......... .......... .......... 52%  204K 71s
 10550K .......... .......... .......... .......... .......... 53%  170K 70s
 10600K .......... .......... .......... .......... .......... 53%  115K 70s
 10650K .......... .......... .......... .......... .......... 53%  203K 70s
 10700K .......... .......... .......... .......... .......... 53%  203K 69s
 10750K .......... .......... .......... .......... .......... 54%  338K 69s
 10800K .......... .......... .......... .......... .......... 54%  146K 68s
 10850K .......... .......... .......... .......... .......... 54%  101K 68s
 10900K .......... .......... .......... .......... .......... 54%  113K 68s
 10950K .......... .......... .......... .......... .......... 55%  170K 67s
 11000K .......... .......... .......... .......... .......... 55%  145K 67s
 11050K .......... .......... .......... .......... .......... 55%  113K 66s
 11100K .......... .......... .......... .......... .......... 55%  145K 66s
 11150K .......... .......... .......... .......... .......... 56%  170K 66s
 11200K .......... .......... .......... .......... .......... 56%  113K 65s
 11250K .......... .......... .......... .......... .......... 56%  150K 65s
 11300K .......... .......... .......... .......... .......... 56%  253K 64s
 11350K .......... .......... .......... .......... .......... 57%  253K 64s
 11400K .......... .......... .......... .......... .......... 57%  128K 63s
 11450K .......... .......... .......... .......... .......... 57%  145K 63s
 11500K .......... .......... .......... .......... .......... 57%  145K 63s
 11550K .......... .......... .......... .......... .......... 58%  170K 62s
 11600K .......... .......... .......... .......... .......... 58% 92.5K 62s
 11650K .......... .......... .......... .......... .......... 58% 43.9K 62s
 11700K .......... .......... .......... .......... .......... 58% 92.7K 62s
 11750K .......... .......... .......... .......... .......... 59%  150K 62s
 11800K .......... .......... .......... .......... .......... 59%  127K 61s
 11850K .......... .......... .......... .......... .......... 59%  113K 61s
 11900K .......... .......... .......... .......... .......... 59% 92.3K 61s
 11950K .......... .......... .......... .......... .......... 60%  130K 60s
 12000K .......... .......... .......... .......... .......... 60%  203K 60s
 12050K .......... .......... .......... .......... .......... 60%  169K 59s
 12100K .......... .......... .......... .......... .......... 60%  127K 59s
 12150K .......... .......... .......... .......... .......... 61% 72.8K 59s
 12200K .......... .......... .......... .......... .......... 61% 60.0K 59s
 12250K .......... .......... .......... .......... .......... 61% 92.6K 58s
 12300K .......... .......... .......... .......... .......... 61% 77.9K 58s
 12350K .......... .......... .......... .......... .......... 62% 78.3K 58s
 12400K .......... .......... .......... .......... .......... 62%  113K 58s
 12450K .......... .......... .......... .......... .......... 62%  170K 57s
 12500K .......... .......... .......... .......... .......... 62%  176K 57s
 12550K .......... .......... .......... .......... .......... 63%  205K 56s
 12600K .......... .......... .......... .......... .......... 63% 92.6K 56s
 12650K .......... .......... .......... .......... .......... 63%  145K 56s
 12700K .......... .......... .......... .......... .......... 63%  128K 55s
 12750K .......... .......... .......... .......... .......... 64% 72.8K 55s
 12800K .......... .......... .......... .......... .......... 64%  113K 55s
 12850K .......... .......... .......... .......... .......... 64%  150K 54s
 12900K .......... .......... .......... .......... .......... 64%  169K 54s
 12950K .......... .......... .......... .......... .......... 65%  254K 53s
 13000K .......... .......... .......... .......... .......... 65% 68.0K 53s
 13050K .......... .......... .......... .......... .......... 65% 97.8K 53s
 13100K .......... .......... .......... .......... .......... 65%  204K 52s
 13150K .......... .......... .......... .......... .......... 66%  253K 52s
 13200K .......... .......... .......... .......... .......... 66%  202K 51s
 13250K .......... .......... .......... .......... .......... 66%  338K 51s
 13300K .......... .......... .......... .......... .......... 66%  169K 51s
 13350K .......... .......... .......... .......... .......... 67%  113K 50s
 13400K .......... .......... .......... .......... .......... 67% 84.8K 50s
 13450K .......... .......... .......... .......... .......... 67% 85.0K 50s
 13500K .......... .......... .......... .......... .......... 67%  114K 49s
 13550K .......... .......... .......... .......... .......... 68%  102K 49s
 13600K .......... .......... .......... .......... .......... 68%  102K 49s
 13650K .......... .......... .......... .......... .......... 68% 92.8K 48s
 13700K .......... .......... .......... .......... .......... 68%  151K 48s
 13750K .......... .......... .......... .......... .......... 69%  113K 48s
 13800K .......... .......... .......... .......... .......... 69% 91.5K 47s
 13850K .......... .......... .......... .......... .......... 69% 85.9K 47s
 13900K .......... .......... .......... .......... .......... 69%  150K 47s
 13950K .......... .......... .......... .......... .......... 70%  172K 46s
 14000K .......... .......... .......... .......... .......... 70%  203K 46s
 14050K .......... .......... .......... .......... .......... 70%  317K 45s
 14100K .......... .......... .......... .......... .......... 70%  255K 45s
 14150K .......... .......... .......... .......... .......... 71%  214K 44s
 14200K .......... .......... .......... .......... .......... 71%  204K 44s
 14250K .......... .......... .......... .......... .......... 71%  169K 43s
 14300K .......... .......... .......... .......... .......... 71%  337K 43s
 14350K .......... .......... .......... .......... .......... 72%  202K 43s
 14400K .......... .......... .......... .......... .......... 72%  202K 42s
 14450K .......... .......... .......... .......... .......... 72%  204K 42s
 14500K .......... .......... .......... .......... .......... 72%  146K 41s
 14550K .......... .......... .......... .......... .......... 73%  102K 41s
 14600K .......... .......... .......... .......... .......... 73% 63.7K 41s
 14650K .......... .......... .......... .......... .......... 73% 60.0K 40s
 14700K .......... .......... .......... .......... .......... 73% 48.6K 40s
 14750K .......... .......... .......... .......... .......... 74% 42.1K 40s
 14800K .......... .......... .......... .......... .......... 74%  102K 40s
 14850K .......... .......... .......... .......... .......... 74% 56.3K 40s
 14900K .......... .......... .......... .......... .......... 74% 72.9K 39s
 14950K .......... .......... .......... .......... .......... 75%  113K 39s
 15000K .......... .......... .......... .......... .......... 75% 56.7K 39s
 15050K .......... .......... .......... .......... .......... 75%  117K 38s
 15100K .......... .......... .......... .......... .......... 75%  145K 38s
 15150K .......... .......... .......... .......... .......... 76%  202K 38s
 15200K .......... .......... .......... .......... .......... 76%  171K 37s
 15250K .......... .......... .......... .......... .......... 76%  203K 37s
 15300K .......... .......... .......... .......... .......... 76%  145K 36s
 15350K .......... .......... .......... .......... .......... 77%  169K 36s
 15400K .......... .......... .......... .......... .......... 77%  102K 36s
 15450K .......... .......... .......... .......... .......... 77%  151K 35s
 15500K .......... .......... .......... .......... .......... 77%  145K 35s
 15550K .......... .......... .......... .......... .......... 78%  146K 34s
 15600K .......... .......... .......... .......... .......... 78%  202K 34s
 15650K .......... .......... .......... .......... .......... 78%  113K 33s
 15700K .......... .......... .......... .......... .......... 78% 92.4K 33s
 15750K .......... .......... .......... .......... .......... 79%  146K 33s
 15800K .......... .......... .......... .......... .......... 79%  169K 32s
 15850K .......... .......... .......... .......... .......... 79%  145K 32s
 15900K .......... .......... .......... .......... .......... 79%  105K 32s
 15950K .......... .......... .......... .......... .......... 80% 99.7K 31s
 16000K .......... .......... .......... .......... .......... 80%  113K 31s
 16050K .......... .......... .......... .......... .......... 80% 92.7K 30s
 16100K .......... .......... .......... .......... .......... 80%  113K 30s
 16150K .......... .......... .......... .......... .......... 81%  126K 30s
 16200K .......... .......... .......... .......... .......... 81% 92.6K 29s
 16250K .......... .......... .......... .......... .......... 81% 74.1K 29s
 16300K .......... .......... .......... .......... .......... 81%  113K 29s
 16350K .......... .......... .......... .......... .......... 82%  127K 28s
 16400K .......... .......... .......... .......... .......... 82%  104K 28s
 16450K .......... .......... .......... .......... .......... 82%  102K 27s
 16500K .......... .......... .......... .......... .......... 82%  128K 27s
 16550K .......... .......... .......... .......... .......... 83%  116K 27s
 16600K .......... .......... .......... .......... .......... 83% 92.8K 26s
 16650K .......... .......... .......... .......... .......... 83%  132K 26s
 16700K .......... .......... .......... .......... .......... 83%  127K 26s
 16750K .......... .......... .......... .......... .......... 84%  102K 25s
 16800K .......... .......... .......... .......... .......... 84%  145K 25s
 16850K .......... .......... .......... .......... .......... 84%  170K 24s
 16900K .......... .......... .......... .......... .......... 84%  131K 24s
 16950K .......... .......... .......... .......... .......... 85%  145K 24s
 17000K .......... .......... .......... .......... .......... 85%  145K 23s
 17050K .......... .......... .......... .......... .......... 85%  145K 23s
 17100K .......... .......... .......... .......... .......... 85%  145K 22s
 17150K .......... .......... .......... .......... .......... 86%  145K 22s
 17200K .......... .......... .......... .......... .......... 86%  127K 22s
 17250K .......... .......... .......... .......... .......... 86%  215K 21s
 17300K .......... .......... .......... .......... .......... 86%  203K 21s
 17350K .......... .......... .......... .......... .......... 87%  252K 20s
 17400K .......... .......... .......... .......... .......... 87%  126K 20s
 17450K .......... .......... .......... .......... .......... 87%  113K 20s
 17500K .......... .......... .......... .......... .......... 87%  102K 19s
 17550K .......... .......... .......... .......... .......... 88%  169K 19s
 17600K .......... .......... .......... .......... .......... 88%  146K 18s
 17650K .......... .......... .......... .......... .......... 88%  127K 18s
 17700K .......... .......... .......... .......... .......... 88%  114K 18s
 17750K .......... .......... .......... .......... .......... 89%  176K 17s
 17800K .......... .......... .......... .......... .......... 89%  113K 17s
 17850K .......... .......... .......... .......... .......... 89%  102K 16s
 17900K .......... .......... .......... .......... .......... 89%  127K 16s
 17950K .......... .......... .......... .......... .......... 90%  145K 16s
 18000K .......... .......... .......... .......... .......... 90%  175K 15s
 18050K .......... .......... .......... .......... .......... 90%  152K 15s
 18100K .......... .......... .......... .......... .......... 90%  127K 14s
 18150K .......... .......... .......... .......... .......... 91%  146K 14s
 18200K .......... .......... .......... .......... .......... 91%  170K 14s
 18250K .......... .......... .......... .......... .......... 91% 92.6K 13s
 18300K .......... .......... .......... .......... .......... 91%  102K 13s
 18350K .......... .......... .......... .......... .......... 92%  146K 13s
 18400K .......... .......... .......... .......... .......... 92%  113K 12s
 18450K .......... .......... .......... .......... .......... 92%  169K 12s
 18500K .......... .......... .......... .......... .......... 92%  169K 11s
 18550K .......... .......... .......... .......... .......... 93% 72.8K 11s
 18600K .......... .......... .......... .......... .......... 93%  127K 11s
 18650K .......... .......... .......... .......... .......... 93%  127K 10s
 18700K .......... .......... .......... .......... .......... 93%  145K 10s
 18750K .......... .......... .......... .......... .......... 94%  113K 9s
 18800K .......... .......... .......... .......... .......... 94%  145K 9s
 18850K .......... .......... .......... .......... .......... 94%  253K 9s
 18900K .......... .......... .......... .......... .......... 94%  255K 8s
 18950K .......... .......... .......... .......... .......... 95%  339K 8s
 19000K .......... .......... .......... .......... .......... 95%  253K 7s
 19050K .......... .......... .......... .......... .......... 95%  337K 7s
 19100K .......... .......... .......... .......... .......... 95%  203K 7s
 19150K .......... .......... .......... .......... .......... 96%  336K 6s
 19200K .......... .......... .......... .......... .......... 96%  127K 6s
 19250K .......... .......... .......... .......... .......... 96% 73.0K 5s
 19300K .......... .......... .......... .......... .......... 96% 78.4K 5s
 19350K .......... .......... .......... .......... .......... 97%  113K 5s
 19400K .......... .......... .......... .......... .......... 97%  127K 4s
 19450K .......... .......... .......... .......... .......... 97%  113K 4s
 19500K .......... .......... .......... .......... .......... 97%  116K 4s
 19550K .......... .......... .......... .......... .......... 98%  195K 3s
 19600K .......... .......... .......... .......... .......... 98%  177K 3s
 19650K .......... .......... .......... .......... .......... 98%  171K 2s
 19700K .......... .......... .......... .......... .......... 98%  163K 2s
 19750K .......... .......... .......... .......... .......... 99%  203K 2s
 19800K .......... .......... .......... .......... .......... 99%  146K 1s
 19850K .......... .......... .......... .......... .......... 99%  145K 1s
 19900K .......... .......... .......... .......... .......... 99%  127K 0s
 19950K .......... .......... .......... .......... ..........100%  146K 0s
 20000K                                                       100% 0.00 =2m35s

2020-07-23 01:10:47 (129 KB/s) - ‘random.1’ saved [20480000/20480000]


real	2m36.232s
user	0m2.508s
sys	0m1.156s
