--2020-07-27 15:54:49--  https://10.1.0.1/random
Connecting to 10.1.0.1:443... connected.
WARNING: cannot verify 10.1.0.1's certificate, issued by ‘/C=BE/ST=LLN/O=Internet Widgits Pty Ltd’:
  Self-signed certificate encountered.
    WARNING: certificate common name ‘’ doesn't match requested host name ‘10.1.0.1’.
HTTP request sent, awaiting response... 200 OK
Length: 20480000 (20M) [application/octet-stream]
Saving to: ‘random.1’

     0K .......... .......... .......... .......... ..........  0%  337K 59s
    50K .......... .......... .......... .......... ..........  0%  338K 59s
   100K .......... .......... .......... .......... ..........  0%  169K 78s
   150K .......... .......... .......... .......... ..........  1%  145K 93s
   200K .......... .......... .......... .......... ..........  1%  145K 1m41s
   250K .......... .......... .......... .......... ..........  1%  128K 1m50s
   300K .......... .......... .......... .......... ..........  1%  113K 1m59s
   350K .......... .......... .......... .......... ..........  2%  131K 2m2s
   400K .......... .......... .......... .......... ..........  2%  169K 2m1s
   450K .......... .......... .......... .......... ..........  2%  146K 2m2s
   500K .......... .......... .......... .......... ..........  2%  170K 2m1s
   550K .......... .......... .......... .......... ..........  3%  111K 2m5s
   600K .......... .......... .......... .......... ..........  3%  112K 2m9s
   650K .......... .......... .......... .......... ..........  3% 86.4K 2m15s
   700K .......... .......... .......... .......... ..........  3%  142K 2m15s
   750K .......... .......... .......... .......... ..........  4% 85.0K 2m20s
   800K .......... .......... .......... .......... ..........  4% 94.2K 2m24s
   850K .......... .......... .......... .......... ..........  4%  146K 2m23s
   900K .......... .......... .......... .......... ..........  4%  145K 2m22s
   950K .......... .......... .......... .......... ..........  5%  145K 2m21s
  1000K .......... .......... .......... .......... ..........  5%  113K 2m22s
  1050K .......... .......... .......... .......... ..........  5% 92.5K 2m24s
  1100K .......... .......... .......... .......... ..........  5%  102K 2m25s
  1150K .......... .......... .......... .......... ..........  6%  128K 2m25s
  1200K .......... .......... .......... .......... ..........  6%  102K 2m26s
  1250K .......... .......... .......... .......... ..........  6% 67.4K 2m31s
  1300K .......... .......... .......... .......... ..........  6%  116K 2m31s
  1350K .......... .......... .......... .......... ..........  7%  127K 2m30s
  1400K .......... .......... .......... .......... ..........  7% 92.5K 2m32s
  1450K .......... .......... .......... .......... ..........  7% 67.9K 2m35s
  1500K .......... .......... .......... .......... ..........  7%  114K 2m35s
  1550K .......... .......... .......... .......... ..........  8%  113K 2m35s
  1600K .......... .......... .......... .......... ..........  8%  115K 2m35s
  1650K .......... .......... .......... .......... ..........  8%  111K 2m35s
  1700K .......... .......... .......... .......... ..........  8% 78.4K 2m36s
  1750K .......... .......... .......... .......... ..........  9% 92.8K 2m37s
  1800K .......... .......... .......... .......... ..........  9%  113K 2m37s
  1850K .......... .......... .......... .......... ..........  9%  131K 2m36s
  1900K .......... .......... .......... .......... ..........  9%  113K 2m36s
  1950K .......... .......... .......... .......... .......... 10% 53.5K 2m40s
  2000K .......... .......... .......... .......... .......... 10% 67.6K 2m42s
  2050K .......... .......... .......... .......... .......... 10%  127K 2m41s
  2100K .......... .......... .......... .......... .......... 10% 92.7K 2m41s
  2150K .......... .......... .......... .......... .......... 11%  145K 2m40s
  2200K .......... .......... .......... .......... .......... 11%  102K 2m40s
  2250K .......... .......... .......... .......... .......... 11% 84.9K 2m40s
  2300K .......... .......... .......... .......... .......... 11%  131K 2m39s
  2350K .......... .......... .......... .......... .......... 12%  196K 2m37s
  2400K .......... .......... .......... .......... .......... 12%  113K 2m37s
  2450K .......... .......... .......... .......... .......... 12%  127K 2m36s
  2500K .......... .......... .......... .......... .......... 12%  127K 2m35s
  2550K .......... .......... .......... .......... .......... 13%  204K 2m34s
  2600K .......... .......... .......... .......... .......... 13%  127K 2m33s
  2650K .......... .......... .......... .......... .......... 13%  145K 2m32s
  2700K .......... .......... .......... .......... .......... 13% 92.7K 2m32s
  2750K .......... .......... .......... .......... .......... 14%  104K 2m32s
  2800K .......... .......... .......... .......... .......... 14%  108K 2m31s
  2850K .......... .......... .......... .......... .......... 14%  132K 2m31s
  2900K .......... .......... .......... .......... .......... 14% 78.1K 2m31s
  2950K .......... .......... .......... .......... .......... 15%  169K 2m30s
  3000K .......... .......... .......... .......... .......... 15%  202K 2m29s
  3050K .......... .......... .......... .......... .......... 15%  128K 2m28s
  3100K .......... .......... .......... .......... .......... 15%  102K 2m28s
  3150K .......... .......... .......... .......... .......... 16%  102K 2m28s
  3200K .......... .......... .......... .......... .......... 16% 92.9K 2m28s
  3250K .......... .......... .......... .......... .......... 16% 37.2K 2m32s
  3300K .......... .......... .......... .......... .......... 16%  113K 2m31s
  3350K .......... .......... .......... .......... .......... 17%  114K 2m31s
  3400K .......... .......... .......... .......... .......... 17%  105K 2m30s
  3450K .......... .......... .......... .......... .......... 17%  102K 2m30s
  3500K .......... .......... .......... .......... .......... 17%  151K 2m29s
  3550K .......... .......... .......... .......... .......... 18%  113K 2m29s
  3600K .......... .......... .......... .......... .......... 18% 78.3K 2m29s
  3650K .......... .......... .......... .......... .......... 18%  128K 2m28s
  3700K .......... .......... .......... .......... .......... 18%  169K 2m27s
  3750K .......... .......... .......... .......... .......... 19%  145K 2m26s
  3800K .......... .......... .......... .......... .......... 19%  113K 2m26s
  3850K .......... .......... .......... .......... .......... 19%  116K 2m25s
  3900K .......... .......... .......... .......... .......... 19%  147K 2m24s
  3950K .......... .......... .......... .......... .......... 20%  145K 2m23s
  4000K .......... .......... .......... .......... .......... 20%  202K 2m22s
  4050K .......... .......... .......... .......... .......... 20%  254K 2m21s
  4100K .......... .......... .......... .......... .......... 20%  145K 2m20s
  4150K .......... .......... .......... .......... .......... 21% 78.7K 2m20s
  4200K .......... .......... .......... .......... .......... 21%  113K 2m20s
  4250K .......... .......... .......... .......... .......... 21%  202K 2m19s
  4300K .......... .......... .......... .......... .......... 21%  146K 2m18s
  4350K .......... .......... .......... .......... .......... 22%  146K 2m17s
  4400K .......... .......... .......... .......... .......... 22%  145K 2m16s
  4450K .......... .......... .......... .......... .......... 22%  170K 2m15s
  4500K .......... .......... .......... .......... .......... 22%  145K 2m15s
  4550K .......... .......... .......... .......... .......... 23%  128K 2m14s
  4600K .......... .......... .......... .......... .......... 23% 72.5K 2m14s
  4650K .......... .......... .......... .......... .......... 23%  103K 2m14s
  4700K .......... .......... .......... .......... .......... 23%  255K 2m13s
  4750K .......... .......... .......... .......... .......... 24%  145K 2m12s
  4800K .......... .......... .......... .......... .......... 24%  113K 2m12s
  4850K .......... .......... .......... .......... .......... 24% 94.1K 2m12s
  4900K .......... .......... .......... .......... .......... 24% 50.7K 2m13s
  4950K .......... .......... .......... .......... .......... 25% 67.8K 2m13s
  5000K .......... .......... .......... .......... .......... 25% 60.0K 2m14s
  5050K .......... .......... .......... .......... .......... 25%  127K 2m13s
  5100K .......... .......... .......... .......... .......... 25%  145K 2m13s
  5150K .......... .......... .......... .......... .......... 26% 92.8K 2m12s
  5200K .......... .......... .......... .......... .......... 26% 84.7K 2m12s
  5250K .......... .......... .......... .......... .......... 26%  128K 2m12s
  5300K .......... .......... .......... .......... .......... 26%  145K 2m11s
  5350K .......... .......... .......... .......... .......... 27%  131K 2m10s
  5400K .......... .......... .......... .......... .......... 27%  140K 2m10s
  5450K .......... .......... .......... .......... .......... 27%  146K 2m9s
  5500K .......... .......... .......... .......... .......... 27%  170K 2m8s
  5550K .......... .......... .......... .......... .......... 28%  151K 2m7s
  5600K .......... .......... .......... .......... .......... 28%  163K 2m7s
  5650K .......... .......... .......... .......... .......... 28%  170K 2m6s
  5700K .......... .......... .......... .......... .......... 28%  131K 2m5s
  5750K .......... .......... .......... .......... .......... 29%  125K 2m5s
  5800K .......... .......... .......... .......... .......... 29%  169K 2m4s
  5850K .......... .......... .......... .......... .......... 29%  146K 2m3s
  5900K .......... .......... .......... .......... .......... 29%  127K 2m3s
  5950K .......... .......... .......... .......... .......... 30%  145K 2m2s
  6000K .......... .......... .......... .......... .......... 30%  113K 2m2s
  6050K .......... .......... .......... .......... .......... 30%  116K 2m1s
  6100K .......... .......... .......... .......... .......... 30%  127K 2m1s
  6150K .......... .......... .......... .......... .......... 31%  128K 2m0s
  6200K .......... .......... .......... .......... .......... 31%  116K 2m0s
  6250K .......... .......... .......... .......... .......... 31%  145K 1m59s
  6300K .......... .......... .......... .......... .......... 31%  130K 1m59s
  6350K .......... .......... .......... .......... .......... 32%  165K 1m58s
  6400K .......... .......... .......... .......... .......... 32% 86.4K 1m58s
  6450K .......... .......... .......... .......... .......... 32% 56.4K 1m58s
  6500K .......... .......... .......... .......... .......... 32% 48.4K 1m59s
  6550K .......... .......... .......... .......... .......... 33%  128K 1m58s
  6600K .......... .......... .......... .......... .......... 33%  145K 1m58s
  6650K .......... .......... .......... .......... .......... 33%  145K 1m57s
  6700K .......... .......... .......... .......... .......... 33% 92.7K 1m57s
  6750K .......... .......... .......... .......... .......... 34%  113K 1m57s
  6800K .......... .......... .......... .......... .......... 34% 78.4K 1m56s
  6850K .......... .......... .......... .......... .......... 34%  102K 1m56s
  6900K .......... .......... .......... .......... .......... 34%  127K 1m56s
  6950K .......... .......... .......... .......... .......... 35%  131K 1m55s
  7000K .......... .......... .......... .......... .......... 35%  127K 1m54s
  7050K .......... .......... .......... .......... .......... 35%  146K 1m54s
  7100K .......... .......... .......... .......... .......... 35%  105K 1m53s
  7150K .......... .......... .......... .......... .......... 36%  123K 1m53s
  7200K .......... .......... .......... .......... .......... 36% 80.1K 1m53s
  7250K .......... .......... .......... .......... .......... 36% 78.5K 1m53s
  7300K .......... .......... .......... .......... .......... 36% 78.5K 1m53s
  7350K .......... .......... .......... .......... .......... 37% 85.0K 1m52s
  7400K .......... .......... .......... .......... .......... 37%  102K 1m52s
  7450K .......... .......... .......... .......... .......... 37% 78.0K 1m52s
  7500K .......... .......... .......... .......... .......... 37%  104K 1m52s
  7550K .......... .......... .......... .......... .......... 38%  102K 1m51s
  7600K .......... .......... .......... .......... .......... 38% 63.8K 1m51s
  7650K .......... .......... .......... .......... .......... 38% 92.7K 1m51s
  7700K .......... .......... .......... .......... .......... 38% 78.1K 1m51s
  7750K .......... .......... .......... .......... .......... 39% 78.4K 1m51s
  7800K .......... .......... .......... .......... .......... 39%  102K 1m50s
  7850K .......... .......... .......... .......... .......... 39%  151K 1m50s
  7900K .......... .......... .......... .......... .......... 39%  203K 1m49s
  7950K .......... .......... .......... .......... .......... 40%  169K 1m48s
  8000K .......... .......... .......... .......... .......... 40%  117K 1m48s
  8050K .......... .......... .......... .......... .......... 40% 99.7K 1m47s
  8100K .......... .......... .......... .......... .......... 40%  145K 1m47s
  8150K .......... .......... .......... .......... .......... 41%  254K 1m46s
  8200K .......... .......... .......... .......... .......... 41%  168K 1m45s
  8250K .......... .......... .......... .......... .......... 41%  146K 1m45s
  8300K .......... .......... .......... .......... .......... 41%  126K 1m44s
  8350K .......... .......... .......... .......... .......... 42%  170K 1m43s
  8400K .......... .......... .......... .......... .......... 42%  127K 1m43s
  8450K .......... .......... .......... .......... .......... 42%  203K 1m42s
  8500K .......... .......... .......... .......... .......... 42%  203K 1m41s
  8550K .......... .......... .......... .......... .......... 43%  170K 1m41s
  8600K .......... .......... .......... .......... .......... 43%  127K 1m40s
  8650K .......... .......... .......... .......... .......... 43%  202K 1m40s
  8700K .......... .......... .......... .......... .......... 43%  170K 99s
  8750K .......... .......... .......... .......... .......... 44%  151K 98s
  8800K .......... .......... .......... .......... .......... 44%  110K 98s
  8850K .......... .......... .......... .......... .......... 44%  178K 97s
  8900K .......... .......... .......... .......... .......... 44%  204K 97s
  8950K .......... .......... .......... .......... .......... 45%  127K 96s
  9000K .......... .......... .......... .......... .......... 45%  169K 96s
  9050K .......... .......... .......... .......... .......... 45%  254K 95s
  9100K .......... .......... .......... .......... .......... 45%  336K 94s
  9150K .......... .......... .......... .......... .......... 46%  256K 93s
  9200K .......... .......... .......... .......... .......... 46%  151K 93s
  9250K .......... .......... .......... .......... .......... 46%  146K 92s
  9300K .......... .......... .......... .......... .......... 46% 94.5K 92s
  9350K .......... .......... .......... .......... .......... 47% 50.6K 92s
  9400K .......... .......... .......... .......... .......... 47%  117K 92s
  9450K .......... .......... .......... .......... .......... 47%  145K 91s
  9500K .......... .......... .......... .......... .......... 47%  203K 91s
  9550K .......... .......... .......... .......... .......... 48%  204K 90s
  9600K .......... .......... .......... .......... .......... 48%  169K 89s
  9650K .......... .......... .......... .......... .......... 48%  146K 89s
  9700K .......... .......... .......... .......... .......... 48%  203K 88s
  9750K .......... .......... .......... .......... .......... 49%  102K 88s
  9800K .......... .......... .......... .......... .......... 49% 92.5K 88s
  9850K .......... .......... .......... .......... .......... 49%  150K 87s
  9900K .......... .......... .......... .......... .......... 49%  145K 86s
  9950K .......... .......... .......... .......... .......... 50%  132K 86s
 10000K .......... .......... .......... .......... .......... 50%  141K 85s
 10050K .......... .......... .......... .......... .......... 50%  127K 85s
 10100K .......... .......... .......... .......... .......... 50%  127K 85s
 10150K .......... .......... .......... .......... .......... 51%  204K 84s
 10200K .......... .......... .......... .......... .......... 51% 84.7K 84s
 10250K .......... .......... .......... .......... .......... 51%  113K 83s
 10300K .......... .......... .......... .......... .......... 51%  131K 83s
 10350K .......... .......... .......... .......... .......... 52%  203K 82s
 10400K .......... .......... .......... .......... .......... 52%  168K 82s
 10450K .......... .......... .......... .......... .......... 52%  170K 81s
 10500K .......... .......... .......... .......... .......... 52%  338K 80s
 10550K .......... .......... .......... .......... .......... 53%  169K 80s
 10600K .......... .......... .......... .......... .......... 53% 92.6K 80s
 10650K .......... .......... .......... .......... .......... 53% 95.0K 79s
 10700K .......... .......... .......... .......... .......... 53% 60.8K 79s
 10750K .......... .......... .......... .......... .......... 54%  123K 79s
 10800K .......... .......... .......... .......... .......... 54%  113K 78s
 10850K .......... .......... .......... .......... .......... 54%  113K 78s
 10900K .......... .......... .......... .......... .......... 54%  116K 77s
 10950K .......... .......... .......... .......... .......... 55%  170K 77s
 11000K .......... .......... .......... .......... .......... 55%  113K 76s
 11050K .......... .......... .......... .......... .......... 55% 66.3K 76s
 11100K .......... .......... .......... .......... .......... 55%  145K 76s
 11150K .......... .......... .......... .......... .......... 56%  128K 75s
 11200K .......... .......... .......... .......... .......... 56% 92.3K 75s
 11250K .......... .......... .......... .......... .......... 56%  102K 75s
 11300K .......... .......... .......... .......... .......... 56%  131K 74s
 11350K .......... .......... .......... .......... .......... 57%  146K 74s
 11400K .......... .......... .......... .......... .......... 57%  127K 73s
 11450K .......... .......... .......... .......... .......... 57% 92.8K 73s
 11500K .......... .......... .......... .......... .......... 57%  145K 72s
 11550K .......... .......... .......... .......... .......... 58%  203K 72s
 11600K .......... .......... .......... .......... .......... 58%  169K 71s
 11650K .......... .......... .......... .......... .......... 58%  203K 71s
 11700K .......... .......... .......... .......... .......... 58%  338K 70s
 11750K .......... .......... .......... .......... .......... 59%  203K 70s
 11800K .......... .......... .......... .......... .......... 59%  202K 69s
 11850K .......... .......... .......... .......... .......... 59%  204K 68s
 11900K .......... .......... .......... .......... .......... 59%  204K 68s
 11950K .......... .......... .......... .......... .......... 60%  146K 67s
 12000K .......... .......... .......... .......... .......... 60%  116K 67s
 12050K .......... .......... .......... .......... .......... 60%  150K 67s
 12100K .......... .......... .......... .......... .......... 60%  247K 66s
 12150K .......... .......... .......... .......... .......... 61%  125K 66s
 12200K .......... .......... .......... .......... .......... 61%  117K 65s
 12250K .......... .......... .......... .......... .......... 61%  125K 65s
 12300K .......... .......... .......... .......... .......... 61%  102K 64s
 12350K .......... .......... .......... .......... .......... 62%  113K 64s
 12400K .......... .......... .......... .......... .......... 62%  170K 63s
 12450K .......... .......... .......... .......... .......... 62%  169K 63s
 12500K .......... .......... .......... .......... .......... 62%  204K 62s
 12550K .......... .......... .......... .......... .......... 63%  215K 62s
 12600K .......... .......... .......... .......... .......... 63%  166K 61s
 12650K .......... .......... .......... .......... .......... 63%  248K 61s
 12700K .......... .......... .......... .......... .......... 63%  255K 60s
 12750K .......... .......... .......... .......... .......... 64%  254K 60s
 12800K .......... .......... .......... .......... .......... 64%  202K 59s
 12850K .......... .......... .......... .......... .......... 64%  146K 59s
 12900K .......... .......... .......... .......... .......... 64%  130K 58s
 12950K .......... .......... .......... .......... .......... 65%  173K 58s
 13000K .......... .......... .......... .......... .......... 65%  113K 58s
 13050K .......... .......... .......... .......... .......... 65%  113K 57s
 13100K .......... .......... .......... .......... .......... 65%  127K 57s
 13150K .......... .......... .......... .......... .......... 66%  128K 56s
 13200K .......... .......... .......... .......... .......... 66% 86.8K 56s
 13250K .......... .......... .......... .......... .......... 66% 92.5K 56s
 13300K .......... .......... .......... .......... .......... 66%  146K 55s
 13350K .......... .......... .......... .......... .......... 67%  131K 55s
 13400K .......... .......... .......... .......... .......... 67%  146K 54s
 13450K .......... .......... .......... .......... .......... 67%  254K 54s
 13500K .......... .......... .......... .......... .......... 67%  204K 53s
 13550K .......... .......... .......... .......... .......... 68% 84.9K 53s
 13600K .......... .......... .......... .......... .......... 68%  102K 53s
 13650K .......... .......... .......... .......... .......... 68%  132K 52s
 13700K .......... .......... .......... .......... .......... 68%  203K 52s
 13750K .......... .......... .......... .......... .......... 69%  205K 51s
 13800K .......... .......... .......... .......... .......... 69%  169K 51s
 13850K .......... .......... .......... .......... .......... 69%  204K 50s
 13900K .......... .......... .......... .......... .......... 69%  131K 50s
 13950K .......... .......... .......... .......... .......... 70%  170K 49s
 14000K .......... .......... .......... .......... .......... 70%  169K 49s
 14050K .......... .......... .......... .......... .......... 70%  170K 48s
 14100K .......... .......... .......... .......... .......... 70%  205K 48s
 14150K .......... .......... .......... .......... .......... 71%  127K 47s
 14200K .......... .......... .......... .......... .......... 71%  146K 47s
 14250K .......... .......... .......... .......... .......... 71%  102K 47s
 14300K .......... .......... .......... .......... .......... 71% 34.8K 47s
 14350K .......... .......... .......... .......... .......... 72% 63.8K 46s
 14400K .......... .......... .......... .......... .......... 72% 67.9K 46s
 14450K .......... .......... .......... .......... .......... 72% 85.1K 46s
 14500K .......... .......... .......... .......... .......... 72%  116K 45s
 14550K .......... .......... .......... .......... .......... 73%  146K 45s
 14600K .......... .......... .......... .......... .......... 73%  127K 44s
 14650K .......... .......... .......... .......... .......... 73%  145K 44s
 14700K .......... .......... .......... .......... .......... 73%  170K 44s
 14750K .......... .......... .......... .......... .......... 74%  203K 43s
 14800K .......... .......... .......... .......... .......... 74% 85.1K 43s
 14850K .......... .......... .......... .......... .......... 74%  102K 42s
 14900K .......... .......... .......... .......... .......... 74%  128K 42s
 14950K .......... .......... .......... .......... .......... 75%  203K 41s
 15000K .......... .......... .......... .......... .......... 75%  150K 41s
 15050K .......... .......... .......... .......... .......... 75% 79.9K 41s
 15100K .......... .......... .......... .......... .......... 75% 50.1K 40s
 15150K .......... .......... .......... .......... .......... 76% 60.0K 40s
 15200K .......... .......... .......... .......... .......... 76%  116K 40s
 15250K .......... .......... .......... .......... .......... 76%  102K 39s
 15300K .......... .......... .......... .......... .......... 76%  102K 39s
 15350K .......... .......... .......... .......... .......... 77%  145K 39s
 15400K .......... .......... .......... .......... .......... 77%  145K 38s
 15450K .......... .......... .......... .......... .......... 77%  202K 38s
 15500K .......... .......... .......... .......... .......... 77%  102K 37s
 15550K .......... .......... .......... .......... .......... 78%  169K 37s
 15600K .......... .......... .......... .......... .......... 78% 79.9K 36s
 15650K .......... .......... .......... .......... .......... 78%  127K 36s
 15700K .......... .......... .......... .......... .......... 78%  113K 36s
 15750K .......... .......... .......... .......... .......... 79%  143K 35s
 15800K .......... .......... .......... .......... .......... 79%  102K 35s
 15850K .......... .......... .......... .......... .......... 79% 84.9K 34s
 15900K .......... .......... .......... .......... .......... 79%  127K 34s
 15950K .......... .......... .......... .......... .......... 80%  127K 33s
 16000K .......... .......... .......... .......... .......... 80%  145K 33s
 16050K .......... .......... .......... .......... .......... 80% 92.8K 33s
 16100K .......... .......... .......... .......... .......... 80%  102K 32s
 16150K .......... .......... .......... .......... .......... 81%  132K 32s
 16200K .......... .......... .......... .......... .......... 81%  102K 31s
 16250K .......... .......... .......... .......... .......... 81%  145K 31s
 16300K .......... .......... .......... .......... .......... 81%  115K 31s
 16350K .......... .......... .......... .......... .......... 82%  112K 30s
 16400K .......... .......... .......... .......... .......... 82% 86.3K 30s
 16450K .......... .......... .......... .......... .......... 82%  113K 29s
 16500K .......... .......... .......... .......... .......... 82%  131K 29s
 16550K .......... .......... .......... .......... .......... 83%  145K 29s
 16600K .......... .......... .......... .......... .......... 83%  114K 28s
 16650K .......... .......... .......... .......... .......... 83%  116K 28s
 16700K .......... .......... .......... .......... .......... 83% 85.0K 27s
 16750K .......... .......... .......... .......... .......... 84% 92.6K 27s
 16800K .......... .......... .......... .......... .......... 84%  114K 26s
 16850K .......... .......... .......... .......... .......... 84%  130K 26s
 16900K .......... .......... .......... .......... .......... 84%  143K 26s
 16950K .......... .......... .......... .......... .......... 85%  175K 25s
 17000K .......... .......... .......... .......... .......... 85%  124K 25s
 17050K .......... .......... .......... .......... .......... 85%  169K 24s
 17100K .......... .......... .......... .......... .......... 85%  203K 24s
 17150K .......... .......... .......... .......... .......... 86%  145K 23s
 17200K .......... .......... .......... .......... .......... 86%  127K 23s
 17250K .......... .......... .......... .......... .......... 86%  145K 23s
 17300K .......... .......... .......... .......... .......... 86%  145K 22s
 17350K .......... .......... .......... .......... .......... 87%  145K 22s
 17400K .......... .......... .......... .......... .......... 87%  104K 21s
 17450K .......... .......... .......... .......... .......... 87%  128K 21s
 17500K .......... .......... .......... .......... .......... 87%  102K 20s
 17550K .......... .......... .......... .......... .......... 88%  113K 20s
 17600K .......... .......... .......... .......... .......... 88%  113K 20s
 17650K .......... .......... .......... .......... .......... 88%  102K 19s
 17700K .......... .......... .......... .......... .......... 88%  127K 19s
 17750K .......... .......... .......... .......... .......... 89%  170K 18s
 17800K .......... .......... .......... .......... .......... 89%  150K 18s
 17850K .......... .......... .......... .......... .......... 89%  110K 18s
 17900K .......... .......... .......... .......... .......... 89%  175K 17s
 17950K .......... .......... .......... .......... .......... 90%  124K 17s
 18000K .......... .......... .......... .......... .......... 90%  146K 16s
 18050K .......... .......... .......... .......... .......... 90%  254K 16s
 18100K .......... .......... .......... .......... .......... 90%  204K 15s
 18150K .......... .......... .......... .......... .......... 91%  253K 15s
 18200K .......... .......... .......... .......... .......... 91% 92.8K 15s
 18250K .......... .......... .......... .......... .......... 91%  104K 14s
 18300K .......... .......... .......... .......... .......... 91%  171K 14s
 18350K .......... .......... .......... .......... .......... 92%  213K 13s
 18400K .......... .......... .......... .......... .......... 92%  163K 13s
 18450K .......... .......... .......... .......... .......... 92%  151K 12s
 18500K .......... .......... .......... .......... .......... 92%  145K 12s
 18550K .......... .......... .......... .......... .......... 93%  127K 12s
 18600K .......... .......... .......... .......... .......... 93%  169K 11s
 18650K .......... .......... .......... .......... .......... 93%  169K 11s
 18700K .......... .......... .......... .......... .......... 93%  169K 10s
 18750K .......... .......... .......... .......... .......... 94%  127K 10s
 18800K .......... .......... .......... .......... .......... 94% 85.0K 10s
 18850K .......... .......... .......... .......... .......... 94%  126K 9s
 18900K .......... .......... .......... .......... .......... 94%  116K 9s
 18950K .......... .......... .......... .......... .......... 95% 83.0K 8s
 19000K .......... .......... .......... .......... .......... 95% 74.0K 8s
 19050K .......... .......... .......... .......... .......... 95%  145K 7s
 19100K .......... .......... .......... .......... .......... 95%  169K 7s
 19150K .......... .......... .......... .......... .......... 96%  145K 7s
 19200K .......... .......... .......... .......... .......... 96%  116K 6s
 19250K .......... .......... .......... .......... .......... 96%  171K 6s
 19300K .......... .......... .......... .......... .......... 96%  138K 5s
 19350K .......... .......... .......... .......... .......... 97%  203K 5s
 19400K .......... .......... .......... .......... .......... 97% 78.2K 5s
 19450K .......... .......... .......... .......... .......... 97%  204K 4s
 19500K .......... .......... .......... .......... .......... 97%  170K 4s
 19550K .......... .......... .......... .......... .......... 98%  211K 3s
 19600K .......... .......... .......... .......... .......... 98%  164K 3s
 19650K .......... .......... .......... .......... .......... 98%  145K 2s
 19700K .......... .......... .......... .......... .......... 98%  148K 2s
 19750K .......... .......... .......... .......... .......... 99%  102K 2s
 19800K .......... .......... .......... .......... .......... 99% 72.8K 1s
 19850K .......... .......... .......... .......... .......... 99%  128K 1s
 19900K .......... .......... .......... .......... .......... 99%  151K 0s
 19950K .......... .......... .......... .......... ..........100%  145K 0s
 20000K                                                       100% 0.00 =2m45s

2020-07-27 15:57:35 (121 KB/s) - ‘random.1’ saved [20480000/20480000]


real	2m45.613s
user	0m2.544s
sys	0m1.209s
