--2020-07-27 11:27:12--  https://10.1.0.1/random
Connecting to 10.1.0.1:443... connected.
WARNING: cannot verify 10.1.0.1's certificate, issued by ‘/C=BE/ST=LLN/O=Internet Widgits Pty Ltd’:
  Self-signed certificate encountered.
    WARNING: certificate common name ‘’ doesn't match requested host name ‘10.1.0.1’.
HTTP request sent, awaiting response... 200 OK
Length: 20480000 (20M) [application/octet-stream]
Saving to: ‘random.1’

     0K .......... .......... .......... .......... ..........  0%  336K 59s
    50K .......... .......... .......... .......... ..........  0%  507K 49s
   100K .......... .......... .......... .......... ..........  0%  338K 52s
   150K .......... .......... .......... .......... ..........  1% 7.70M 40s
   200K .......... .......... .......... .......... ..........  1% 7.89M 32s
   250K .......... .......... .......... .......... ..........  1%  319K 37s
   300K .......... .......... .......... .......... ..........  1% 8.59M 32s
   350K .......... .......... .......... .......... ..........  2%  305K 36s
   400K .......... .......... .......... .......... ..........  2%  475K 36s
   450K .......... .......... .......... .......... ..........  2%  256K 40s
   500K .......... .......... .......... .......... ..........  2% 94.0K 55s
   550K .......... .......... .......... .......... ..........  3% 92.8K 68s
   600K .......... .......... .......... .......... ..........  3%  160K 72s
   650K .......... .......... .......... .......... ..........  3%  109K 79s
   700K .......... .......... .......... .......... ..........  3%  133K 83s
   750K .......... .......... .......... .......... ..........  4%  129K 87s
   800K .......... .......... .......... .......... ..........  4%  150K 90s
   850K .......... .......... .......... .......... ..........  4%  169K 91s
   900K .......... .......... .......... .......... ..........  4%  103K 95s
   950K .......... .......... .......... .......... ..........  5%  127K 98s
  1000K .......... .......... .......... .......... ..........  5%  113K 1m41s
  1050K .......... .......... .......... .......... ..........  5%  157K 1m42s
  1100K .......... .......... .......... .......... ..........  5%  151K 1m42s
  1150K .......... .......... .......... .......... ..........  6%  116K 1m45s
  1200K .......... .......... .......... .......... ..........  6% 87.8K 1m49s
  1250K .......... .......... .......... .......... ..........  6%  361K 1m46s
  1300K .......... .......... .......... .......... ..........  6%  127K 1m47s
  1350K .......... .......... .......... .......... ..........  7%  150K 1m48s
  1400K .......... .......... .......... .......... ..........  7% 89.4K 1m51s
  1450K .......... .......... .......... .......... ..........  7%  130K 1m52s
  1500K .......... .......... .......... .......... ..........  7%  122K 1m53s
  1550K .......... .......... .......... .......... ..........  8%  151K 1m53s
  1600K .......... .......... .......... .......... ..........  8%  147K 1m53s
  1650K .......... .......... .......... .......... ..........  8%  203K 1m52s
  1700K .......... .......... .......... .......... ..........  8%  153K 1m52s
  1750K .......... .......... .......... .......... ..........  9%  140K 1m52s
  1800K .......... .......... .......... .......... ..........  9%  118K 1m53s
  1850K .......... .......... .......... .......... ..........  9%  137K 1m53s
  1900K .......... .......... .......... .......... ..........  9%  133K 1m53s
  1950K .......... .......... .......... .......... .......... 10%  143K 1m53s
  2000K .......... .......... .......... .......... .......... 10%  102K 1m54s
  2050K .......... .......... .......... .......... .......... 10% 86.8K 1m56s
  2100K .......... .......... .......... .......... .......... 10% 81.8K 1m58s
  2150K .......... .......... .......... .......... .......... 11%  244K 1m57s
  2200K .......... .......... .......... .......... .......... 11%  135K 1m57s
  2250K .......... .......... .......... .......... .......... 11%  177K 1m56s
  2300K .......... .......... .......... .......... .......... 11%  133K 1m56s
  2350K .......... .......... .......... .......... .......... 12%  117K 1m57s
  2400K .......... .......... .......... .......... .......... 12% 82.7K 1m58s
  2450K .......... .......... .......... .......... .......... 12%  145K 1m58s
  2500K .......... .......... .......... .......... .......... 12%  170K 1m57s
  2550K .......... .......... .......... .......... .......... 13%  195K 1m57s
  2600K .......... .......... .......... .......... .......... 13%  150K 1m56s
  2650K .......... .......... .......... .......... .......... 13%  127K 1m56s
  2700K .......... .......... .......... .......... .......... 13%  140K 1m56s
  2750K .......... .......... .......... .......... .......... 14%  153K 1m56s
  2800K .......... .......... .......... .......... .......... 14% 87.3K 1m57s
  2850K .......... .......... .......... .......... .......... 14%  138K 1m57s
  2900K .......... .......... .......... .......... .......... 14%  118K 1m57s
  2950K .......... .......... .......... .......... .......... 15%  142K 1m56s
  3000K .......... .......... .......... .......... .......... 15%  139K 1m56s
  3050K .......... .......... .......... .......... .......... 15%  218K 1m55s
  3100K .......... .......... .......... .......... .......... 15%  186K 1m54s
  3150K .......... .......... .......... .......... .......... 16%  119K 1m55s
  3200K .......... .......... .......... .......... .......... 16% 67.9K 1m56s
  3250K .......... .......... .......... .......... .......... 16% 77.3K 1m57s
  3300K .......... .......... .......... .......... .......... 16%  113K 1m58s
  3350K .......... .......... .......... .......... .......... 17%  125K 1m57s
  3400K .......... .......... .......... .......... .......... 17% 97.1K 1m58s
  3450K .......... .......... .......... .......... .......... 17%  177K 1m57s
  3500K .......... .......... .......... .......... .......... 17% 99.9K 1m57s
  3550K .......... .......... .......... .......... .......... 18%  255K 1m56s
  3600K .......... .......... .......... .......... .......... 18%  144K 1m56s
  3650K .......... .......... .......... .......... .......... 18%  170K 1m55s
  3700K .......... .......... .......... .......... .......... 18%  119K 1m55s
  3750K .......... .......... .......... .......... .......... 19%  169K 1m55s
  3800K .......... .......... .......... .......... .......... 19%  113K 1m55s
  3850K .......... .......... .......... .......... .......... 19%  168K 1m54s
  3900K .......... .......... .......... .......... .......... 19%  161K 1m54s
  3950K .......... .......... .......... .......... .......... 20%  145K 1m53s
  4000K .......... .......... .......... .......... .......... 20%  113K 1m53s
  4050K .......... .......... .......... .......... .......... 20%  140K 1m53s
  4100K .......... .......... .......... .......... .......... 20%  151K 1m52s
  4150K .......... .......... .......... .......... .......... 21%  149K 1m52s
  4200K .......... .......... .......... .......... .......... 21%  145K 1m52s
  4250K .......... .......... .......... .......... .......... 21%  121K 1m51s
  4300K .......... .......... .......... .......... .......... 21%  129K 1m51s
  4350K .......... .......... .......... .......... .......... 22%  182K 1m51s
  4400K .......... .......... .......... .......... .......... 22%  147K 1m50s
  4450K .......... .......... .......... .......... .......... 22%  140K 1m50s
  4500K .......... .......... .......... .......... .......... 22%  150K 1m49s
  4550K .......... .......... .......... .......... .......... 23%  170K 1m49s
  4600K .......... .......... .......... .......... .......... 23%  127K 1m49s
  4650K .......... .......... .......... .......... .......... 23%  162K 1m48s
  4700K .......... .......... .......... .......... .......... 23%  150K 1m48s
  4750K .......... .......... .......... .......... .......... 24%  101K 1m48s
  4800K .......... .......... .......... .......... .......... 24%  134K 1m47s
  4850K .......... .......... .......... .......... .......... 24% 88.9K 1m48s
  4900K .......... .......... .......... .......... .......... 24%  138K 1m47s
  4950K .......... .......... .......... .......... .......... 25%  180K 1m47s
  5000K .......... .......... .......... .......... .......... 25%  146K 1m46s
  5050K .......... .......... .......... .......... .......... 25%  102K 1m46s
  5100K .......... .......... .......... .......... .......... 25%  203K 1m46s
  5150K .......... .......... .......... .......... .......... 26%  214K 1m45s
  5200K .......... .......... .......... .......... .......... 26%  193K 1m44s
  5250K .......... .......... .......... .......... .......... 26%  146K 1m44s
  5300K .......... .......... .......... .......... .......... 26%  122K 1m44s
  5350K .......... .......... .......... .......... .......... 27%  114K 1m44s
  5400K .......... .......... .......... .......... .......... 27% 90.7K 1m44s
  5450K .......... .......... .......... .......... .......... 27%  199K 1m43s
  5500K .......... .......... .......... .......... .......... 27%  112K 1m43s
  5550K .......... .......... .......... .......... .......... 28%  201K 1m43s
  5600K .......... .......... .......... .......... .......... 28%  114K 1m42s
  5650K .......... .......... .......... .......... .......... 28% 70.7K 1m43s
  5700K .......... .......... .......... .......... .......... 28% 90.7K 1m43s
  5750K .......... .......... .......... .......... .......... 29%  127K 1m43s
  5800K .......... .......... .......... .......... .......... 29%  107K 1m43s
  5850K .......... .......... .......... .......... .......... 29%  101K 1m43s
  5900K .......... .......... .......... .......... .......... 29%  129K 1m42s
  5950K .......... .......... .......... .......... .......... 30%  112K 1m42s
  6000K .......... .......... .......... .......... .......... 30% 52.5K 1m43s
  6050K .......... .......... .......... .......... .......... 30%  170K 1m43s
  6100K .......... .......... .......... .......... .......... 30%  135K 1m42s
  6150K .......... .......... .......... .......... .......... 31% 91.0K 1m42s
  6200K .......... .......... .......... .......... .......... 31% 97.9K 1m42s
  6250K .......... .......... .......... .......... .......... 31%  254K 1m41s
  6300K .......... .......... .......... .......... .......... 31%  123K 1m41s
  6350K .......... .......... .......... .......... .......... 32%  301K 1m40s
  6400K .......... .......... .......... .......... .......... 32%  118K 1m40s
  6450K .......... .......... .......... .......... .......... 32%  148K 1m40s
  6500K .......... .......... .......... .......... .......... 32%  142K 99s
  6550K .......... .......... .......... .......... .......... 33%  127K 99s
  6600K .......... .......... .......... .......... .......... 33% 95.1K 99s
  6650K .......... .......... .......... .......... .......... 33%  107K 99s
  6700K .......... .......... .......... .......... .......... 33%  120K 98s
  6750K .......... .......... .......... .......... .......... 34%  105K 98s
  6800K .......... .......... .......... .......... .......... 34% 92.4K 98s
  6850K .......... .......... .......... .......... .......... 34%  120K 98s
  6900K .......... .......... .......... .......... .......... 34%  116K 98s
  6950K .......... .......... .......... .......... .......... 35%  119K 97s
  7000K .......... .......... .......... .......... .......... 35%  113K 97s
  7050K .......... .......... .......... .......... .......... 35%  135K 97s
  7100K .......... .......... .......... .......... .......... 35%  150K 96s
  7150K .......... .......... .......... .......... .......... 36%  149K 96s
  7200K .......... .......... .......... .......... .......... 36% 88.3K 96s
  7250K .......... .......... .......... .......... .......... 36%  126K 95s
  7300K .......... .......... .......... .......... .......... 36%  127K 95s
  7350K .......... .......... .......... .......... .......... 37%  101K 95s
  7400K .......... .......... .......... .......... .......... 37%  305K 94s
  7450K .......... .......... .......... .......... .......... 37% 66.5K 94s
  7500K .......... .......... .......... .......... .......... 37%  201K 94s
  7550K .......... .......... .......... .......... .......... 38%  203K 93s
  7600K .......... .......... .......... .......... .......... 38%  106K 93s
  7650K .......... .......... .......... .......... .......... 38% 96.2K 93s
  7700K .......... .......... .......... .......... .......... 38% 83.5K 93s
  7750K .......... .......... .......... .......... .......... 39%  116K 93s
  7800K .......... .......... .......... .......... .......... 39%  104K 92s
  7850K .......... .......... .......... .......... .......... 39%  126K 92s
  7900K .......... .......... .......... .......... .......... 39% 69.9K 92s
  7950K .......... .......... .......... .......... .......... 40% 8.19M 91s
  8000K .......... .......... .......... .......... .......... 40% 8.60M 90s
  8050K .......... .......... .......... .......... .......... 40%  146K 90s
  8100K .......... .......... .......... .......... .......... 40% 84.4K 90s
  8150K .......... .......... .......... .......... .......... 41%  144K 89s
  8200K .......... .......... .......... .......... .......... 41%  128K 89s
  8250K .......... .......... .......... .......... .......... 41%  170K 88s
  8300K .......... .......... .......... .......... .......... 41%  203K 88s
  8350K .......... .......... .......... .......... .......... 42%  203K 87s
  8400K .......... .......... .......... .......... .......... 42% 70.2K 87s
  8450K .......... .......... .......... .......... .......... 42%  189K 87s
  8500K .......... .......... .......... .......... .......... 42%  134K 86s
  8550K .......... .......... .......... .......... .......... 43%  162K 86s
  8600K .......... .......... .......... .......... .......... 43%  170K 86s
  8650K .......... .......... .......... .......... .......... 43%  145K 85s
  8700K .......... .......... .......... .......... .......... 43%  140K 85s
  8750K .......... .......... .......... .......... .......... 44%  151K 84s
  8800K .......... .......... .......... .......... .......... 44%  114K 84s
  8850K .......... .......... .......... .......... .......... 44%  170K 84s
  8900K .......... .......... .......... .......... .......... 44%  203K 83s
  8950K .......... .......... .......... .......... .......... 45%  150K 83s
  9000K .......... .......... .......... .......... .......... 45%  121K 82s
  9050K .......... .......... .......... .......... .......... 45%  217K 82s
  9100K .......... .......... .......... .......... .......... 45%  185K 81s
  9150K .......... .......... .......... .......... .......... 46%  290K 81s
  9200K .......... .......... .......... .......... .......... 46%  122K 80s
  9250K .......... .......... .......... .......... .......... 46%  136K 80s
  9300K .......... .......... .......... .......... .......... 46%  169K 79s
  9350K .......... .......... .......... .......... .......... 47%  246K 79s
  9400K .......... .......... .......... .......... .......... 47%  185K 78s
  9450K .......... .......... .......... .......... .......... 47%  141K 78s
  9500K .......... .......... .......... .......... .......... 47%  934K 77s
  9550K .......... .......... .......... .......... .......... 48%  153K 77s
  9600K .......... .......... .......... .......... .......... 48% 74.3K 77s
  9650K .......... .......... .......... .......... .......... 48%  232K 76s
  9700K .......... .......... .......... .......... .......... 48% 70.0K 76s
  9750K .......... .......... .......... .......... .......... 49%  151K 76s
  9800K .......... .......... .......... .......... .......... 49%  150K 75s
  9850K .......... .......... .......... .......... .......... 49% 85.9K 75s
  9900K .......... .......... .......... .......... .......... 49%  130K 75s
  9950K .......... .......... .......... .......... .......... 50%  104K 75s
 10000K .......... .......... .......... .......... .......... 50%  123K 74s
 10050K .......... .......... .......... .......... .......... 50%  201K 74s
 10100K .......... .......... .......... .......... .......... 50%  108K 74s
 10150K .......... .......... .......... .......... .......... 51%  293K 73s
 10200K .......... .......... .......... .......... .......... 51%  127K 73s
 10250K .......... .......... .......... .......... .......... 51%  109K 72s
 10300K .......... .......... .......... .......... .......... 51%  114K 72s
 10350K .......... .......... .......... .......... .......... 52%  100K 72s
 10400K .......... .......... .......... .......... .......... 52%  147K 71s
 10450K .......... .......... .......... .......... .......... 52%  110K 71s
 10500K .......... .......... .......... .......... .......... 52%  111K 71s
 10550K .......... .......... .......... .......... .......... 53%  121K 70s
 10600K .......... .......... .......... .......... .......... 53% 91.2K 70s
 10650K .......... .......... .......... .......... .......... 53%  169K 70s
 10700K .......... .......... .......... .......... .......... 53% 94.0K 69s
 10750K .......... .......... .......... .......... .......... 54%  196K 69s
 10800K .......... .......... .......... .......... .......... 54%  101K 69s
 10850K .......... .......... .......... .......... .......... 54%  157K 68s
 10900K .......... .......... .......... .......... .......... 54%  175K 68s
 10950K .......... .......... .......... .......... .......... 55% 98.7K 68s
 11000K .......... .......... .......... .......... .......... 55%  120K 67s
 11050K .......... .......... .......... .......... .......... 55% 92.9K 67s
 11100K .......... .......... .......... .......... .......... 55%  194K 67s
 11150K .......... .......... .......... .......... .......... 56%  113K 66s
 11200K .......... .......... .......... .......... .......... 56%  145K 66s
 11250K .......... .......... .......... .......... .......... 56%  114K 65s
 11300K .......... .......... .......... .......... .......... 56%  126K 65s
 11350K .......... .......... .......... .......... .......... 57%  125K 65s
 11400K .......... .......... .......... .......... .......... 57%  175K 64s
 11450K .......... .......... .......... .......... .......... 57%  137K 64s
 11500K .......... .......... .......... .......... .......... 57%  176K 63s
 11550K .......... .......... .......... .......... .......... 58% 86.1K 63s
 11600K .......... .......... .......... .......... .......... 58%  170K 63s
 11650K .......... .......... .......... .......... .......... 58%  162K 62s
 11700K .......... .......... .......... .......... .......... 58%  132K 62s
 11750K .......... .......... .......... .......... .......... 59%  202K 62s
 11800K .......... .......... .......... .......... .......... 59%  113K 61s
 11850K .......... .......... .......... .......... .......... 59%  193K 61s
 11900K .......... .......... .......... .......... .......... 59%  117K 60s
 11950K .......... .......... .......... .......... .......... 60%  170K 60s
 12000K .......... .......... .......... .......... .......... 60%  146K 60s
 12050K .......... .......... .......... .......... .......... 60%  167K 59s
 12100K .......... .......... .......... .......... .......... 60%  151K 59s
 12150K .......... .......... .......... .......... .......... 61%  100K 58s
 12200K .......... .......... .......... .......... .......... 61% 84.0K 58s
 12250K .......... .......... .......... .......... .......... 61%  627K 58s
 12300K .......... .......... .......... .......... .......... 61%  102K 57s
 12350K .......... .......... .......... .......... .......... 62%  119K 57s
 12400K .......... .......... .......... .......... .......... 62% 95.3K 57s
 12450K .......... .......... .......... .......... .......... 62%  145K 56s
 12500K .......... .......... .......... .......... .......... 62%  146K 56s
 12550K .......... .......... .......... .......... .......... 63% 83.5K 56s
 12600K .......... .......... .......... .......... .......... 63%  127K 55s
 12650K .......... .......... .......... .......... .......... 63%  181K 55s
 12700K .......... .......... .......... .......... .......... 63%  255K 54s
 12750K .......... .......... .......... .......... .......... 64%  119K 54s
 12800K .......... .......... .......... .......... .......... 64%  123K 54s
 12850K .......... .......... .......... .......... .......... 64% 97.8K 53s
 12900K .......... .......... .......... .......... .......... 64%  101K 53s
 12950K .......... .......... .......... .......... .......... 65%  107K 53s
 13000K .......... .......... .......... .......... .......... 65%  106K 52s
 13050K .......... .......... .......... .......... .......... 65% 98.9K 52s
 13100K .......... .......... .......... .......... .......... 65%  132K 52s
 13150K .......... .......... .......... .......... .......... 66%  114K 51s
 13200K .......... .......... .......... .......... .......... 66%  251K 51s
 13250K .......... .......... .......... .......... .......... 66%  168K 51s
 13300K .......... .......... .......... .......... .......... 66%  102K 50s
 13350K .......... .......... .......... .......... .......... 67%  143K 50s
 13400K .......... .......... .......... .......... .......... 67%  107K 49s
 13450K .......... .......... .......... .......... .......... 67%  138K 49s
 13500K .......... .......... .......... .......... .......... 67%  132K 49s
 13550K .......... .......... .......... .......... .......... 68%  198K 48s
 13600K .......... .......... .......... .......... .......... 68% 94.3K 48s
 13650K .......... .......... .......... .......... .......... 68%  131K 48s
 13700K .......... .......... .......... .......... .......... 68%  128K 47s
 13750K .......... .......... .......... .......... .......... 69%  102K 47s
 13800K .......... .......... .......... .......... .......... 69%  140K 47s
 13850K .......... .......... .......... .......... .......... 69%  162K 46s
 13900K .......... .......... .......... .......... .......... 69%  150K 46s
 13950K .......... .......... .......... .......... .......... 70%  101K 45s
 14000K .......... .......... .......... .......... .......... 70%  113K 45s
 14050K .......... .......... .......... .......... .......... 70%  141K 45s
 14100K .......... .......... .......... .......... .......... 70%  151K 44s
 14150K .......... .......... .......... .......... .......... 71%  143K 44s
 14200K .......... .......... .......... .......... .......... 71%  147K 43s
 14250K .......... .......... .......... .......... .......... 71%  131K 43s
 14300K .......... .......... .......... .......... .......... 71% 94.9K 43s
 14350K .......... .......... .......... .......... .......... 72%  260K 42s
 14400K .......... .......... .......... .......... .......... 72% 74.3K 42s
 14450K .......... .......... .......... .......... .......... 72%  118K 42s
 14500K .......... .......... .......... .......... .......... 72% 64.4K 41s
 14550K .......... .......... .......... .......... .......... 73%  200K 41s
 14600K .......... .......... .......... .......... .......... 73% 96.7K 41s
 14650K .......... .......... .......... .......... .......... 73%  282K 40s
 14700K .......... .......... .......... .......... .......... 73%  137K 40s
 14750K .......... .......... .......... .......... .......... 74%  133K 39s
 14800K .......... .......... .......... .......... .......... 74%  151K 39s
 14850K .......... .......... .......... .......... .......... 74%  175K 39s
 14900K .......... .......... .......... .......... .......... 74%  133K 38s
 14950K .......... .......... .......... .......... .......... 75%  145K 38s
 15000K .......... .......... .......... .......... .......... 75%  121K 38s
 15050K .......... .......... .......... .......... .......... 75% 67.6K 37s
 15100K .......... .......... .......... .......... .......... 75%  181K 37s
 15150K .......... .......... .......... .......... .......... 76% 77.7K 37s
 15200K .......... .......... .......... .......... .......... 76%  122K 36s
 15250K .......... .......... .......... .......... .......... 76%  114K 36s
 15300K .......... .......... .......... .......... .......... 76%  111K 35s
 15350K .......... .......... .......... .......... .......... 77%  119K 35s
 15400K .......... .......... .......... .......... .......... 77%  110K 35s
 15450K .......... .......... .......... .......... .......... 77%  112K 34s
 15500K .......... .......... .......... .......... .......... 77%  165K 34s
 15550K .......... .......... .......... .......... .......... 78% 82.2K 34s
 15600K .......... .......... .......... .......... .......... 78%  258K 33s
 15650K .......... .......... .......... .......... .......... 78%  137K 33s
 15700K .......... .......... .......... .......... .......... 78%  203K 32s
 15750K .......... .......... .......... .......... .......... 79%  213K 32s
 15800K .......... .......... .......... .......... .......... 79%  170K 32s
 15850K .......... .......... .......... .......... .......... 79%  170K 31s
 15900K .......... .......... .......... .......... .......... 79%  202K 31s
 15950K .......... .......... .......... .......... .......... 80%  113K 30s
 16000K .......... .......... .......... .......... .......... 80%  123K 30s
 16050K .......... .......... .......... .......... .......... 80% 94.7K 30s
 16100K .......... .......... .......... .......... .......... 80%  309K 29s
 16150K .......... .......... .......... .......... .......... 81%  199K 29s
 16200K .......... .......... .......... .......... .......... 81%  151K 28s
 16250K .......... .......... .......... .......... .......... 81%  197K 28s
 16300K .......... .......... .......... .......... .......... 81%  146K 28s
 16350K .......... .......... .......... .......... .......... 82%  177K 27s
 16400K .......... .......... .......... .......... .......... 82% 52.9K 27s
 16450K .......... .......... .......... .......... .......... 82%  189K 27s
 16500K .......... .......... .......... .......... .......... 82%  202K 26s
 16550K .......... .......... .......... .......... .......... 83%  150K 26s
 16600K .......... .......... .......... .......... .......... 83%  301K 25s
 16650K .......... .......... .......... .......... .......... 83%  200K 25s
 16700K .......... .......... .......... .......... .......... 83%  146K 25s
 16750K .......... .......... .......... .......... .......... 84%  263K 24s
 16800K .......... .......... .......... .......... .......... 84%  131K 24s
 16850K .......... .......... .......... .......... .......... 84%  126K 23s
 16900K .......... .......... .......... .......... .......... 84%  148K 23s
 16950K .......... .......... .......... .......... .......... 85%  161K 23s
 17000K .......... .......... .......... .......... .......... 85%  151K 22s
 17050K .......... .......... .......... .......... .......... 85%  101K 22s
 17100K .......... .......... .......... .......... .......... 85% 67.9K 22s
 17150K .......... .......... .......... .......... .......... 86%  112K 21s
 17200K .......... .......... .......... .......... .......... 86%  113K 21s
 17250K .......... .......... .......... .......... .......... 86%  154K 20s
 17300K .......... .......... .......... .......... .......... 86%  127K 20s
 17350K .......... .......... .......... .......... .......... 87%  128K 20s
 17400K .......... .......... .......... .......... .......... 87%  102K 19s
 17450K .......... .......... .......... .......... .......... 87%  117K 19s
 17500K .......... .......... .......... .......... .......... 87% 67.6K 19s
 17550K .......... .......... .......... .......... .......... 88% 8.41M 18s
 17600K .......... .......... .......... .......... .......... 88%  147K 18s
 17650K .......... .......... .......... .......... .......... 88%  101K 17s
 17700K .......... .......... .......... .......... .......... 88%  207K 17s
 17750K .......... .......... .......... .......... .......... 89%  114K 17s
 17800K .......... .......... .......... .......... .......... 89%  249K 16s
 17850K .......... .......... .......... .......... .......... 89%  119K 16s
 17900K .......... .......... .......... .......... .......... 89%  117K 16s
 17950K .......... .......... .......... .......... .......... 90%  127K 15s
 18000K .......... .......... .......... .......... .......... 90%  128K 15s
 18050K .......... .......... .......... .......... .......... 90% 94.7K 14s
 18100K .......... .......... .......... .......... .......... 90%  110K 14s
 18150K .......... .......... .......... .......... .......... 91% 64.5K 14s
 18200K .......... .......... .......... .......... .......... 91%  100K 13s
 18250K .......... .......... .......... .......... .......... 91%  264K 13s
 18300K .......... .......... .......... .......... .......... 91%  135K 13s
 18350K .......... .......... .......... .......... .......... 92% 77.5K 12s
 18400K .......... .......... .......... .......... .......... 92%  546K 12s
 18450K .......... .......... .......... .......... .......... 92%  143K 11s
 18500K .......... .......... .......... .......... .......... 92%  118K 11s
 18550K .......... .......... .......... .......... .......... 93%  113K 11s
 18600K .......... .......... .......... .......... .......... 93% 84.0K 10s
 18650K .......... .......... .......... .......... .......... 93%  249K 10s
 18700K .......... .......... .......... .......... .......... 93%  107K 10s
 18750K .......... .......... .......... .......... .......... 94%  103K 9s
 18800K .......... .......... .......... .......... .......... 94%  127K 9s
 18850K .......... .......... .......... .......... .......... 94%  129K 8s
 18900K .......... .......... .......... .......... .......... 94%  249K 8s
 18950K .......... .......... .......... .......... .......... 95%  101K 8s
 19000K .......... .......... .......... .......... .......... 95%  342K 7s
 19050K .......... .......... .......... .......... .......... 95%  170K 7s
 19100K .......... .......... .......... .......... .......... 95%  181K 6s
 19150K .......... .......... .......... .......... .......... 96%  144K 6s
 19200K .......... .......... .......... .......... .......... 96%  147K 6s
 19250K .......... .......... .......... .......... .......... 96%  144K 5s
 19300K .......... .......... .......... .......... .......... 96%  128K 5s
 19350K .......... .......... .......... .......... .......... 97%  175K 5s
 19400K .......... .......... .......... .......... .......... 97%  132K 4s
 19450K .......... .......... .......... .......... .......... 97%  198K 4s
 19500K .......... .......... .......... .......... .......... 97%  106K 3s
 19550K .......... .......... .......... .......... .......... 98%  150K 3s
 19600K .......... .......... .......... .......... .......... 98%  105K 3s
 19650K .......... .......... .......... .......... .......... 98% 90.0K 2s
 19700K .......... .......... .......... .......... .......... 98%  215K 2s
 19750K .......... .......... .......... .......... .......... 99% 93.9K 2s
 19800K .......... .......... .......... .......... .......... 99%  166K 1s
 19850K .......... .......... .......... .......... .......... 99%  136K 1s
 19900K .......... .......... .......... .......... .......... 99%  110K 0s
 19950K .......... .......... .......... .......... ..........100%  100K 0s
 20000K                                                       100% 0.00 =2m32s

2020-07-27 11:29:44 (131 KB/s) - ‘random.1’ saved [20480000/20480000]


real	2m32.478s
user	0m2.535s
sys	0m1.586s
