Serving new connection: a4a40660ae89ec13, version 512 from 10.0.0.1:45281
GET 10.1.0.1:6121/ugfiugizuegiugzeffg
Responding with 404
Info for stream 5 of a4a40660ae89ec13
Path 0: sent 12 retrans 0 lost 0; rcv 8 rtt 61.652ms
Serving new connection: a6e064820692f709, version 512 from 10.0.0.1:53959
Info for stream 5 of a4a40660ae89ec13
Path 0: sent 14 retrans 1 lost 0; rcv 11 rtt 58.807ms
GET 10.1.0.1:6121/random
Responding with 200
Info for stream 5 of a4a40660ae89ec13
Path 0: sent 15 retrans 2 lost 0; rcv 11 rtt 58.807ms
Info for stream 5 of a4a40660ae89ec13
Path 0: sent 16 retrans 3 lost 1; rcv 11 rtt 58.807ms
Info for stream 5 of a4a40660ae89ec13
Path 0: sent 18 retrans 5 lost 3; rcv 11 rtt 58.807ms
Info for stream 5 of a4a40660ae89ec13
Path 0: sent 19 retrans 6 lost 4; rcv 11 rtt 58.807ms
Info for stream 5 of a4a40660ae89ec13
Path 0: sent 21 retrans 8 lost 6; rcv 11 rtt 58.807ms
Info for stream 5 of a4a40660ae89ec13
Path 0: sent 22 retrans 9 lost 7; rcv 11 rtt 58.807ms
Info for stream 5 of a4a40660ae89ec13
Path 0: sent 24 retrans 11 lost 9; rcv 11 rtt 58.807ms
Info for stream 5 of a4a40660ae89ec13
Path 0: sent 25 retrans 12 lost 10; rcv 11 rtt 58.807ms
Closing connection a4a40660ae89ec13
Info for stream 5 of a6e064820692f709
Path 0: sent 17233 retrans 797 lost 797; rcv 8988 rtt 51.484ms
