Serving new connection: e0175bf0763299b, version 512 from 10.0.0.1:59412
GET 10.1.0.1:6121/ugfiugizuegiugzeffg
Responding with 404
Info for stream 5 of e0175bf0763299b
Path 0: sent 12 retrans 0 lost 0; rcv 8 rtt 63.909ms
Serving new connection: 26faafc628df2811, version 512 from 10.0.0.1:59252
Info for stream 5 of e0175bf0763299b
Path 0: sent 14 retrans 1 lost 0; rcv 11 rtt 60.545ms
GET 10.1.0.1:6121/random
Responding with 200
Info for stream 5 of e0175bf0763299b
Path 0: sent 15 retrans 2 lost 0; rcv 11 rtt 60.545ms
Info for stream 5 of e0175bf0763299b
Path 0: sent 16 retrans 3 lost 1; rcv 11 rtt 60.545ms
Info for stream 5 of e0175bf0763299b
Path 0: sent 18 retrans 5 lost 3; rcv 11 rtt 60.545ms
Info for stream 5 of e0175bf0763299b
Path 0: sent 19 retrans 6 lost 4; rcv 11 rtt 60.545ms
Info for stream 5 of e0175bf0763299b
Path 0: sent 21 retrans 8 lost 6; rcv 11 rtt 60.545ms
Info for stream 5 of e0175bf0763299b
Path 0: sent 22 retrans 9 lost 7; rcv 11 rtt 60.545ms
Info for stream 5 of e0175bf0763299b
Path 0: sent 24 retrans 11 lost 9; rcv 11 rtt 60.545ms
Info for stream 5 of e0175bf0763299b
Path 0: sent 25 retrans 12 lost 10; rcv 11 rtt 60.545ms
Closing connection e0175bf0763299b
Info for stream 5 of 26faafc628df2811
Path 0: sent 17246 retrans 821 lost 821; rcv 9013 rtt 50.674ms
Info for stream 5 of 26faafc628df2811
Path 0: sent 17248 retrans 822 lost 821; rcv 9015 rtt 50.835ms
Info for stream 5 of 26faafc628df2811
Path 0: sent 17249 retrans 823 lost 821; rcv 9015 rtt 50.835ms
Info for stream 5 of 26faafc628df2811
Path 0: sent 17250 retrans 824 lost 822; rcv 9015 rtt 50.835ms
Info for stream 5 of 26faafc628df2811
Path 0: sent 17252 retrans 826 lost 824; rcv 9015 rtt 50.835ms
Info for stream 5 of 26faafc628df2811
Path 0: sent 17253 retrans 827 lost 825; rcv 9015 rtt 50.835ms
