--2020-07-26 20:44:18--  https://10.1.0.1/random
Connecting to 10.1.0.1:443... connected.
WARNING: cannot verify 10.1.0.1's certificate, issued by ‘/C=BE/ST=LLN/O=Internet Widgits Pty Ltd’:
  Self-signed certificate encountered.
    WARNING: certificate common name ‘’ doesn't match requested host name ‘10.1.0.1’.
HTTP request sent, awaiting response... 200 OK
Length: 20480000 (20M) [application/octet-stream]
Saving to: ‘random.1’

     0K .......... .......... .......... .......... ..........  0%  369K 54s
    50K .......... .......... .......... .......... ..........  0% 7.94M 28s
   100K .......... .......... .......... .......... ..........  0%  470K 33s
   150K .......... .......... .......... .......... ..........  1%  790K 31s
   200K .......... .......... .......... .......... ..........  1%  301K 38s
   250K .......... .......... .......... .......... ..........  1%  612K 37s
   300K .......... .......... .......... .......... ..........  1%  382K 39s
   350K .......... .......... .......... .......... ..........  2%  204K 46s
   400K .......... .......... .......... .......... ..........  2%  115K 60s
   450K .......... .......... .......... .......... ..........  2%  208K 63s
   500K .......... .......... .......... .......... ..........  2%  116K 72s
   550K .......... .......... .......... .......... ..........  3%  128K 79s
   600K .......... .......... .......... .......... ..........  3% 92.0K 89s
   650K .......... .......... .......... .......... ..........  3% 67.7K 1m43s
   700K .......... .......... .......... .......... ..........  3% 63.0K 1m56s
   750K .......... .......... .......... .......... ..........  4%  277K 1m53s
   800K .......... .......... .......... .......... ..........  4%  139K 1m54s
   850K .......... .......... .......... .......... ..........  4%  155K 1m54s
   900K .......... .......... .......... .......... ..........  4%  189K 1m53s
   950K .......... .......... .......... .......... ..........  5%  132K 1m54s
  1000K .......... .......... .......... .......... ..........  5% 89.6K 1m59s
  1050K .......... .......... .......... .......... ..........  5%  171K 1m58s
  1100K .......... .......... .......... .......... ..........  5%  107K 2m0s
  1150K .......... .......... .......... .......... ..........  6%  170K 2m0s
  1200K .......... .......... .......... .......... ..........  6%  166K 1m59s
  1250K .......... .......... .......... .......... ..........  6%  113K 2m0s
  1300K .......... .......... .......... .......... ..........  6%  138K 2m1s
  1350K .......... .......... .......... .......... ..........  7% 83.8K 2m4s
  1400K .......... .......... .......... .......... ..........  7%  114K 2m5s
  1450K .......... .......... .......... .......... ..........  7% 80.0K 2m8s
  1500K .......... .......... .......... .......... ..........  7%  158K 2m7s
  1550K .......... .......... .......... .......... ..........  8%  146K 2m7s
  1600K .......... .......... .......... .......... ..........  8% 86.2K 2m9s
  1650K .......... .......... .......... .......... ..........  8%  165K 2m8s
  1700K .......... .......... .......... .......... ..........  8%  112K 2m9s
  1750K .......... .......... .......... .......... ..........  9%  146K 2m9s
  1800K .......... .......... .......... .......... ..........  9% 72.6K 2m12s
  1850K .......... .......... .......... .......... ..........  9%  338K 2m9s
  1900K .......... .......... .......... .......... ..........  9%  102K 2m10s
  1950K .......... .......... .......... .......... .......... 10%  116K 2m10s
  2000K .......... .......... .......... .......... .......... 10%  111K 2m11s
  2050K .......... .......... .......... .......... .......... 10%  108K 2m11s
  2100K .......... .......... .......... .......... .......... 10% 85.4K 2m13s
  2150K .......... .......... .......... .......... .......... 11%  515K 2m10s
  2200K .......... .......... .......... .......... .......... 11%  149K 2m9s
  2250K .......... .......... .......... .......... .......... 11%  151K 2m9s
  2300K .......... .......... .......... .......... .......... 11%  114K 2m9s
  2350K .......... .......... .......... .......... .......... 12%  169K 2m8s
  2400K .......... .......... .......... .......... .......... 12%  128K 2m8s
  2450K .......... .......... .......... .......... .......... 12%  191K 2m7s
  2500K .......... .......... .......... .......... .......... 12%  217K 2m6s
  2550K .......... .......... .......... .......... .......... 13%  242K 2m4s
  2600K .......... .......... .......... .......... .......... 13% 96.4K 2m5s
  2650K .......... .......... .......... .......... .......... 13% 95.8K 2m6s
  2700K .......... .......... .......... .......... .......... 13%  147K 2m5s
  2750K .......... .......... .......... .......... .......... 14% 95.2K 2m6s
  2800K .......... .......... .......... .......... .......... 14%  137K 2m5s
  2850K .......... .......... .......... .......... .......... 14%  180K 2m5s
  2900K .......... .......... .......... .......... .......... 14%  169K 2m4s
  2950K .......... .......... .......... .......... .......... 15%  191K 2m3s
  3000K .......... .......... .......... .......... .......... 15%  159K 2m2s
  3050K .......... .......... .......... .......... .......... 15%  185K 2m1s
  3100K .......... .......... .......... .......... .......... 15%  107K 2m2s
  3150K .......... .......... .......... .......... .......... 16%  257K 2m0s
  3200K .......... .......... .......... .......... .......... 16%  107K 2m1s
  3250K .......... .......... .......... .......... .......... 16%  114K 2m1s
  3300K .......... .......... .......... .......... .......... 16%  128K 2m0s
  3350K .......... .......... .......... .......... .......... 17% 91.4K 2m1s
  3400K .......... .......... .......... .......... .......... 17%  263K 2m0s
  3450K .......... .......... .......... .......... .......... 17%  191K 1m59s
  3500K .......... .......... .......... .......... .......... 17%  113K 1m59s
  3550K .......... .......... .......... .......... .......... 18%  121K 1m59s
  3600K .......... .......... .......... .......... .......... 18%  116K 1m59s
  3650K .......... .......... .......... .......... .......... 18%  138K 1m58s
  3700K .......... .......... .......... .......... .......... 18%  180K 1m58s
  3750K .......... .......... .......... .......... .......... 19%  129K 1m57s
  3800K .......... .......... .......... .......... .......... 19%  105K 1m58s
  3850K .......... .......... .......... .......... .......... 19%  142K 1m57s
  3900K .......... .......... .......... .......... .......... 19%  166K 1m56s
  3950K .......... .......... .......... .......... .......... 20% 71.7K 1m57s
  4000K .......... .......... .......... .......... .......... 20%  101K 1m58s
  4050K .......... .......... .......... .......... .......... 20%  133K 1m57s
  4100K .......... .......... .......... .......... .......... 20%  110K 1m57s
  4150K .......... .......... .......... .......... .......... 21%  155K 1m57s
  4200K .......... .......... .......... .......... .......... 21% 98.1K 1m57s
  4250K .......... .......... .......... .......... .......... 21%  102K 1m57s
  4300K .......... .......... .......... .......... .......... 21%  141K 1m56s
  4350K .......... .......... .......... .......... .......... 22%  148K 1m56s
  4400K .......... .......... .......... .......... .......... 22%  109K 1m56s
  4450K .......... .......... .......... .......... .......... 22%  117K 1m56s
  4500K .......... .......... .......... .......... .......... 22%  139K 1m55s
  4550K .......... .......... .......... .......... .......... 23%  133K 1m55s
  4600K .......... .......... .......... .......... .......... 23%  100K 1m55s
  4650K .......... .......... .......... .......... .......... 23%  111K 1m55s
  4700K .......... .......... .......... .......... .......... 23%  118K 1m55s
  4750K .......... .......... .......... .......... .......... 24%  145K 1m54s
  4800K .......... .......... .......... .......... .......... 24% 87.7K 1m54s
  4850K .......... .......... .......... .......... .......... 24%  201K 1m54s
  4900K .......... .......... .......... .......... .......... 24%  145K 1m53s
  4950K .......... .......... .......... .......... .......... 25%  128K 1m53s
  5000K .......... .......... .......... .......... .......... 25%  145K 1m52s
  5050K .......... .......... .......... .......... .......... 25%  113K 1m52s
  5100K .......... .......... .......... .......... .......... 25%  145K 1m52s
  5150K .......... .......... .......... .......... .......... 26%  107K 1m52s
  5200K .......... .......... .......... .......... .......... 26%  162K 1m51s
  5250K .......... .......... .......... .......... .......... 26%  145K 1m51s
  5300K .......... .......... .......... .......... .......... 26%  102K 1m50s
  5350K .......... .......... .......... .......... .......... 27%  202K 1m50s
  5400K .......... .......... .......... .......... .......... 27%  113K 1m50s
  5450K .......... .......... .......... .......... .......... 27%  100K 1m49s
  5500K .......... .......... .......... .......... .......... 27%  153K 1m49s
  5550K .......... .......... .......... .......... .......... 28%  171K 1m48s
  5600K .......... .......... .......... .......... .......... 28% 59.4K 1m49s
  5650K .......... .......... .......... .......... .......... 28%  448K 1m48s
  5700K .......... .......... .......... .......... .......... 28%  117K 1m48s
  5750K .......... .......... .......... .......... .......... 29%  146K 1m47s
  5800K .......... .......... .......... .......... .......... 29%  127K 1m47s
  5850K .......... .......... .......... .......... .......... 29%  145K 1m47s
  5900K .......... .......... .......... .......... .......... 29%  169K 1m46s
  5950K .......... .......... .......... .......... .......... 30%  204K 1m45s
  6000K .......... .......... .......... .......... .......... 30% 93.3K 1m45s
  6050K .......... .......... .......... .......... .......... 30%  128K 1m45s
  6100K .......... .......... .......... .......... .......... 30% 94.8K 1m45s
  6150K .......... .......... .......... .......... .......... 31%  342K 1m44s
  6200K .......... .......... .......... .......... .......... 31% 79.0K 1m44s
  6250K .......... .......... .......... .......... .......... 31%  167K 1m44s
  6300K .......... .......... .......... .......... .......... 31%  129K 1m43s
  6350K .......... .......... .......... .......... .......... 32%  621K 1m42s
  6400K .......... .......... .......... .......... .......... 32%  144K 1m42s
  6450K .......... .......... .......... .......... .......... 32%  113K 1m42s
  6500K .......... .......... .......... .......... .......... 32%  129K 1m41s
  6550K .......... .......... .......... .......... .......... 33%  134K 1m41s
  6600K .......... .......... .......... .......... .......... 33%  127K 1m41s
  6650K .......... .......... .......... .......... .......... 33%  127K 1m40s
  6700K .......... .......... .......... .......... .......... 33%  111K 1m40s
  6750K .......... .......... .......... .......... .......... 34% 87.8K 1m40s
  6800K .......... .......... .......... .......... .......... 34%  141K 1m40s
  6850K .......... .......... .......... .......... .......... 34%  130K 99s
  6900K .......... .......... .......... .......... .......... 34%  150K 99s
  6950K .......... .......... .......... .......... .......... 35%  172K 98s
  7000K .......... .......... .......... .......... .......... 35% 90.0K 98s
  7050K .......... .......... .......... .......... .......... 35%  142K 98s
  7100K .......... .......... .......... .......... .......... 35% 94.1K 98s
  7150K .......... .......... .......... .......... .......... 36% 90.3K 98s
  7200K .......... .......... .......... .......... .......... 36% 92.5K 97s
  7250K .......... .......... .......... .......... .......... 36%  128K 97s
  7300K .......... .......... .......... .......... .......... 36%  127K 97s
  7350K .......... .......... .......... .......... .......... 37% 90.4K 97s
  7400K .......... .......... .......... .......... .......... 37%  102K 96s
  7450K .......... .......... .......... .......... .......... 37%  141K 96s
  7500K .......... .......... .......... .......... .......... 37%  152K 96s
  7550K .......... .......... .......... .......... .......... 38%  143K 95s
  7600K .......... .......... .......... .......... .......... 38%  149K 95s
  7650K .......... .......... .......... .......... .......... 38%  121K 94s
  7700K .......... .......... .......... .......... .......... 38%  248K 94s
  7750K .......... .......... .......... .......... .......... 39%  161K 93s
  7800K .......... .......... .......... .......... .......... 39%  115K 93s
  7850K .......... .......... .......... .......... .......... 39%  261K 92s
  7900K .......... .......... .......... .......... .......... 39%  205K 92s
  7950K .......... .......... .......... .......... .......... 40%  177K 91s
  8000K .......... .......... .......... .......... .......... 40%  120K 91s
  8050K .......... .......... .......... .......... .......... 40%  145K 90s
  8100K .......... .......... .......... .......... .......... 40%  126K 90s
  8150K .......... .......... .......... .......... .......... 41%  127K 90s
  8200K .......... .......... .......... .......... .......... 41%  121K 89s
  8250K .......... .......... .......... .......... .......... 41%  302K 89s
  8300K .......... .......... .......... .......... .......... 41%  166K 88s
  8350K .......... .......... .......... .......... .......... 42%  170K 88s
  8400K .......... .......... .......... .......... .......... 42%  127K 87s
  8450K .......... .......... .......... .......... .......... 42% 64.4K 87s
  8500K .......... .......... .......... .......... .......... 42%  499K 87s
  8550K .......... .......... .......... .......... .......... 43%  128K 86s
  8600K .......... .......... .......... .......... .......... 43% 82.5K 86s
  8650K .......... .......... .......... .......... .......... 43%  112K 86s
  8700K .......... .......... .......... .......... .......... 43%  201K 85s
  8750K .......... .......... .......... .......... .......... 44%  147K 85s
  8800K .......... .......... .......... .......... .......... 44%  152K 84s
  8850K .......... .......... .......... .......... .......... 44%  170K 84s
  8900K .......... .......... .......... .......... .......... 44%  145K 84s
  8950K .......... .......... .......... .......... .......... 45%  128K 83s
  9000K .......... .......... .......... .......... .......... 45% 90.4K 83s
  9050K .......... .......... .......... .......... .......... 45%  130K 83s
  9100K .......... .......... .......... .......... .......... 45% 92.4K 82s
  9150K .......... .......... .......... .......... .......... 46%  170K 82s
  9200K .......... .......... .......... .......... .......... 46%  145K 82s
  9250K .......... .......... .......... .......... .......... 46%  131K 81s
  9300K .......... .......... .......... .......... .......... 46%  145K 81s
  9350K .......... .......... .......... .......... .......... 47% 80.5K 81s
  9400K .......... .......... .......... .......... .......... 47% 78.0K 81s
  9450K .......... .......... .......... .......... .......... 47%  107K 80s
  9500K .......... .......... .......... .......... .......... 47%  172K 80s
  9550K .......... .......... .......... .......... .......... 48% 86.1K 80s
  9600K .......... .......... .......... .......... .......... 48%  126K 79s
  9650K .......... .......... .......... .......... .......... 48%  115K 79s
  9700K .......... .......... .......... .......... .......... 48%  143K 79s
  9750K .......... .......... .......... .......... .......... 49%  112K 78s
  9800K .......... .......... .......... .......... .......... 49%  122K 78s
  9850K .......... .......... .......... .......... .......... 49%  160K 77s
  9900K .......... .......... .......... .......... .......... 49%  187K 77s
  9950K .......... .......... .......... .......... .......... 50%  156K 76s
 10000K .......... .......... .......... .......... .......... 50%  134K 76s
 10050K .......... .......... .......... .......... .......... 50%  129K 76s
 10100K .......... .......... .......... .......... .......... 50%  167K 75s
 10150K .......... .......... .......... .......... .......... 51%  112K 75s
 10200K .......... .......... .......... .......... .......... 51% 86.5K 75s
 10250K .......... .......... .......... .......... .......... 51%  339K 74s
 10300K .......... .......... .......... .......... .......... 51%  115K 74s
 10350K .......... .......... .......... .......... .......... 52%  243K 73s
 10400K .......... .......... .......... .......... .......... 52% 99.2K 73s
 10450K .......... .......... .......... .......... .......... 52%  106K 73s
 10500K .......... .......... .......... .......... .......... 52%  157K 72s
 10550K .......... .......... .......... .......... .......... 53%  148K 72s
 10600K .......... .......... .......... .......... .......... 53%  127K 71s
 10650K .......... .......... .......... .......... .......... 53%  169K 71s
 10700K .......... .......... .......... .......... .......... 53%  227K 70s
 10750K .......... .......... .......... .......... .......... 54% 88.5K 70s
 10800K .......... .......... .......... .......... .......... 54% 7.66M 70s
 10850K .......... .......... .......... .......... .......... 54% 94.8K 69s
 10900K .......... .......... .......... .......... .......... 54%  167K 69s
 10950K .......... .......... .......... .......... .......... 55%  173K 68s
 11000K .......... .......... .......... .......... .......... 55%  146K 68s
 11050K .......... .......... .......... .......... .......... 55%  165K 68s
 11100K .......... .......... .......... .......... .......... 55% 82.3K 67s
 11150K .......... .......... .......... .......... .......... 56%  128K 67s
 11200K .......... .......... .......... .......... .......... 56%  130K 67s
 11250K .......... .......... .......... .......... .......... 56%  129K 66s
 11300K .......... .......... .......... .......... .......... 56%  201K 66s
 11350K .......... .......... .......... .......... .......... 57%  240K 65s
 11400K .......... .......... .......... .......... .......... 57%  150K 65s
 11450K .......... .......... .......... .......... .......... 57% 94.7K 65s
 11500K .......... .......... .......... .......... .......... 57%  194K 64s
 11550K .......... .......... .......... .......... .......... 58%  146K 64s
 11600K .......... .......... .......... .......... .......... 58%  122K 63s
 11650K .......... .......... .......... .......... .......... 58%  100K 63s
 11700K .......... .......... .......... .......... .......... 58%  170K 63s
 11750K .......... .......... .......... .......... .......... 59%  146K 62s
 11800K .......... .......... .......... .......... .......... 59%  112K 62s
 11850K .......... .......... .......... .......... .......... 59%  103K 62s
 11900K .......... .......... .......... .......... .......... 59%  142K 61s
 11950K .......... .......... .......... .......... .......... 60%  142K 61s
 12000K .......... .......... .......... .......... .......... 60%  120K 60s
 12050K .......... .......... .......... .......... .......... 60%  187K 60s
 12100K .......... .......... .......... .......... .......... 60%  104K 60s
 12150K .......... .......... .......... .......... .......... 61%  561K 59s
 12200K .......... .......... .......... .......... .......... 61%  169K 59s
 12250K .......... .......... .......... .......... .......... 61% 92.3K 58s
 12300K .......... .......... .......... .......... .......... 61%  254K 58s
 12350K .......... .......... .......... .......... .......... 62%  122K 57s
 12400K .......... .......... .......... .......... .......... 62% 78.9K 57s
 12450K .......... .......... .......... .......... .......... 62%  376K 57s
 12500K .......... .......... .......... .......... .......... 62%  141K 56s
 12550K .......... .......... .......... .......... .......... 63%  147K 56s
 12600K .......... .......... .......... .......... .......... 63%  162K 56s
 12650K .......... .......... .......... .......... .......... 63%  121K 55s
 12700K .......... .......... .......... .......... .......... 63%  152K 55s
 12750K .......... .......... .......... .......... .......... 64%  263K 54s
 12800K .......... .......... .......... .......... .......... 64%  162K 54s
 12850K .......... .......... .......... .......... .......... 64%  120K 53s
 12900K .......... .......... .......... .......... .......... 64% 98.9K 53s
 12950K .......... .......... .......... .......... .......... 65%  202K 53s
 13000K .......... .......... .......... .......... .......... 65%  126K 52s
 13050K .......... .......... .......... .......... .......... 65%  144K 52s
 13100K .......... .......... .......... .......... .......... 65%  216K 52s
 13150K .......... .......... .......... .......... .......... 66%  167K 51s
 13200K .......... .......... .......... .......... .......... 66%  107K 51s
 13250K .......... .......... .......... .......... .......... 66%  184K 50s
 13300K .......... .......... .......... .......... .......... 66% 96.8K 50s
 13350K .......... .......... .......... .......... .......... 67%  200K 50s
 13400K .......... .......... .......... .......... .......... 67%  122K 49s
 13450K .......... .......... .......... .......... .......... 67%  170K 49s
 13500K .......... .......... .......... .......... .......... 67%  130K 48s
 13550K .......... .......... .......... .......... .......... 68%  113K 48s
 13600K .......... .......... .......... .......... .......... 68% 96.2K 48s
 13650K .......... .......... .......... .......... .......... 68%  177K 47s
 13700K .......... .......... .......... .......... .......... 68%  132K 47s
 13750K .......... .......... .......... .......... .......... 69%  161K 47s
 13800K .......... .......... .......... .......... .......... 69%  102K 46s
 13850K .......... .......... .......... .......... .......... 69% 79.5K 46s
 13900K .......... .......... .......... .......... .......... 69%  271K 46s
 13950K .......... .......... .......... .......... .......... 70%  232K 45s
 14000K .......... .......... .......... .......... .......... 70% 72.1K 45s
 14050K .......... .......... .......... .......... .......... 70%  137K 44s
 14100K .......... .......... .......... .......... .......... 70%  137K 44s
 14150K .......... .......... .......... .......... .......... 71%  151K 44s
 14200K .......... .......... .......... .......... .......... 71%  107K 43s
 14250K .......... .......... .......... .......... .......... 71%  123K 43s
 14300K .......... .......... .......... .......... .......... 71%  170K 43s
 14350K .......... .......... .......... .......... .......... 72%  163K 42s
 14400K .......... .......... .......... .......... .......... 72%  112K 42s
 14450K .......... .......... .......... .......... .......... 72%  100K 42s
 14500K .......... .......... .......... .......... .......... 72%  170K 41s
 14550K .......... .......... .......... .......... .......... 73%  150K 41s
 14600K .......... .......... .......... .......... .......... 73%  150K 40s
 14650K .......... .......... .......... .......... .......... 73%  171K 40s
 14700K .......... .......... .......... .......... .......... 73%  167K 40s
 14750K .......... .......... .......... .......... .......... 74% 96.8K 39s
 14800K .......... .......... .......... .......... .......... 74% 94.7K 39s
 14850K .......... .......... .......... .......... .......... 74% 59.0K 39s
 14900K .......... .......... .......... .......... .......... 74%  201K 38s
 14950K .......... .......... .......... .......... .......... 75%  129K 38s
 15000K .......... .......... .......... .......... .......... 75%  102K 37s
 15050K .......... .......... .......... .......... .......... 75%  158K 37s
 15100K .......... .......... .......... .......... .......... 75%  145K 37s
 15150K .......... .......... .......... .......... .......... 76%  161K 36s
 15200K .......... .......... .......... .......... .......... 76%  149K 36s
 15250K .......... .......... .......... .......... .......... 76%  134K 36s
 15300K .......... .......... .......... .......... .......... 76% 85.7K 35s
 15350K .......... .......... .......... .......... .......... 77% 79.2K 35s
 15400K .......... .......... .......... .......... .......... 77%  137K 35s
 15450K .......... .......... .......... .......... .......... 77%  191K 34s
 15500K .......... .......... .......... .......... .......... 77%  131K 34s
 15550K .......... .......... .......... .......... .......... 78%  240K 33s
 15600K .......... .......... .......... .......... .......... 78%  144K 33s
 15650K .......... .......... .......... .......... .......... 78%  207K 33s
 15700K .......... .......... .......... .......... .......... 78% 77.0K 32s
 15750K .......... .......... .......... .......... .......... 79% 66.3K 32s
 15800K .......... .......... .......... .......... .......... 79%  151K 32s
 15850K .......... .......... .......... .......... .......... 79%  114K 31s
 15900K .......... .......... .......... .......... .......... 79%  115K 31s
 15950K .......... .......... .......... .......... .......... 80%  139K 30s
 16000K .......... .......... .......... .......... .......... 80%  146K 30s
 16050K .......... .......... .......... .......... .......... 80%  176K 30s
 16100K .......... .......... .......... .......... .......... 80%  257K 29s
 16150K .......... .......... .......... .......... .......... 81%  163K 29s
 16200K .......... .......... .......... .......... .......... 81%  138K 28s
 16250K .......... .......... .......... .......... .......... 81%  100K 28s
 16300K .......... .......... .......... .......... .......... 81%  113K 28s
 16350K .......... .......... .......... .......... .......... 82%  100K 27s
 16400K .......... .......... .......... .......... .......... 82%  151K 27s
 16450K .......... .......... .......... .......... .......... 82% 69.7K 27s
 16500K .......... .......... .......... .......... .......... 82%  372K 26s
 16550K .......... .......... .......... .......... .......... 83%  240K 26s
 16600K .......... .......... .......... .......... .......... 83%  161K 25s
 16650K .......... .......... .......... .......... .......... 83%  150K 25s
 16700K .......... .......... .......... .......... .......... 83%  172K 25s
 16750K .......... .......... .......... .......... .......... 84%  123K 24s
 16800K .......... .......... .......... .......... .......... 84%  113K 24s
 16850K .......... .......... .......... .......... .......... 84%  127K 24s
 16900K .......... .......... .......... .......... .......... 84% 86.3K 23s
 16950K .......... .......... .......... .......... .......... 85% 60.8K 23s
 17000K .......... .......... .......... .......... .......... 85%  127K 22s
 17050K .......... .......... .......... .......... .......... 85%  155K 22s
 17100K .......... .......... .......... .......... .......... 85%  149K 22s
 17150K .......... .......... .......... .......... .......... 86%  161K 21s
 17200K .......... .......... .......... .......... .......... 86%  141K 21s
 17250K .......... .......... .......... .......... .......... 86%  151K 21s
 17300K .......... .......... .......... .......... .......... 86% 75.1K 20s
 17350K .......... .......... .......... .......... .......... 87%  162K 20s
 17400K .......... .......... .......... .......... .......... 87%  105K 19s
 17450K .......... .......... .......... .......... .......... 87%  142K 19s
 17500K .......... .......... .......... .......... .......... 87%  151K 19s
 17550K .......... .......... .......... .......... .......... 88%  144K 18s
 17600K .......... .......... .......... .......... .......... 88% 97.2K 18s
 17650K .......... .......... .......... .......... .......... 88%  167K 18s
 17700K .......... .......... .......... .......... .......... 88%  148K 17s
 17750K .......... .......... .......... .......... .......... 89%  165K 17s
 17800K .......... .......... .......... .......... .......... 89% 78.2K 16s
 17850K .......... .......... .......... .......... .......... 89%  113K 16s
 17900K .......... .......... .......... .......... .......... 89%  114K 16s
 17950K .......... .......... .......... .......... .......... 90% 67.8K 15s
 18000K .......... .......... .......... .......... .......... 90%  171K 15s
 18050K .......... .......... .......... .......... .......... 90%  170K 15s
 18100K .......... .......... .......... .......... .......... 90%  106K 14s
 18150K .......... .......... .......... .......... .......... 91%  182K 14s
 18200K .......... .......... .......... .......... .......... 91%  120K 13s
 18250K .......... .......... .......... .......... .......... 91%  155K 13s
 18300K .......... .......... .......... .......... .......... 91% 98.8K 13s
 18350K .......... .......... .......... .......... .......... 92%  167K 12s
 18400K .......... .......... .......... .......... .......... 92% 90.3K 12s
 18450K .......... .......... .......... .......... .......... 92% 89.2K 11s
 18500K .......... .......... .......... .......... .......... 92%  122K 11s
 18550K .......... .......... .......... .......... .......... 93%  179K 11s
 18600K .......... .......... .......... .......... .......... 93%  143K 10s
 18650K .......... .......... .......... .......... .......... 93%  150K 10s
 18700K .......... .......... .......... .......... .......... 93%  120K 10s
 18750K .......... .......... .......... .......... .......... 94%  276K 9s
 18800K .......... .......... .......... .......... .......... 94%  158K 9s
 18850K .......... .......... .......... .......... .......... 94%  167K 8s
 18900K .......... .......... .......... .......... .......... 94%  145K 8s
 18950K .......... .......... .......... .......... .......... 95% 97.0K 8s
 19000K .......... .......... .......... .......... .......... 95% 69.0K 7s
 19050K .......... .......... .......... .......... .......... 95% 76.1K 7s
 19100K .......... .......... .......... .......... .......... 95%  150K 7s
 19150K .......... .......... .......... .......... .......... 96%  130K 6s
 19200K .......... .......... .......... .......... .......... 96% 79.1K 6s
 19250K .......... .......... .......... .......... .......... 96%  208K 5s
 19300K .......... .......... .......... .......... .......... 96% 97.4K 5s
 19350K .......... .......... .......... .......... .......... 97%  136K 5s
 19400K .......... .......... .......... .......... .......... 97%  469K 4s
 19450K .......... .......... .......... .......... .......... 97%  255K 4s
 19500K .......... .......... .......... .......... .......... 97%  337K 3s
 19550K .......... .......... .......... .......... .......... 98%  254K 3s
 19600K .......... .......... .......... .......... .......... 98%  121K 3s
 19650K .......... .......... .......... .......... .......... 98% 85.0K 2s
 19700K .......... .......... .......... .......... .......... 98%  170K 2s
 19750K .......... .......... .......... .......... .......... 99%  117K 2s
 19800K .......... .......... .......... .......... .......... 99%  127K 1s
 19850K .......... .......... .......... .......... .......... 99%  202K 1s
 19900K .......... .......... .......... .......... .......... 99%  201K 0s
 19950K .......... .......... .......... .......... ..........100%  200K 0s
 20000K                                                       100% 0.00 =2m33s

2020-07-26 20:46:51 (131 KB/s) - ‘random.1’ saved [20480000/20480000]


real	2m33.120s
user	0m2.538s
sys	0m1.597s
